%YAML 1.1
%TAG !u! tag:unity3d.com,2011:
--- !u!114 &11400000
MonoBehaviour:
  m_ObjectHideFlags: 0
  m_CorrespondingSourceObject: {fileID: 0}
  m_PrefabInstance: {fileID: 0}
  m_PrefabAsset: {fileID: 0}
  m_GameObject: {fileID: 0}
  m_Enabled: 1
  m_EditorHideFlags: 0
  m_Script: {fileID: 11500000, guid: 2cb80f63c89918b4ab7097438705be84, type: 3}
  m_Name: A WaterfrontB_TrainingAreaDataScriptObj
  m_EditorClassIdentifier: 
  trainingArea:
    trainingAreaType: 6
    trainingTerrainType: 3
    rankType: 5
    areaName: Mirage Cove
    AreaPrice: 1500
    fatigueCorrection: 0
    stressCorrection: 0
    injuryCorrection: 0
    diseaseCorrection: 0
    fatigueprobability: 0
    stressprobability: 0
    injuryprobability: 0
    diseaseprobability: 0
    recommendedTotal: 3400
    parametersCorrection:
      health: 130
      strenght: 100
      intelligent: 120
      dexterity: 110
      agility: 100
      vitality: 110
    mainParameters:
      health: 0
      strenght: 0
      intelligent: 8
      dexterity: 0
      agility: 0
      vitality: 0
    subParameters:
      health: 0
      strenght: 0
      intelligent: 0
      dexterity: 6
      agility: 0
      vitality: 6
    acquiredTraitTypes: 070000000c0000000f000000
    explorationRankType: 5
    explorationAreaPrice: 2000
    explorationRecommendedTotal: 3400
    explorationParametersCorrection:
      health: 130
      strenght: 100
      intelligent: 120
      dexterity: 110
      agility: 100
      vitality: 110
    explorationRiseParameter:
      health: 15
      strenght: 0
      intelligent: 10
      dexterity: 5
      agility: 0
      vitality: 5
