%YAML 1.1
%TAG !u! tag:unity3d.com,2011:
--- !u!114 &11400000
MonoBehaviour:
  m_ObjectHideFlags: 0
  m_CorrespondingSourceObject: {fileID: 0}
  m_PrefabInstance: {fileID: 0}
  m_PrefabAsset: {fileID: 0}
  m_GameObject: {fileID: 0}
  m_Enabled: 1
  m_EditorHideFlags: 0
  m_Script: {fileID: 11500000, guid: 995f1497195d1b848b479f3f5e311bc8, type: 3}
  m_Name: SkillHealHPST Remove 1 Debuff AbilityParam
  m_EditorClassIdentifier: 
  removePhysicDebuffNum: 1
