%YAML 1.1
%TAG !u! tag:unity3d.com,2011:
--- !u!21 &2100000
Material:
  serializedVersion: 8
  m_ObjectHideFlags: 0
  m_CorrespondingSourceObject: {fileID: 0}
  m_PrefabInstance: {fileID: 0}
  m_PrefabAsset: {fileID: 0}
  m_Name: IonMarker_Beam_02
  m_Shader: {fileID: -6465566751694194690, guid: 28890434b7404a74095bc3cb05f55aed,
    type: 3}
  m_ValidKeywords:
  - _DISTORTIONENABLED_ON
  - _RAMPENABLED_ON
  m_InvalidKeywords:
  - _DISSOLVETEXTUREFLIP_ON
  - _EMISSIONVERTEXSTREAMENABLED_ON
  - _FBPARTICLEFRAMECONTROLENABLED_ON
  - _MVPARTICLEFRAMECONTROLENABLED_ON
  m_LightmapFlags: 0
  m_EnableInstancingVariants: 0
  m_DoubleSidedGI: 0
  m_CustomRenderQueue: -1
  stringTagMap: {}
  disabledShaderPasses: []
  m_SavedProperties:
    serializedVersion: 3
    m_TexEnvs:
    - _CustomColorMask:
        m_Texture: {fileID: 2800000, guid: 89055bbbc6b943fd8065bad66c15c97d, type: 3}
        m_Scale: {x: 1, y: 1}
        m_Offset: {x: 0, y: 0}
    - _DissolveMask:
        m_Texture: {fileID: 0}
        m_Scale: {x: 1, y: 1}
        m_Offset: {x: 0, y: 0}
    - _DissolveTexture:
        m_Texture: {fileID: 2800000, guid: 7946756a0d414f759c470943148ed64a, type: 3}
        m_Scale: {x: 1, y: 1}
        m_Offset: {x: 0, y: 0}
    - _Distortion:
        m_Texture: {fileID: 2800000, guid: 57535fb8629b4c6eb8530d7d3664d59f, type: 3}
        m_Scale: {x: 1, y: 1}
        m_Offset: {x: 0, y: 0}
    - _DistortionFixMask:
        m_Texture: {fileID: 2800000, guid: dc92c400d22b4166aa9e289419dd9fd4, type: 3}
        m_Scale: {x: 1, y: 1}
        m_Offset: {x: 0, y: 0}
    - _DistortionMask:
        m_Texture: {fileID: 0}
        m_Scale: {x: 1, y: 1}
        m_Offset: {x: 0, y: 0}
    - _EmissionMask:
        m_Texture: {fileID: 2800000, guid: c2f37fa156985f54286d9f3423ca4229, type: 3}
        m_Scale: {x: 1, y: 1}
        m_Offset: {x: 0, y: 0}
    - _EmissionMaskDissolveNoise:
        m_Texture: {fileID: 2800000, guid: 35bc48dad7fe46a4f82965e223b86f2e, type: 3}
        m_Scale: {x: 1, y: 1}
        m_Offset: {x: 0, y: 0}
    - _FBMainMask:
        m_Texture: {fileID: 2800000, guid: 355857ca2a4346fda69efa7bc12f91cb, type: 3}
        m_Scale: {x: 1, y: 1}
        m_Offset: {x: 0, y: 0}
    - _MVMainMask:
        m_Texture: {fileID: 2800000, guid: 08e1abfeac7047389ecb4107ab817318, type: 3}
        m_Scale: {x: 1, y: 1}
        m_Offset: {x: 0, y: 0}
    - _MVMainMaskMotionVectors:
        m_Texture: {fileID: 2800000, guid: 7d5d6fa2b7c6896469c0720390ba7367, type: 3}
        m_Scale: {x: 1, y: 1}
        m_Offset: {x: 0, y: 0}
    - _MainMask:
        m_Texture: {fileID: 2800000, guid: 9363947f4e54412c827bb59a440765cd, type: 3}
        m_Scale: {x: 1, y: 1}
        m_Offset: {x: 0, y: 0}
    - _MainTex:
        m_Texture: {fileID: 2800000, guid: 904d8ff05d83c8342a7ec10767019412, type: 3}
        m_Scale: {x: 1, y: 1}
        m_Offset: {x: 0, y: 0}
    - _Noise01:
        m_Texture: {fileID: 2800000, guid: 203bdeda66a54eda8ab6b4661d64dfbb, type: 3}
        m_Scale: {x: 1, y: 1}
        m_Offset: {x: 0, y: 0}
    - _RadialDistortionNoise:
        m_Texture: {fileID: 2800000, guid: a9fcba2b3c04c484081fd31c7a5b9101, type: 3}
        m_Scale: {x: 1, y: 1}
        m_Offset: {x: 0, y: 0}
    - _Ramp:
        m_Texture: {fileID: 2800000, guid: f936c5b180b646ecb1f4ce835da8ab72, type: 3}
        m_Scale: {x: 1, y: 1}
        m_Offset: {x: 0, y: 0}
    - _SecondMask:
        m_Texture: {fileID: 2800000, guid: cace9bf0ffd74841aaddd90b684aa40b, type: 3}
        m_Scale: {x: 1, y: 1}
        m_Offset: {x: 0, y: 0}
    - _SecondMaskProfile:
        m_Texture: {fileID: 2800000, guid: 5cc5c655573d45119f10fe30cbd2442a, type: 3}
        m_Scale: {x: 1, y: 1}
        m_Offset: {x: 0, y: 0}
    - _SecondaryMask:
        m_Texture: {fileID: 2800000, guid: bdca230966a1467986ce5141efbbb38a, type: 3}
        m_Scale: {x: 1, y: 1}
        m_Offset: {x: 0, y: 0}
    - _tex4coord:
        m_Texture: {fileID: 0}
        m_Scale: {x: 1, y: 1}
        m_Offset: {x: 0, y: 0}
    - _tex4coord2:
        m_Texture: {fileID: 0}
        m_Scale: {x: 1, y: 1}
        m_Offset: {x: 0, y: 0}
    - _tex4coord3:
        m_Texture: {fileID: 0}
        m_Scale: {x: 1, y: 1}
        m_Offset: {x: 0, y: 0}
    - _texcoord:
        m_Texture: {fileID: 0}
        m_Scale: {x: 1, y: 1}
        m_Offset: {x: 0, y: 0}
    - unity_Lightmaps:
        m_Texture: {fileID: 0}
        m_Scale: {x: 1, y: 1}
        m_Offset: {x: 0, y: 0}
    - unity_LightmapsInd:
        m_Texture: {fileID: 0}
        m_Scale: {x: 1, y: 1}
        m_Offset: {x: 0, y: 0}
    - unity_ShadowMasks:
        m_Texture: {fileID: 0}
        m_Scale: {x: 1, y: 1}
        m_Offset: {x: 0, y: 0}
    m_Ints: []
    m_Floats:
    - _CustomColorMaskAffectedByDynamics: 1
    - _CustomColorMaskEnabled: 0
    - _CustomColorMaskSwitch: 0
    - _DISSOLVETEXTUREFLIP: 1
    - _DISSOLVETEXTUREFLIPSwitch: 1
    - _DISSOLVETEXTURERADIAL: 0
    - _DISSOLVETEXTURERADIALEnabled: 0
    - _DISSOLVETEXTURERADIALScaleU: 0.2
    - _DISSOLVETEXTURERADIALScaleV: 1
    - _DISTORTIONENABLED: 1
    - _DISTORTIONRADIAL: 0
    - _DISTORTIONRADIALOldMethodSwitch: 0
    - _DISTORTIONRADIALScaleU: 1
    - _DISTORTIONRADIALScaleV: 1
    - _DISTORTIONRADIALUseOldMethod: 0
    - _DISTORTIONUVORSPHERICAL: 0
    - _DissolveExp: 8
    - _DissolveExpReversed: 8
    - _DissolveGFromMask: 0
    - _DissolveGFromMaskExp: 4
    - _DissolveGlowAffectsRamp: 1
    - _DissolveGlowAmount: 0
    - _DissolveGlowOffset: 0.25
    - _DissolveGlowPower: 2
    - _DissolveMaskRemapMin: -1
    - _DissolveMaskScale: 1
    - _DissolveMaskSteepness: 0
    - _DissolveTextureRandomMax: 1
    - _DissolveTextureRandomMin: 1
    - _DissolveTextureScale: 1
    - _DissolveTextureScaleU: 0.5
    - _DissolveTextureScaleV: 0.5
    - _DistortionExp: 1
    - _DistortionMaskNegate: 0
    - _DistortionMaskVSMoveU: 0
    - _DistortionMaskVSMoveV: 0
    - _DistortionPower: 0.35
    - _DistortionRemapMax: 1
    - _DistortionRemapMin: -1
    - _DistortionScaleU: 0.33
    - _DistortionScaleV: 0.125
    - _DistortionScrollSpeedU: 0
    - _DistortionScrollSpeedV: 0.125
    - _DistortionSpheticalStyle: 0
    - _DistortionU: 0
    - _DistortionUseOldMethod: 0
    - _DistortionV: 1
    - _EMISSIONVERTEXSTREAMENABLED: 1
    - _FBAnimationSpeed: 15
    - _FBColums: 2
    - _FBMainMaskExp: 1
    - _FBMainMaskRotation: 0.5
    - _FBPARTICLEFRAMECONTROLENABLED: 1
    - _FBRandomFrame: 1
    - _FBRows: 2
    - _FinalOpacityExp: 1
    - _FinalOpacityExp1: 1.125
    - _FinalOpacityPower: 1
    - _FinalPower: 8
    - _MDFOU: 1
    - _MDFOV: 1
    - _MVAnimationSpeed: 15
    - _MVColums: 2
    - _MVDistortionFrameOffset: 0.001
    - _MVDistortionPower: 0.001
    - _MVMainMaskExp: 1
    - _MVMainMaskRotation: 0
    - _MVPARTICLEFRAMECONTROLENABLED: 1
    - _MVRandomFrame: 1
    - _MVRandomSpeed: 0.5
    - _MVRows: 2
    - _MainMaskExp: 1
    - _MainMaskScaleU: 1
    - _MainMaskScaleV: 1
    - _MainMaskScrollSpeedU: 0.15
    - _MainMaskScrollSpeedV: 0
    - _NOISE01RADIAL: 0
    - _NOISE01RADIAL1: 0
    - _NOISE01RADIALScaleU: 1
    - _NOISE01RADIALScaleU1: 1
    - _NOISE01RADIALScaleV: 1
    - _NOISE01RADIALScaleV1: 1
    - _Noise01Exp: 2
    - _Noise01Negate: 0.5
    - _Noise01RandomMax: 1
    - _Noise01RandomMin: 1
    - _Noise01Scale: 1
    - _Noise01ScaleU: 0.5
    - _Noise01ScaleV: 1
    - _Noise01ScrollSpeed1: 0
    - _Noise01ScrollSpeedU: 0.4
    - _Noise01ScrollSpeedV: 0
    - _QueueControl: 0
    - _QueueOffset: 0
    - _RAMPAFFECTEDBYVERTEXCOLOR: 0
    - _RAMPENABLED: 1
    - _RadialDistortionNoisePower: 0
    - _RampAffectedByDynamics: 1
    - _RampAffectedByOther: 1
    - _RampIgnoreVertexColor: 0
    - _RampNoiseAmount: 1
    - _RampOffsetExp: 2
    - _RampOffsetMultiply: 0.5
    - _RampOffsetMultiply1: 1
    - _SOFTPARTICLESENABLED: 0
    - _SecondMaskAffectsDistortion: 0
    - _SecondMaskAffectsNoise01Negate: 0
    - _SecondMaskAffectsRamp: 0
    - _SecondMaskBoostsEmission: 0
    - _SecondMaskFractShrink: 1
    - _SecondMaskFractSwitch: 0
    - _SecondMaskNegate: 0
    - _SecondMaskScaleU: 1
    - _SecondMaskScaleV: 1
    - _SecondMaskVSMoveU: 0
    - _SecondMaskVSMoveV: 0
    - _SecondaryMaskEnabled: 0
    - _SecondaryMaskNegate: 1
    - _SecondaryMaskVSMoveU: 0
    - _SecondayMaskVSMoveV: 0
    - _SoftParticlesDistance: 0.2
    - __dirty: 0
    - _testttttt: 0
    m_Colors:
    - _CustomColorMaskChannels: {r: 1, g: 0, b: 0, a: 0}
    - _FBMainMaskChannelsMultiply: {r: 1, g: 0, b: 0, a: 0}
    - _FinalColor: {r: 1, g: 0.70005554, b: 0.4575472, a: 1}
    - _MVMainMaskChannels: {r: 1, g: 0, b: 0, a: 0}
    - _MVMainMaskChannelsMultiply: {r: 1, g: 0, b: 0, a: 0}
    - _MainMaskChannelsMultiply: {r: 1, g: 0, b: 0, a: 0}
    - _Noise01ScrollSpeedUV: {r: 1, g: 1, b: 0, a: 0}
    - _RampColorTint: {r: 1, g: 1, b: 1, a: 1}
  m_BuildTextureStacks: []
--- !u!114 &3444178677317115492
MonoBehaviour:
  m_ObjectHideFlags: 11
  m_CorrespondingSourceObject: {fileID: 0}
  m_PrefabInstance: {fileID: 0}
  m_PrefabAsset: {fileID: 0}
  m_GameObject: {fileID: 0}
  m_Enabled: 1
  m_EditorHideFlags: 0
  m_Script: {fileID: 11500000, guid: d0353a89b1f911e48b9e16bdc9f2e058, type: 3}
  m_Name: 
  m_EditorClassIdentifier: 
  version: 5
