%YAML 1.1
%TAG !u! tag:unity3d.com,2011:
--- !u!114 &11400000
MonoBehaviour:
  m_ObjectHideFlags: 0
  m_CorrespondingSourceObject: {fileID: 0}
  m_PrefabInstance: {fileID: 0}
  m_PrefabAsset: {fileID: 0}
  m_GameObject: {fileID: 0}
  m_Enabled: 1
  m_EditorHideFlags: 0
  m_Script: {fileID: 11500000, guid: 92129e6bc9018ce468039aae7d4df5b3, type: 3}
  m_Name: IceLime_Eien_Skill_4_Unit_Ablility
  m_EditorClassIdentifier: 
  m_AbilityName: Slap
  m_SpriteIcon: {fileID: 21300000, guid: 3a384ea536d4bc346853285aada78302, type: 3}
  m_Radius: 1
  m_ActionPointCost: 0
  m_moveToTarget: 0
  m_bAllowBlocked: 0
  m_EffectedTeam: 1
  m_EffectedType: 0
  m_ExcuteSeftInSelect: 0
  m_BuffSeft: 0
  m_DeBuffSeft: 0
  m_AbilityShape: {fileID: 11400000, guid: 49430a039d5e81849ba23426634f8f3a, type: 2}
  m_EffectShape: {fileID: 0}
  m_EffectRadius: 0
  m_SpawnOnCaster:
  - {fileID: -84439691700808156, guid: bae0bd7af84c8584d866729ad5f9ba8d, type: 3}
  m_SpawnOnTarget:
  - {fileID: -9057300528205440904, guid: e47873cfcf2517a46b99eb1eabeae675, type: 3}
  m_Params:
  - {fileID: 11400000, guid: edeca10bc91171b4ebb5ad527d002820, type: 2}
  m_Ailments: []
  skillID: IceLime_Eien_Skill_4
