%YAML 1.1
%TAG !u! tag:unity3d.com,2011:
--- !u!114 &11400000
MonoBehaviour:
  m_ObjectHideFlags: 0
  m_CorrespondingSourceObject: {fileID: 0}
  m_PrefabInstance: {fileID: 0}
  m_PrefabAsset: {fileID: 0}
  m_GameObject: {fileID: 0}
  m_Enabled: 1
  m_EditorHideFlags: 0
  m_Script: {fileID: 11500000, guid: 54febde6c9c5a5f40a4f4e8d3196a555, type: 3}
  m_Name: SkillDataScriptObj_SignWitch_GeminiA_Skill_5
  m_EditorClassIdentifier: 
  skill:
    skillID: SignWitch_GeminiA_Skill_5
    skillGenType: 1
    skillName: "\u7D2B\u96FB"
    Description: "3\u30DE\u30B9\u5148\u307E\u3067\u5186\u5F62\u7BC4\u56F2INT\u653B\u6483\uFF08\u7BC4\u56F27\u30DE\u30B9\uFF09"
    parametersRequired:
    - 3000
    - 3600
    - 4320
    learnArea: 7
    SkillCharacteristicCorrection: 90
    skillLearnCorrection:
      health: 70
      strenght: 70
      intelligent: 120
      dexterity: 110
      agility: 100
      vitality: 70
    characteristicAcquisitionList:
    - health: 300
      strenght: 300
      intelligent: 0
      dexterity: 0
      agility: 0
      vitality: 0
    - health: 450
      strenght: 450
      intelligent: 0
      dexterity: 0
      agility: 0
      vitality: 0
    - health: 675
      strenght: 675
      intelligent: 0
      dexterity: 0
      agility: 0
      vitality: 0
    - health: 1013
      strenght: 1013
      intelligent: 0
      dexterity: 0
      agility: 0
      vitality: 0
    - health: 1519
      strenght: 1519
      intelligent: 0
      dexterity: 0
      agility: 0
      vitality: 0
    skillDetails:
    - rankType: 4
      attackRating: 357.5
      recoveryRating: 0
      supportRating: 0
      costRating: 6.36
      rangeRating: 2.14
      cost: 20
      consumedST: 32
      delay: 35
      range: 3
      areaOfEffectType: 1
      areaOfEffectRange: 7
      occurrenceType: 0
      hp_dmg: 80
      st_dmg: 0
      hit: 40
      crt: 0
      delayDamage: 0
      hp_recovery: 0
      st_recovery: 0
      skillBuffDetails: []
      skillDeBuffDetails: []
      skillDeBuffRelease: 0000000001000000
      attributeType: 6
    - rankType: 5
      attackRating: 390.1
      recoveryRating: 0
      supportRating: 0
      costRating: 6.61
      rangeRating: 2.14
      cost: 22
      consumedST: 35
      delay: 37
      range: 3
      areaOfEffectType: 1
      areaOfEffectRange: 7
      occurrenceType: 0
      hp_dmg: 92
      st_dmg: 0
      hit: 43.2
      crt: 0
      delayDamage: 0
      hp_recovery: 0
      st_recovery: 0
      skillBuffDetails: []
      skillDeBuffDetails: []
      skillDeBuffRelease: 0000000001000000
      attributeType: 6
    - rankType: 6
      attackRating: 425.71
      recoveryRating: 0
      supportRating: 0
      costRating: 6.87
      rangeRating: 2.14
      cost: 24
      consumedST: 39
      delay: 39
      range: 3
      areaOfEffectType: 1
      areaOfEffectRange: 7
      occurrenceType: 0
      hp_dmg: 105.8
      st_dmg: 0
      hit: 46.66
      crt: 0
      delayDamage: 0
      hp_recovery: 0
      st_recovery: 0
      skillBuffDetails: []
      skillDeBuffDetails: []
      skillDeBuffRelease: 0000000001000000
      attributeType: 6
