%YAML 1.1
%TAG !u! tag:unity3d.com,2011:
--- !u!114 &11400000
MonoBehaviour:
  m_ObjectHideFlags: 0
  m_CorrespondingSourceObject: {fileID: 0}
  m_PrefabInstance: {fileID: 0}
  m_PrefabAsset: {fileID: 0}
  m_GameObject: {fileID: 0}
  m_Enabled: 1
  m_EditorHideFlags: 0
  m_Script: {fileID: 11500000, guid: a0e90a2e4ad40a549abfbb194bbc4bb9, type: 3}
  m_Name: SkillDataManagerScriptObj
  m_EditorClassIdentifier: 
  skillDataList:
  - {fileID: 11400000, guid: 7ae827166908de84bbbb4a86fe1a6345, type: 2}
  - {fileID: 11400000, guid: 7d0942a92e1a5724293aacbd8a3ad62c, type: 2}
  - {fileID: 11400000, guid: ae02d1674c8d66f469d7236442316d8b, type: 2}
  - {fileID: 11400000, guid: 569d27bc6900a0643abd91dcf11fd049, type: 2}
  - {fileID: 11400000, guid: 60bfd70ef94bf064086689d5a9a19f63, type: 2}
  - {fileID: 11400000, guid: a85fe8abed91a554d83104002a95eb47, type: 2}
  - {fileID: 11400000, guid: 60da6073bca08d5459341bc1e0aee0b3, type: 2}
  - {fileID: 11400000, guid: dce5a395deea4ad4a8bed01bc4f777e1, type: 2}
  - {fileID: 11400000, guid: d351ef7c48bbea2489ae8dec1262a693, type: 2}
  - {fileID: 11400000, guid: 636f1b4206de1bc458f576d6372e01df, type: 2}
  - {fileID: 11400000, guid: 3df68be431277dd4fa9c5b76ac1d4599, type: 2}
  - {fileID: 11400000, guid: cab7566f9e66d5846b80099ba50550d7, type: 2}
  - {fileID: 11400000, guid: 069e6fa1591102144bf57b2ae9dccbcc, type: 2}
  - {fileID: 11400000, guid: 210fdc737d81f424da555f23821407f4, type: 2}
  - {fileID: 11400000, guid: 9cfabec511d4fc54ba57b80fd47a3a7e, type: 2}
  - {fileID: 11400000, guid: e23e37178360fcc4f82e366b2849e56e, type: 2}
  - {fileID: 11400000, guid: ed238f379cf1a2a4f914e17314a274d2, type: 2}
  - {fileID: 11400000, guid: 5cbfecce1e8df724f8bb13efae81bb8c, type: 2}
  - {fileID: 11400000, guid: 802befd492b61af42ac412e26678ee4f, type: 2}
  - {fileID: 11400000, guid: e29aac4f5815ec243b5bda72e8c1af7b, type: 2}
  - {fileID: 11400000, guid: 2f6c7e1fcea20bb49957c6ff6aaa69ee, type: 2}
  - {fileID: 11400000, guid: c5bbca5580f5987468bdba754c08658e, type: 2}
  - {fileID: 11400000, guid: bda4c2f1ac01f924abc060d5b76e6af6, type: 2}
  - {fileID: 11400000, guid: c45a1d5055921064ab160f7d53b8a015, type: 2}
  - {fileID: 11400000, guid: 900271520239a1c47a60de0de2f9b5c8, type: 2}
  - {fileID: 11400000, guid: 77837045ef720524ba4fe5502fb8c682, type: 2}
  - {fileID: 11400000, guid: 4e9af413369d1d14383982ba113c1a79, type: 2}
  - {fileID: 11400000, guid: 46b2bd24ea15066429ba1f0faaea36dd, type: 2}
  - {fileID: 11400000, guid: 177e9db7e1ce04a4f88fba40f79eea58, type: 2}
  - {fileID: 11400000, guid: dabf0b7f516d5274987cec9e48631849, type: 2}
  - {fileID: 11400000, guid: c5d48795c65386148bc62bebc894c60e, type: 2}
  - {fileID: 11400000, guid: 3e14eff9418b1b34fb1e60853dceb7c5, type: 2}
  - {fileID: 11400000, guid: b6398aed710bcb44f8416e06baabaac9, type: 2}
  - {fileID: 11400000, guid: 60fb47fa21be2b445a621be2922d193f, type: 2}
  - {fileID: 11400000, guid: 0b6da289d16735347b569f793e10f008, type: 2}
  - {fileID: 11400000, guid: 0a0e04d9c16be034face1cb267598ffe, type: 2}
  - {fileID: 11400000, guid: 465a4f5526ae9e843b449d3ebb6fcddf, type: 2}
  - {fileID: 11400000, guid: 18a0faf30abcf90468c6ed624591c876, type: 2}
  - {fileID: 11400000, guid: adda4ad52c924c24d8c1ef764d0b0176, type: 2}
  - {fileID: 11400000, guid: 3c8af96eba7b99a46808d0b2b3f063b6, type: 2}
  - {fileID: 11400000, guid: 9550c152446940a4db612d90939ca29e, type: 2}
  - {fileID: 11400000, guid: 29a0946e0fa25824189a377b6e4e676d, type: 2}
  - {fileID: 11400000, guid: c5989943b98221541885a08693d554c6, type: 2}
  - {fileID: 11400000, guid: 0e059db4494a3bf488e1db106e160edf, type: 2}
  - {fileID: 11400000, guid: 3b4ad2c99fa67224dbef008c75ec4317, type: 2}
  - {fileID: 11400000, guid: ffaf90eb80302a64baad76a882119625, type: 2}
  - {fileID: 11400000, guid: 5758ce5f9a87ba1409866d9f0ba7fa44, type: 2}
  - {fileID: 11400000, guid: 66934f460e569a4478db3ade9ee03364, type: 2}
  - {fileID: 11400000, guid: b0ab853a35adfac43aa702c708bc743d, type: 2}
  - {fileID: 11400000, guid: b6771d5813c975143882fd15bd3aa008, type: 2}
  - {fileID: 11400000, guid: 2e90664ef76170149b2e7e2e73aa25ed, type: 2}
  - {fileID: 11400000, guid: feabe0577d8ae094c819652d425ad852, type: 2}
  - {fileID: 11400000, guid: 202f8db802da08a438b5f7d5bb6c6758, type: 2}
  - {fileID: 11400000, guid: 2600ce7ee87ae7d498702938e17737cd, type: 2}
  - {fileID: 11400000, guid: 3be5669d0f3ef2040a5381dcb8fa12e2, type: 2}
  - {fileID: 11400000, guid: 80cac594372445f4a8e977ea79e10d14, type: 2}
  - {fileID: 11400000, guid: 52d434f36c4da444fa53222146127f40, type: 2}
