%YAML 1.1
%TAG !u! tag:unity3d.com,2011:
--- !u!114 &11400000
MonoBehaviour:
  m_ObjectHideFlags: 0
  m_CorrespondingSourceObject: {fileID: 0}
  m_PrefabInstance: {fileID: 0}
  m_PrefabAsset: {fileID: 0}
  m_GameObject: {fileID: 0}
  m_Enabled: 1
  m_EditorHideFlags: 0
  m_Script: {fileID: 11500000, guid: 54febde6c9c5a5f40a4f4e8d3196a555, type: 3}
  m_Name: SkillDataScriptObj_Ossan_01_Skill_4
  m_EditorClassIdentifier: 
  skill:
    skillID: Ossan_01_Skill_4
    skillGenType: 0
    skillName: Watermelon Split Chop
    Description: 
    parametersRequired:
    - 2500
    - 3000
    - 3600
    learnArea: 2
    SkillCharacteristicCorrection: 90
    skillLearnCorrection:
      health: 100
      strenght: 100
      intelligent: 80
      dexterity: 80
      agility: 80
      vitality: 100
    characteristicAcquisitionList:
    - health: 300
      strenght: 0
      intelligent: 0
      dexterity: 0
      agility: 0
      vitality: 300
    - health: 450
      strenght: 0
      intelligent: 0
      dexterity: 0
      agility: 0
      vitality: 450
    - health: 675
      strenght: 0
      intelligent: 0
      dexterity: 0
      agility: 0
      vitality: 675
    - health: 1013
      strenght: 0
      intelligent: 0
      dexterity: 0
      agility: 0
      vitality: 1013
    - health: 1519
      strenght: 0
      intelligent: 0
      dexterity: 0
      agility: 0
      vitality: 1519
    skillDetails:
    - rankType: 3
      attackRating: 614.39
      recoveryRating: 0
      supportRating: 0
      costRating: 5.64
      rangeRating: 1
      cost: 18
      consumedST: 24
      delay: 26
      range: 1
      areaOfEffectType: 0
      areaOfEffectRange: 1
      occurrenceType: 0
      hp_dmg: 130
      st_dmg: 0
      hit: 45
      crt: 22
      delayDamage: 5
      hp_recovery: 0
      st_recovery: 0
      skillBuffDetails: []
      skillDeBuffDetails: []
      skillDeBuffRelease: 0000000001000000
      attributeType: 1
    - rankType: 4
      attackRating: 686.22
      recoveryRating: 0
      supportRating: 0
      costRating: 5.83
      rangeRating: 1
      cost: 19
      consumedST: 26
      delay: 27
      range: 1
      areaOfEffectType: 0
      areaOfEffectRange: 1
      occurrenceType: 0
      hp_dmg: 149.5
      st_dmg: 0
      hit: 48.6
      crt: 24.2
      delayDamage: 5.5
      hp_recovery: 0
      st_recovery: 0
      skillBuffDetails: []
      skillDeBuffDetails: []
      skillDeBuffRelease: 0000000001000000
      attributeType: 1
    - rankType: 5
      attackRating: 767.08
      recoveryRating: 0
      supportRating: 0
      costRating: 6.02
      rangeRating: 1
      cost: 20
      consumedST: 29
      delay: 29
      range: 1
      areaOfEffectType: 0
      areaOfEffectRange: 1
      occurrenceType: 0
      hp_dmg: 171.93
      st_dmg: 0
      hit: 52.49
      crt: 26.62
      delayDamage: 6.1
      hp_recovery: 0
      st_recovery: 0
      skillBuffDetails: []
      skillDeBuffDetails: []
      skillDeBuffRelease: 0000000001000000
      attributeType: 1
