%YAML 1.1
%TAG !u! tag:unity3d.com,2011:
--- !u!114 &11400000
MonoBehaviour:
  m_ObjectHideFlags: 0
  m_CorrespondingSourceObject: {fileID: 0}
  m_PrefabInstance: {fileID: 0}
  m_PrefabAsset: {fileID: 0}
  m_GameObject: {fileID: 0}
  m_Enabled: 1
  m_EditorHideFlags: 0
  m_Script: {fileID: 11500000, guid: 54febde6c9c5a5f40a4f4e8d3196a555, type: 3}
  m_Name: SkillDataScriptObj_SignWitch_Cancer_Skill_6
  m_EditorClassIdentifier: 
  skill:
    skillID: SignWitch_Cancer_Skill_6
    skillGenType: 1
    skillName: "\u6B21\u5143\u88C2\u304D"
    Description: "3\u30DE\u30B9\u5148\u306B\u3001\u30B9\u30AD\u30EB\u4F7F\u7528\u8005\u306B\u5BFE\u3057\u3066\u5782\u76F4\u306BX\u5B57\u8CAB\u901AINT\u653B\u6483"
    parametersRequired:
    - 3500
    - 4200
    - 5040
    learnArea: 6
    SkillCharacteristicCorrection: 100
    skillLearnCorrection:
      health: 90
      strenght: 70
      intelligent: 120
      dexterity: 120
      agility: 120
      vitality: 80
    characteristicAcquisitionList:
    - health: 0
      strenght: 0
      intelligent: 400
      dexterity: 200
      agility: 0
      vitality: 0
    - health: 0
      strenght: 0
      intelligent: 600
      dexterity: 300
      agility: 0
      vitality: 0
    - health: 0
      strenght: 0
      intelligent: 900
      dexterity: 450
      agility: 0
      vitality: 0
    - health: 0
      strenght: 0
      intelligent: 1350
      dexterity: 675
      agility: 0
      vitality: 0
    - health: 0
      strenght: 0
      intelligent: 2025
      dexterity: 1013
      agility: 0
      vitality: 0
    skillDetails:
    - rankType: 5
      attackRating: 511.07
      recoveryRating: 0
      supportRating: 0
      costRating: 6.71
      rangeRating: 1.73
      cost: 22
      consumedST: 38
      delay: 37
      range: 3
      areaOfEffectType: 5
      areaOfEffectRange: 3
      occurrenceType: 0
      hp_dmg: 100
      st_dmg: 0
      hit: 48
      crt: 20
      delayDamage: 0
      hp_recovery: 0
      st_recovery: 0
      skillBuffDetails: []
      skillDeBuffDetails: []
      skillDeBuffRelease: 0000000001000000
      attributeType: 2
    - rankType: 6
      attackRating: 556.53
      recoveryRating: 0
      supportRating: 0
      costRating: 6.98
      rangeRating: 1.73
      cost: 24
      consumedST: 42
      delay: 39
      range: 3
      areaOfEffectType: 5
      areaOfEffectRange: 3
      occurrenceType: 0
      hp_dmg: 115
      st_dmg: 0
      hit: 51.84
      crt: 22
      delayDamage: 0
      hp_recovery: 0
      st_recovery: 0
      skillBuffDetails: []
      skillDeBuffDetails: []
      skillDeBuffRelease: 0000000001000000
      attributeType: 2
    - rankType: 6
      attackRating: 606.08
      recoveryRating: 0
      supportRating: 0
      costRating: 7.26
      rangeRating: 1.73
      cost: 27
      consumedST: 46
      delay: 41
      range: 3
      areaOfEffectType: 5
      areaOfEffectRange: 3
      occurrenceType: 0
      hp_dmg: 132.25
      st_dmg: 0
      hit: 55.99
      crt: 24.2
      delayDamage: 0
      hp_recovery: 0
      st_recovery: 0
      skillBuffDetails: []
      skillDeBuffDetails: []
      skillDeBuffRelease: 0000000001000000
      attributeType: 2
