%YAML 1.1
%TAG !u! tag:unity3d.com,2011:
--- !u!114 &11400000
MonoBehaviour:
  m_ObjectHideFlags: 0
  m_CorrespondingSourceObject: {fileID: 0}
  m_PrefabInstance: {fileID: 0}
  m_PrefabAsset: {fileID: 0}
  m_GameObject: {fileID: 0}
  m_Enabled: 1
  m_EditorHideFlags: 0
  m_Script: {fileID: 11500000, guid: 54febde6c9c5a5f40a4f4e8d3196a555, type: 3}
  m_Name: SkillDataScriptObj_SignWitch_Tarus_Skill_4
  m_EditorClassIdentifier: 
  skill:
    skillID: SignWitch_Tarus_Skill_4
    skillGenType: 1
    skillName: "\u7A32\u59BB\u843D\u3068\u3057"
    Description: "\u653B\u6483\u5BFE\u8C61\u307E\u3067\u306E\u30DE\u30B9\u306B\u5FDC\u3058\u3066\u79FB\u52D5\u3059\u308B\r\n1\u30DE\u30B9\u5148\uFF1A\u5BFE\u8C61\u304B\u30891\u30DE\u30B9\u96E2\u308C\u308B\r\n2\u30DE\u30B9\u5148\uFF1A\u79FB\u52D5\u7121\u3057\r\n3\u30DE\u30B9\u5148\uFF1A\u5BFE\u8C61\u306B\u5411\u304B\u3063\u30661\u30DE\u30B9\u79FB\u52D5\r\n4\u30DE\u30B9\u5148\uFF1A\u5BFE\u8C61\u306B\u5411\u304B\u3063\u30662\u30DE\u30B9\u79FB\u52D5"
    parametersRequired:
    - 2500
    - 3000
    - 3600
    learnArea: 2
    SkillCharacteristicCorrection: 90
    skillLearnCorrection:
      health: 70
      strenght: 70
      intelligent: 120
      dexterity: 110
      agility: 100
      vitality: 70
    characteristicAcquisitionList:
    - health: 300
      strenght: 0
      intelligent: 0
      dexterity: 0
      agility: 0
      vitality: 300
    - health: 450
      strenght: 0
      intelligent: 0
      dexterity: 0
      agility: 0
      vitality: 450
    - health: 675
      strenght: 0
      intelligent: 0
      dexterity: 0
      agility: 0
      vitality: 675
    - health: 1013
      strenght: 0
      intelligent: 0
      dexterity: 0
      agility: 0
      vitality: 1013
    - health: 1519
      strenght: 0
      intelligent: 0
      dexterity: 0
      agility: 0
      vitality: 1519
    skillDetails:
    - rankType: 3
      attackRating: 468.93
      recoveryRating: 0
      supportRating: 0
      costRating: 6.04
      rangeRating: 1.41
      cost: 20
      consumedST: 28
      delay: 28
      range: 4
      areaOfEffectType: 0
      areaOfEffectRange: 1
      occurrenceType: 3
      hp_dmg: 80
      st_dmg: 0
      hit: 45
      crt: 15
      delayDamage: 0
      hp_recovery: 0
      st_recovery: 0
      skillBuffDetails: []
      skillDeBuffDetails: []
      skillDeBuffRelease: 0000000001000000
      attributeType: 6
    - rankType: 4
      attackRating: 510.57
      recoveryRating: 0
      supportRating: 0
      costRating: 6.28
      rangeRating: 1.41
      cost: 22
      consumedST: 31
      delay: 29
      range: 4
      areaOfEffectType: 0
      areaOfEffectRange: 1
      occurrenceType: 3
      hp_dmg: 92
      st_dmg: 0
      hit: 48.6
      crt: 16.5
      delayDamage: 0
      hp_recovery: 0
      st_recovery: 0
      skillBuffDetails: []
      skillDeBuffDetails: []
      skillDeBuffRelease: 0000000001000000
      attributeType: 6
    - rankType: 5
      attackRating: 555.96
      recoveryRating: 0
      supportRating: 0
      costRating: 6.54
      rangeRating: 1.41
      cost: 24
      consumedST: 34
      delay: 31
      range: 4
      areaOfEffectType: 0
      areaOfEffectRange: 1
      occurrenceType: 3
      hp_dmg: 105.8
      st_dmg: 0
      hit: 52.49
      crt: 18.15
      delayDamage: 0
      hp_recovery: 0
      st_recovery: 0
      skillBuffDetails: []
      skillDeBuffDetails: []
      skillDeBuffRelease: 0000000001000000
      attributeType: 6
