%YAML 1.1
%TAG !u! tag:unity3d.com,2011:
--- !u!114 &11400000
MonoBehaviour:
  m_ObjectHideFlags: 0
  m_CorrespondingSourceObject: {fileID: 0}
  m_PrefabInstance: {fileID: 0}
  m_PrefabAsset: {fileID: 0}
  m_GameObject: {fileID: 0}
  m_Enabled: 1
  m_EditorHideFlags: 0
  m_Script: {fileID: 11500000, guid: 54febde6c9c5a5f40a4f4e8d3196a555, type: 3}
  m_Name: SkillDataScriptObj_Kidsfight_Hero_Skill_1
  m_EditorClassIdentifier: 
  skill:
    skillID: Kidsfight_Hero_Skill_1
    skillGenType: 0
    skillName: Hero Punch
    Description: 
    parametersRequired:
    - 1500
    - 1800
    - 2160
    learnArea: 1
    SkillCharacteristicCorrection: 90
    skillLearnCorrection:
      health: 80
      strenght: 110
      intelligent: 80
      dexterity: 90
      agility: 100
      vitality: 80
    characteristicAcquisitionList:
    - health: 300
      strenght: 0
      intelligent: 0
      dexterity: 0
      agility: 0
      vitality: 0
    - health: 450
      strenght: 0
      intelligent: 0
      dexterity: 0
      agility: 0
      vitality: 0
    - health: 675
      strenght: 0
      intelligent: 0
      dexterity: 0
      agility: 0
      vitality: 0
    - health: 1013
      strenght: 0
      intelligent: 0
      dexterity: 0
      agility: 0
      vitality: 0
    - health: 1519
      strenght: 0
      intelligent: 0
      dexterity: 0
      agility: 0
      vitality: 0
    skillDetails:
    - rankType: 0
      attackRating: 378.33
      recoveryRating: 0
      supportRating: 0
      costRating: 4.71
      rangeRating: 1
      cost: 15
      consumedST: 16
      delay: 16
      range: 1
      areaOfEffectType: 0
      areaOfEffectRange: 1
      occurrenceType: 0
      hp_dmg: 60
      st_dmg: 0
      hit: 50
      crt: 0
      delayDamage: 0
      hp_recovery: 0
      st_recovery: 0
      skillBuffDetails: []
      skillDeBuffDetails: []
      skillDeBuffRelease: 0000000001000000
      attributeType: 1
    - rankType: 1
      attackRating: 418.33
      recoveryRating: 0
      supportRating: 0
      costRating: 4.87
      rangeRating: 1
      cost: 16
      consumedST: 18
      delay: 17
      range: 1
      areaOfEffectType: 0
      areaOfEffectRange: 1
      occurrenceType: 0
      hp_dmg: 69
      st_dmg: 0
      hit: 54
      crt: 0
      delayDamage: 0
      hp_recovery: 0
      st_recovery: 0
      skillBuffDetails: []
      skillDeBuffDetails: []
      skillDeBuffRelease: 0000000001000000
      attributeType: 1
    - rankType: 2
      attackRating: 462.97
      recoveryRating: 0
      supportRating: 0
      costRating: 5.03
      rangeRating: 1
      cost: 17
      consumedST: 19
      delay: 18
      range: 1
      areaOfEffectType: 0
      areaOfEffectRange: 1
      occurrenceType: 0
      hp_dmg: 79.35
      st_dmg: 0
      hit: 58.32
      crt: 0
      delayDamage: 0
      hp_recovery: 0
      st_recovery: 0
      skillBuffDetails: []
      skillDeBuffDetails: []
      skillDeBuffRelease: 0000000001000000
      attributeType: 1
