%YAML 1.1
%TAG !u! tag:unity3d.com,2011:
--- !u!114 &11400000
MonoBehaviour:
  m_ObjectHideFlags: 0
  m_CorrespondingSourceObject: {fileID: 0}
  m_PrefabInstance: {fileID: 0}
  m_PrefabAsset: {fileID: 0}
  m_GameObject: {fileID: 0}
  m_Enabled: 1
  m_EditorHideFlags: 0
  m_Script: {fileID: 11500000, guid: 54febde6c9c5a5f40a4f4e8d3196a555, type: 3}
  m_Name: SkillDataScriptObj_Golem_Original_Skill_6
  m_EditorClassIdentifier: 
  skill:
    skillID: Golem_Original_Skill_6
    skillGenType: 0
    skillName: Body Press
    Description: 
    parametersRequired:
    - 3500
    - 4200
    - 5040
    learnArea: 0
    SkillCharacteristicCorrection: 100
    skillLearnCorrection:
      health: 120
      strenght: 120
      intelligent: 70
      dexterity: 100
      agility: 70
      vitality: 120
    characteristicAcquisitionList:
    - health: 0
      strenght: 0
      intelligent: 400
      dexterity: 200
      agility: 0
      vitality: 0
    - health: 0
      strenght: 0
      intelligent: 600
      dexterity: 300
      agility: 0
      vitality: 0
    - health: 0
      strenght: 0
      intelligent: 900
      dexterity: 450
      agility: 0
      vitality: 0
    - health: 0
      strenght: 0
      intelligent: 1350
      dexterity: 675
      agility: 0
      vitality: 0
    - health: 0
      strenght: 0
      intelligent: 2025
      dexterity: 1013
      agility: 0
      vitality: 0
    skillDetails:
    - rankType: 5
      attackRating: 634.06
      recoveryRating: 0
      supportRating: 210
      costRating: 6.39
      rangeRating: 1
      cost: 20
      consumedST: 33
      delay: 35
      range: 1
      areaOfEffectType: 0
      areaOfEffectRange: 1
      occurrenceType: 0
      hp_dmg: 160
      st_dmg: 10
      hit: 33
      crt: 15
      delayDamage: 0
      hp_recovery: 0
      st_recovery: 0
      skillBuffDetails: []
      skillDeBuffDetails:
      - monsterSpecialDeBufferType: 14
        value: 20
      skillDeBuffRelease: 0000000001000000
      attributeType: 1
    - rankType: 6
      attackRating: 711.07
      recoveryRating: 0
      supportRating: 270
      costRating: 6.61
      rangeRating: 1
      cost: 21
      consumedST: 36
      delay: 37
      range: 1
      areaOfEffectType: 0
      areaOfEffectRange: 1
      occurrenceType: 0
      hp_dmg: 184
      st_dmg: 11
      hit: 35.64
      crt: 16.5
      delayDamage: 0
      hp_recovery: 0
      st_recovery: 0
      skillBuffDetails: []
      skillDeBuffDetails:
      - monsterSpecialDeBufferType: 14
        value: 40
      skillDeBuffRelease: 0000000001000000
      attributeType: 1
    - rankType: 6
      attackRating: 798.12
      recoveryRating: 0
      supportRating: 330
      costRating: 6.83
      rangeRating: 1
      cost: 22
      consumedST: 40
      delay: 39
      range: 1
      areaOfEffectType: 0
      areaOfEffectRange: 1
      occurrenceType: 0
      hp_dmg: 211.6
      st_dmg: 12.1
      hit: 38.49
      crt: 18.15
      delayDamage: 0
      hp_recovery: 0
      st_recovery: 0
      skillBuffDetails: []
      skillDeBuffDetails:
      - monsterSpecialDeBufferType: 14
        value: 60
      skillDeBuffRelease: 0000000001000000
      attributeType: 1
