%YAML 1.1
%TAG !u! tag:unity3d.com,2011:
--- !u!114 &11400000
MonoBehaviour:
  m_ObjectHideFlags: 0
  m_CorrespondingSourceObject: {fileID: 0}
  m_PrefabInstance: {fileID: 0}
  m_PrefabAsset: {fileID: 0}
  m_GameObject: {fileID: 0}
  m_Enabled: 1
  m_EditorHideFlags: 0
  m_Script: {fileID: 11500000, guid: 54febde6c9c5a5f40a4f4e8d3196a555, type: 3}
  m_Name: SkillDataScriptObj_Spec_BlowAway_Skill
  m_EditorClassIdentifier: 
  skill:
    skillID: Spec_BlowAway_Skill
    skillGenType: 3
    skillName: Blow Away
    Description: 
    parametersRequired: []
    learnArea: 0
    SkillCharacteristicCorrection: 0
    skillLearnCorrection:
      health: 0
      strenght: 0
      intelligent: 0
      dexterity: 0
      agility: 0
      vitality: 0
    characteristicAcquisitionList: []
    skillDetails:
    - rankType: 0
      attackRating: 0
      recoveryRating: 0
      supportRating: 0
      costRating: 0
      rangeRating: 1
      cost: 0
      consumedST: 10
      delay: 0
      range: 1
      areaOfEffectType: 0
      areaOfEffectRange: 1
      occurrenceType: 0
      hp_dmg: 0
      st_dmg: 0
      hit: 60
      crt: 0
      delayDamage: 0
      hp_recovery: 0
      st_recovery: 0
      skillBuffDetails: []
      skillDeBuffDetails: []
      skillDeBuffRelease: 0000000001000000
      attributeType: 0
