%YAML 1.1
%TAG !u! tag:unity3d.com,2011:
--- !u!114 &11400000
MonoBehaviour:
  m_ObjectHideFlags: 0
  m_CorrespondingSourceObject: {fileID: 0}
  m_PrefabInstance: {fileID: 0}
  m_PrefabAsset: {fileID: 0}
  m_GameObject: {fileID: 0}
  m_Enabled: 1
  m_EditorHideFlags: 0
  m_Script: {fileID: 11500000, guid: 54febde6c9c5a5f40a4f4e8d3196a555, type: 3}
  m_Name: SkillDataScriptObj_SignWitch_Tarus_Skill_3
  m_EditorClassIdentifier: 
  skill:
    skillID: SignWitch_Tarus_Skill_3
    skillGenType: 1
    skillName: "\u7802\u306E\u58C1 Sand Wall"
    Description: Increase DEX for yourself and ally on surrounding square
    parametersRequired:
    - 2000
    - 2400
    - 2880
    learnArea: 8
    SkillCharacteristicCorrection: 90
    skillLearnCorrection:
      health: 70
      strenght: 70
      intelligent: 120
      dexterity: 110
      agility: 100
      vitality: 70
    characteristicAcquisitionList:
    - health: 0
      strenght: 0
      intelligent: 0
      dexterity: 200
      agility: 200
      vitality: 0
    - health: 0
      strenght: 0
      intelligent: 0
      dexterity: 300
      agility: 300
      vitality: 0
    - health: 0
      strenght: 0
      intelligent: 0
      dexterity: 450
      agility: 450
      vitality: 0
    - health: 0
      strenght: 0
      intelligent: 0
      dexterity: 675
      agility: 675
      vitality: 0
    - health: 0
      strenght: 0
      intelligent: 0
      dexterity: 1013
      agility: 1013
      vitality: 0
    skillDetails:
    - rankType: 2
      attackRating: 308.57
      recoveryRating: 0
      supportRating: 240
      costRating: 5.4
      rangeRating: 1
      cost: 18
      consumedST: 20
      delay: 24
      range: 1
      areaOfEffectType: 0
      areaOfEffectRange: 1
      occurrenceType: 0
      hp_dmg: 40
      st_dmg: 0
      hit: 44
      crt: 0
      delayDamage: 0
      hp_recovery: 0
      st_recovery: 0
      skillBuffDetails:
      - monsterSpecialBufferType: 12
        value: 20
      skillDeBuffDetails: []
      skillDeBuffRelease: 0000000001000000
      attributeType: 6
    - rankType: 3
      attackRating: 335.83
      recoveryRating: 0
      supportRating: 285
      costRating: 5.62
      rangeRating: 1
      cost: 20
      consumedST: 22
      delay: 25
      range: 1
      areaOfEffectType: 0
      areaOfEffectRange: 1
      occurrenceType: 0
      hp_dmg: 46
      st_dmg: 0
      hit: 47.52
      crt: 0
      delayDamage: 0
      hp_recovery: 0
      st_recovery: 0
      skillBuffDetails:
      - monsterSpecialBufferType: 12
        value: 25
      skillDeBuffDetails: []
      skillDeBuffRelease: 0000000001000000
      attributeType: 6
    - rankType: 4
      attackRating: 365.52
      recoveryRating: 0
      supportRating: 330
      costRating: 5.84
      rangeRating: 1
      cost: 22
      consumedST: 24
      delay: 26
      range: 7
      areaOfEffectType: 1
      areaOfEffectRange: 1
      occurrenceType: 0
      hp_dmg: 52.9
      st_dmg: 0
      hit: 51.32
      crt: 0
      delayDamage: 0
      hp_recovery: 0
      st_recovery: 0
      skillBuffDetails:
      - monsterSpecialBufferType: 12
        value: 30
      skillDeBuffDetails: []
      skillDeBuffRelease: 0000000001000000
      attributeType: 6
