%YAML 1.1
%TAG !u! tag:unity3d.com,2011:
--- !u!114 &11400000
MonoBehaviour:
  m_ObjectHideFlags: 0
  m_CorrespondingSourceObject: {fileID: 0}
  m_PrefabInstance: {fileID: 0}
  m_PrefabAsset: {fileID: 0}
  m_GameObject: {fileID: 0}
  m_Enabled: 1
  m_EditorHideFlags: 0
  m_Script: {fileID: 11500000, guid: 92129e6bc9018ce468039aae7d4df5b3, type: 3}
  m_Name: Slap
  m_EditorClassIdentifier: 
  m_AbilityName: Slap
  m_SpriteIcon: {fileID: 0}
  m_Radius: 1
  m_ActionPointCost: 2
  m_moveToTarget: 0
  m_bAllowBlocked: 0
  m_EffectedTeam: 3
  m_EffectedType: 0
  m_ExcuteSeftInSelect: 0
  m_AvoidSeft: 0
  m_BuffSeft: 0
  m_DeBuffSeft: 0
  m_AbilityShape: {fileID: 11400000, guid: e5878233c2bc97d43a5cfe8964ccd263, type: 2}
  m_EffectShape: {fileID: 0}
  m_EffectRadius: 0
  m_SpawnOnCaster: []
  m_SpawnOnTarget:
  - {fileID: 114245873700466434, guid: aa325c3ee54ace348b5512599a896715, type: 3}
  - {fileID: 114199818787402768, guid: f6dddb215e6af364abf5d86d77f60f39, type: 3}
  m_Params:
  - {fileID: 11400000, guid: 0ba8b8852e255ca4a83379cb2310d6b9, type: 2}
  - {fileID: 11400000, guid: 1a8fbac3b943b90469798b104b8439bd, type: 2}
  m_Ailments: []
  skillType: 0
