%YAML 1.1
%TAG !u! tag:unity3d.com,2011:
--- !u!21 &2100000
Material:
  serializedVersion: 8
  m_ObjectHideFlags: 0
  m_CorrespondingSourceObject: {fileID: 0}
  m_PrefabInstance: {fileID: 0}
  m_PrefabAsset: {fileID: 0}
  m_Name: MagicMissileBarrage_Indicator_Emissive_02
  m_Shader: {fileID: -6465566751694194690, guid: 28890434b7404a74095bc3cb05f55aed,
    type: 3}
  m_ValidKeywords:
  - _DISTORTIONENABLED_ON
  - _NOISE01RADIAL_ON
  - _RAMPENABLED_ON
  m_InvalidKeywords:
  - _DISSOLVETEXTUREFLIP_ON
  - _DISTORTIONRADIAL_ON
  - _DISTORTIONUVORSPHERICAL_ON
  - _NOISE01RADIAL1_ON
  m_LightmapFlags: 0
  m_EnableInstancingVariants: 0
  m_DoubleSidedGI: 0
  m_CustomRenderQueue: -1
  stringTagMap: {}
  disabledShaderPasses: []
  m_SavedProperties:
    serializedVersion: 3
    m_TexEnvs:
    - _CustomColorMask:
        m_Texture: {fileID: 2800000, guid: cace9bf0ffd74841aaddd90b684aa40b, type: 3}
        m_Scale: {x: 1, y: 1}
        m_Offset: {x: 0, y: 0}
    - _CustomColorMask1:
        m_Texture: {fileID: 0}
        m_Scale: {x: 1, y: 1}
        m_Offset: {x: 0, y: 0}
    - _DissolveMask:
        m_Texture: {fileID: 0}
        m_Scale: {x: 1, y: 1}
        m_Offset: {x: 0, y: 0}
    - _DissolveTexture:
        m_Texture: {fileID: 2800000, guid: 7946756a0d414f759c470943148ed64a, type: 3}
        m_Scale: {x: 1, y: 1}
        m_Offset: {x: 0, y: 0}
    - _Distortion:
        m_Texture: {fileID: 2800000, guid: cee6e691b28a48b4a7c3bd7a495539e3, type: 3}
        m_Scale: {x: 1, y: 1}
        m_Offset: {x: 0, y: 0}
    - _DistortionMask:
        m_Texture: {fileID: 0}
        m_Scale: {x: 1, y: 1}
        m_Offset: {x: 0, y: 0}
    - _EmissionMask:
        m_Texture: {fileID: 2800000, guid: c2f37fa156985f54286d9f3423ca4229, type: 3}
        m_Scale: {x: 1, y: 1}
        m_Offset: {x: 0, y: 0}
    - _EmissionMaskDissolveNoise:
        m_Texture: {fileID: 2800000, guid: 35bc48dad7fe46a4f82965e223b86f2e, type: 3}
        m_Scale: {x: 1, y: 1}
        m_Offset: {x: 0, y: 0}
    - _MainMask:
        m_Texture: {fileID: 2800000, guid: b98fd33bd22f4f30abd5bd34cd312cc2, type: 3}
        m_Scale: {x: 1, y: 1}
        m_Offset: {x: 0, y: 0}
    - _MainTex:
        m_Texture: {fileID: 2800000, guid: 904d8ff05d83c8342a7ec10767019412, type: 3}
        m_Scale: {x: 1, y: 1}
        m_Offset: {x: 0, y: 0}
    - _Noise01:
        m_Texture: {fileID: 2800000, guid: a267fbe4ca8247ac90953df9cce3ca33, type: 3}
        m_Scale: {x: 1, y: 1}
        m_Offset: {x: 0, y: 0}
    - _RadialDistortionNoise:
        m_Texture: {fileID: 2800000, guid: a9fcba2b3c04c484081fd31c7a5b9101, type: 3}
        m_Scale: {x: 1, y: 1}
        m_Offset: {x: 0, y: 0}
    - _Ramp:
        m_Texture: {fileID: 2800000, guid: a30c7f192d1749a1b03ab3f221a73a45, type: 3}
        m_Scale: {x: 1, y: 1}
        m_Offset: {x: 0, y: 0}
    - _SecondMask:
        m_Texture: {fileID: 2800000, guid: 59913c7576dc4db597368fdb423f7557, type: 3}
        m_Scale: {x: 1, y: 1}
        m_Offset: {x: 0, y: 0}
    - _SecondMaskProfile:
        m_Texture: {fileID: 2800000, guid: 5cc5c655573d45119f10fe30cbd2442a, type: 3}
        m_Scale: {x: 1, y: 1}
        m_Offset: {x: 0, y: 0}
    - _SecondaryMask:
        m_Texture: {fileID: 2800000, guid: d724b990c6a84285b8a33dc51051d44f, type: 3}
        m_Scale: {x: 1, y: 1}
        m_Offset: {x: 0, y: 0}
    - _SecondaryMaskProfile:
        m_Texture: {fileID: 2800000, guid: 21380cafef544b4fa3a7b2338befa6db, type: 3}
        m_Scale: {x: 1, y: 1}
        m_Offset: {x: 0, y: 0}
    - _TextureSample0:
        m_Texture: {fileID: 2800000, guid: 441d8bb42833455b8b10dd26ce59fffd, type: 3}
        m_Scale: {x: 1, y: 1}
        m_Offset: {x: 0, y: 0}
    - _tex4coord:
        m_Texture: {fileID: 0}
        m_Scale: {x: 1, y: 1}
        m_Offset: {x: 0, y: 0}
    - _tex4coord2:
        m_Texture: {fileID: 0}
        m_Scale: {x: 1, y: 1}
        m_Offset: {x: 0, y: 0}
    - _tex4coord3:
        m_Texture: {fileID: 0}
        m_Scale: {x: 1, y: 1}
        m_Offset: {x: 0, y: 0}
    - _texcoord:
        m_Texture: {fileID: 0}
        m_Scale: {x: 1, y: 1}
        m_Offset: {x: 0, y: 0}
    - unity_Lightmaps:
        m_Texture: {fileID: 0}
        m_Scale: {x: 1, y: 1}
        m_Offset: {x: 0, y: 0}
    - unity_LightmapsInd:
        m_Texture: {fileID: 0}
        m_Scale: {x: 1, y: 1}
        m_Offset: {x: 0, y: 0}
    - unity_ShadowMasks:
        m_Texture: {fileID: 0}
        m_Scale: {x: 1, y: 1}
        m_Offset: {x: 0, y: 0}
    m_Ints: []
    m_Floats:
    - _CustomColorMaskAffectedByDynamics: 1
    - _CustomColorMaskAffectedByDynamics1: 1
    - _CustomColorMaskSwitch: 0.75
    - _CustomColorMaskSwitch1: 0
    - _DISSOLVETEXTUREFLIP: 1
    - _DISSOLVETEXTUREFLIPSwitch: 1
    - _DISSOLVETEXTURERADIAL: 0
    - _DISSOLVETEXTURERADIALEnabled: 0
    - _DISSOLVETEXTURERADIALScaleU: 0.1
    - _DISSOLVETEXTURERADIALScaleV: 1
    - _DISTORTIONENABLED: 1
    - _DISTORTIONRADIAL: 1
    - _DISTORTIONRADIALOldMethodSwitch: 0
    - _DISTORTIONRADIALScaleU: 4
    - _DISTORTIONRADIALScaleV: 1
    - _DISTORTIONRADIALUseOldMethod: 0
    - _DISTORTIONUVORSPHERICAL: 1
    - _DissolveExp: 4
    - _DissolveExpReversed: 4
    - _DissolveGlowAffectsRamp: 1
    - _DissolveGlowAffectsRamp1: 1
    - _DissolveGlowAmount: 0
    - _DissolveGlowOffset: 0.125
    - _DissolveGlowPower: 1
    - _DissolveMaskScale: 1
    - _DissolveMaskSteepness: 0
    - _DissolveTextureRandomMax: 1.1
    - _DissolveTextureRandomMin: 0.9
    - _DissolveTextureScale: 0.5
    - _DissolveTextureScaleU: 0.5
    - _DissolveTextureScaleV: 0.5
    - _DistortionExp: 1
    - _DistortionMaskNegate: 0
    - _DistortionMaskVSMoveU: 0
    - _DistortionMaskVSMoveV: 0
    - _DistortionPower: -0.1
    - _DistortionRemapMax: 1
    - _DistortionRemapMin: 0
    - _DistortionScaleU: 4
    - _DistortionScaleV: 4
    - _DistortionScrollSpeedU: 0.25
    - _DistortionScrollSpeedV: 0
    - _DistortionSpheticalStyle: 0
    - _DistortionU: 1
    - _DistortionUseSecondMaskSwitch: 1
    - _DistortionV: 1
    - _EMISSIONVERTEXSTREAMENABLED: 0
    - _FinalOpacityExp: 1
    - _FinalOpacityExp1: 1
    - _FinalOpacityPower: 1
    - _FinalPower: 4
    - _Float4: 0.25
    - _MainMaskExp: 1
    - _MainMaskScaleU: 1
    - _MainMaskScaleV: 1
    - _MainMaskScrollSpeedU: 0
    - _MainMaskScrollSpeedV: 0
    - _NOISE01RADIAL: 1
    - _NOISE01RADIAL1: 1
    - _NOISE01RADIALScaleU: 0.5
    - _NOISE01RADIALScaleU1: 1
    - _NOISE01RADIALScaleV: 3
    - _NOISE01RADIALScaleV1: 1
    - _Noise01Exp: 4
    - _Noise01Negate: 0.25
    - _Noise01RandomMax: 1.1
    - _Noise01RandomMin: 0.9
    - _Noise01Scale: 1
    - _Noise01ScaleU: 1
    - _Noise01ScaleV: 1
    - _Noise01ScrollSpeed: 0.25
    - _Noise01ScrollSpeed1: 0.25
    - _Noise01ScrollSpeedU: 0.125
    - _Noise01ScrollSpeedV: 0
    - _QueueControl: 0
    - _QueueOffset: 0
    - _RAMPAFFECTEDBYVERTEXCOLOR: 0
    - _RAMPENABLED: 1
    - _RadialDistortionNoisePower: 0
    - _RampAffectedByDynamics: 1
    - _RampIgnoreVertexColor: 0
    - _RampNoiseAmount: 1
    - _RampOffsetExp: 2
    - _RampOffsetMultiply: 1
    - _RampOffsetMultiply1: 1
    - _SOFTPARTICLESENABLED: 0
    - _SecondMaskAffectsDistortion: 1
    - _SecondMaskAffectsEmission: 0
    - _SecondMaskAffectsNoise01Negate: 1
    - _SecondMaskAffectsRamp: 0
    - _SecondMaskBoostsEmission: 4
    - _SecondMaskFractShrink: 1
    - _SecondMaskFractSwitch: 0
    - _SecondMaskNegate: 0
    - _SecondMaskProfileNegateSwitch: 0
    - _SecondMaskScale: 1
    - _SecondMaskScaleU: 1
    - _SecondMaskScaleV: 1
    - _SecondMaskVSMoveU: 0
    - _SecondMaskVSMoveV: 0
    - _SecondaryMaskAffectsDistortion: 1
    - _SecondaryMaskAffectsNoise01Negate: 1
    - _SecondaryMaskBoostsEmission: 4
    - _SecondaryMaskEnabled: 0
    - _SecondaryMaskNegate: 0
    - _SecondaryMaskVSMoveU: 0
    - _SecondayMaskVSMoveV: 0
    - _SoftParticlesDistance: 0.2
    - __dirty: 0
    m_Colors:
    - _CustomColorMaskChannels: {r: 1, g: 0, b: 0, a: 0}
    - _CustomColorMaskChannels1: {r: 1, g: 0, b: 0, a: 0}
    - _FinalColor: {r: 0.99215686, g: 0, b: 0, a: 1}
    - _MainMaskChannelsMultiply: {r: 0, g: 1, b: 0, a: 0}
    - _Noise01ScrollSpeedUV: {r: 1, g: 1, b: 0, a: 0}
    - _RampColorTint: {r: 0.7607843, g: 0.5803922, b: 1, a: 1}
  m_BuildTextureStacks: []
--- !u!114 &4399991717787142834
MonoBehaviour:
  m_ObjectHideFlags: 11
  m_CorrespondingSourceObject: {fileID: 0}
  m_PrefabInstance: {fileID: 0}
  m_PrefabAsset: {fileID: 0}
  m_GameObject: {fileID: 0}
  m_Enabled: 1
  m_EditorHideFlags: 0
  m_Script: {fileID: 11500000, guid: d0353a89b1f911e48b9e16bdc9f2e058, type: 3}
  m_Name: 
  m_EditorClassIdentifier: 
  version: 5
