%YAML 1.1
%TAG !u! tag:unity3d.com,2011:
--- !u!21 &2100000
Material:
  serializedVersion: 8
  m_ObjectHideFlags: 0
  m_CorrespondingSourceObject: {fileID: 0}
  m_PrefabInstance: {fileID: 0}
  m_PrefabAsset: {fileID: 0}
  m_Name: MagicMissileBarrage_Explosion_Sphere_02lowpoly
  m_Shader: {fileID: -6465566751694194690, guid: 684cc95f61187234c95586b652bee33a,
    type: 3}
  m_ValidKeywords:
  - _RAMPENABLED_ON
  - _RIMMASKENABLED_ON
  m_InvalidKeywords:
  - _CAMERADEPTHFADEENABLED_ON
  - _DEPTHFADEFLIP_ON
  - _DEPTHFADEMAXMODE_ON
  - _DISSOLVENOISEFLIP_ON
  m_LightmapFlags: 0
  m_EnableInstancingVariants: 0
  m_DoubleSidedGI: 0
  m_CustomRenderQueue: -1
  stringTagMap: {}
  disabledShaderPasses: []
  m_SavedProperties:
    serializedVersion: 3
    m_TexEnvs:
    - _DissolveNoise:
        m_Texture: {fileID: 2800000, guid: f2cefc779f6947e49998677b63051f7b, type: 3}
        m_Scale: {x: 1, y: 1}
        m_Offset: {x: 0, y: 0}
    - _NoiseDissolve:
        m_Texture: {fileID: 2800000, guid: 78f7e1b2207371144b858a829e260431, type: 3}
        m_Scale: {x: 1, y: 1}
        m_Offset: {x: 0, y: 0}
    - _NoiseDissolveOffsetTriplanar:
        m_Texture: {fileID: 2800000, guid: a9fcba2b3c04c484081fd31c7a5b9101, type: 3}
        m_Scale: {x: 1, y: 1}
        m_Offset: {x: 0, y: 0}
    - _NoiseOffset:
        m_Texture: {fileID: 2800000, guid: a9fcba2b3c04c484081fd31c7a5b9101, type: 3}
        m_Scale: {x: 1, y: 1}
        m_Offset: {x: 0, y: 0}
    - _OffsetNoise:
        m_Texture: {fileID: 2800000, guid: 7923fd0df01147a58df888dce869a9c1, type: 3}
        m_Scale: {x: 1, y: 1}
        m_Offset: {x: 0, y: 0}
    - _Ramp:
        m_Texture: {fileID: 2800000, guid: a30c7f192d1749a1b03ab3f221a73a45, type: 3}
        m_Scale: {x: 1, y: 1}
        m_Offset: {x: 0, y: 0}
    - _TextureSample0:
        m_Texture: {fileID: 2800000, guid: a1334fb4faffe3743852a1c43a529563, type: 3}
        m_Scale: {x: 1, y: 1}
        m_Offset: {x: 0, y: 0}
    - _tex4coord:
        m_Texture: {fileID: 0}
        m_Scale: {x: 1, y: 1}
        m_Offset: {x: 0, y: 0}
    - _tex4coord2:
        m_Texture: {fileID: 0}
        m_Scale: {x: 1, y: 1}
        m_Offset: {x: 0, y: 0}
    - _texcoord:
        m_Texture: {fileID: 0}
        m_Scale: {x: 1, y: 1}
        m_Offset: {x: 0, y: 0}
    - unity_Lightmaps:
        m_Texture: {fileID: 0}
        m_Scale: {x: 1, y: 1}
        m_Offset: {x: 0, y: 0}
    - unity_LightmapsInd:
        m_Texture: {fileID: 0}
        m_Scale: {x: 1, y: 1}
        m_Offset: {x: 0, y: 0}
    - unity_ShadowMasks:
        m_Texture: {fileID: 0}
        m_Scale: {x: 1, y: 1}
        m_Offset: {x: 0, y: 0}
    m_Ints: []
    m_Floats:
    - _CameraDepthFadeEnabled: 1
    - _CameraDepthFadeLength: 1
    - _CameraDepthFadeOffset: 0
    - _DEPTHFADEFLIP: 1
    - _DEPTHFADEMAXMODE: 1
    - _DISSOLVENOISEFLIP: 1
    - _DepthFadeDistance: 4
    - _DepthFadeExp: 16
    - _DepthGlowDistance: 4
    - _DepthGlowEnabled: 1
    - _DepthGlowExp: 16
    - _DissolveExp1: 8
    - _DissolveExpReversed1: 8
    - _DissolveNoiseExp: 4
    - _DissolveNoiseExpReversed: 4
    - _DissolveNoiseRemapMax: -0.5
    - _DissolveNoiseRemapMin: 0.27
    - _DissolveNoiseThreshold: 0.25
    - _FinalOpacityExp: 1
    - _FinalOpacityPower: 1
    - _FinalPower: 20
    - _FresnelMaskExp: 1
    - _FresnelMaskFlip: 0
    - _FresnelMaskPower: 1
    - _FresnelMaskScale: 1
    - _InterceptionDistance: 3
    - _InterceptionExp: 16
    - _LossyScaleGlobal: 1
    - _NoiseDissolveOffsetTriplanarTiling: 0.1
    - _NoiseDissolveTriplanarFlip: 0
    - _NoiseDissolveTriplanarThreshold: 0.25
    - _OffsetAdd: 0
    - _OffsetPower: 0.35
    - _OffsetScaleWithSizeFixSwitch: 1
    - _OffsetSizeFixSwitch: 1
    - _OpacityPower: 1
    - _ProgressRemapMax: -0.5
    - _ProgressRemapMin: 0.27
    - _QueueControl: 0
    - _QueueOffset: 0
    - _RAMPAFFECTEDBYVERTEXCOLOR: 0
    - _RAMPENABLED: 1
    - _RIMMASKENABLED: 1
    - _RIMMASKFLIP: 0
    - _RampAffectedByDynamics: 1
    - _RampExp: 1
    - _RampMultiplyScale: 1
    - _RampNoiseAmount: 1
    - _RampOffsetExp: 2
    - _RampOffsetExpOne: 2
    - _RampOffsetMultiply: 1
    - _RampTilingPower: 1
    - _RimMaskExp: 1
    - _SOFTPARTICLESENABLED: 0
    - _SoftParticlesDistance: 3
    - _SoftParticlesExp: 16
    - __dirty: 0
    m_Colors:
    - _FinalColor: {r: 1, g: 1, b: 1, a: 1}
    - _RampColorTint: {r: 0.7607843, g: 0.5803922, b: 1, a: 1}
  m_BuildTextureStacks: []
--- !u!114 &3594262922986315921
MonoBehaviour:
  m_ObjectHideFlags: 11
  m_CorrespondingSourceObject: {fileID: 0}
  m_PrefabInstance: {fileID: 0}
  m_PrefabAsset: {fileID: 0}
  m_GameObject: {fileID: 0}
  m_Enabled: 1
  m_EditorHideFlags: 0
  m_Script: {fileID: 11500000, guid: d0353a89b1f911e48b9e16bdc9f2e058, type: 3}
  m_Name: 
  m_EditorClassIdentifier: 
  version: 5
