%YAML 1.1
%TAG !u! tag:unity3d.com,2011:
--- !u!114 &-7157740168839182827
MonoBehaviour:
  m_ObjectHideFlags: 11
  m_CorrespondingSourceObject: {fileID: 0}
  m_PrefabInstance: {fileID: 0}
  m_PrefabAsset: {fileID: 0}
  m_GameObject: {fileID: 0}
  m_Enabled: 1
  m_EditorHideFlags: 0
  m_Script: {fileID: 11500000, guid: d0353a89b1f911e48b9e16bdc9f2e058, type: 3}
  m_Name: 
  m_EditorClassIdentifier: 
  version: 5
--- !u!21 &2100000
Material:
  serializedVersion: 8
  m_ObjectHideFlags: 0
  m_CorrespondingSourceObject: {fileID: 0}
  m_PrefabInstance: {fileID: 0}
  m_PrefabAsset: {fileID: 0}
  m_Name: LaserCannonBarrage_Explosion_Smoke_02
  m_Shader: {fileID: -6465566751694194690, guid: c444735a99fc1c64cb2c3aca113bbbe4,
    type: 3}
  m_ValidKeywords: []
  m_InvalidKeywords:
  - _DISSOLVETEXTUREFLIP_ON
  - _EMISSIONVERTEXSTREAMENABLED_ON
  m_LightmapFlags: 0
  m_EnableInstancingVariants: 0
  m_DoubleSidedGI: 0
  m_CustomRenderQueue: -1
  stringTagMap: {}
  disabledShaderPasses: []
  m_SavedProperties:
    serializedVersion: 3
    m_TexEnvs:
    - _DissolveMask:
        m_Texture: {fileID: 0}
        m_Scale: {x: 1, y: 1}
        m_Offset: {x: 0, y: 0}
    - _DissolveTexture:
        m_Texture: {fileID: 2800000, guid: 7946756a0d414f759c470943148ed64a, type: 3}
        m_Scale: {x: 1, y: 1}
        m_Offset: {x: 0, y: 0}
    - _Distortion:
        m_Texture: {fileID: 0}
        m_Scale: {x: 1, y: 1}
        m_Offset: {x: 0, y: 0}
    - _DistortionFixMask:
        m_Texture: {fileID: 2800000, guid: dc92c400d22b4166aa9e289419dd9fd4, type: 3}
        m_Scale: {x: 1, y: 1}
        m_Offset: {x: 0, y: 0}
    - _DistortionMask:
        m_Texture: {fileID: 0}
        m_Scale: {x: 1, y: 1}
        m_Offset: {x: 0, y: 0}
    - _MVMainMask:
        m_Texture: {fileID: 2800000, guid: e225d7edfac0456a95cb28774a641b73, type: 3}
        m_Scale: {x: 1, y: 1}
        m_Offset: {x: 0, y: 0}
    - _MVMainMaskMotionVectors:
        m_Texture: {fileID: 2800000, guid: 2e2b317ee6584556b8646b3ba8972b39, type: 3}
        m_Scale: {x: 1, y: 1}
        m_Offset: {x: 0, y: 0}
    - _MainTex:
        m_Texture: {fileID: 2800000, guid: a04d35249cbe4c26b0fe4733efe5b6cf, type: 3}
        m_Scale: {x: 1, y: 1}
        m_Offset: {x: 0, y: 0}
    - _Noise01:
        m_Texture: {fileID: 0}
        m_Scale: {x: 1, y: 1}
        m_Offset: {x: 0, y: 0}
    - _Ramp:
        m_Texture: {fileID: 0}
        m_Scale: {x: 1, y: 1}
        m_Offset: {x: 0, y: 0}
    - _SecondaryMask:
        m_Texture: {fileID: 0}
        m_Scale: {x: 1, y: 1}
        m_Offset: {x: 0, y: 0}
    - _tex4coord:
        m_Texture: {fileID: 0}
        m_Scale: {x: 1, y: 1}
        m_Offset: {x: 0, y: 0}
    - _tex4coord2:
        m_Texture: {fileID: 0}
        m_Scale: {x: 1, y: 1}
        m_Offset: {x: 0, y: 0}
    - _tex4coord3:
        m_Texture: {fileID: 0}
        m_Scale: {x: 1, y: 1}
        m_Offset: {x: 0, y: 0}
    - _texcoord:
        m_Texture: {fileID: 0}
        m_Scale: {x: 1, y: 1}
        m_Offset: {x: 0, y: 0}
    - unity_Lightmaps:
        m_Texture: {fileID: 0}
        m_Scale: {x: 1, y: 1}
        m_Offset: {x: 0, y: 0}
    - unity_LightmapsInd:
        m_Texture: {fileID: 0}
        m_Scale: {x: 1, y: 1}
        m_Offset: {x: 0, y: 0}
    - unity_ShadowMasks:
        m_Texture: {fileID: 0}
        m_Scale: {x: 1, y: 1}
        m_Offset: {x: 0, y: 0}
    m_Ints: []
    m_Floats:
    - _DISSOLVETEXTUREFLIP: 1
    - _DissolveExp: 1
    - _DissolveExpReversed: 1
    - _DissolveExpReversed1: 8
    - _DissolveGlowAffectsRamp: 1
    - _DissolveGlowAmount: 0
    - _DissolveGlowOffset: 0.125
    - _DissolveGlowPower: 1
    - _DissolveMaskRemapMin: -1
    - _DissolveMaskScale: 1
    - _DissolveTextureRandomMax: 1.1
    - _DissolveTextureRandomMin: 0.9
    - _DissolveTextureScale: 0.25
    - _DissolveTextureScaleU: 0.5
    - _DissolveTextureScaleV: 0.5
    - _DistortionExp: 1
    - _DistortionMaskNegate: 0
    - _DistortionMaskVSMoveU: 0
    - _DistortionMaskVSMoveV: 0
    - _DistortionPower: -0.31
    - _DistortionScaleU: 1
    - _DistortionScaleV: 1
    - _DistortionScrollSpeedU: 0
    - _DistortionScrollSpeedV: 0
    - _DistortionU: 1
    - _DistortionV: 1
    - _EMISSIONVERTEXSTREAMENABLED: 1
    - _FinalOpacityExp: 1
    - _FinalOpacityPower: 1
    - _FinalPower: 1
    - _FlipbookColums: 2
    - _FlipbookFrame: 0.1
    - _FlipbookRows: 2
    - _MVAnimationSpeed: 15
    - _MVColums: 8
    - _MVDistortionFrameOffset: 0.001
    - _MVMainMaskExp: 1
    - _MVMainMaskRotation: 0
    - _MVPARTICLEFRAMECONTROLENABLED: 0
    - _MVRandomFrame: 0
    - _MVRows: 8
    - _MainTexRotation: 0
    - _Noise01Exp: 1
    - _Noise01Negate: 0
    - _Noise01RandomMax: 1.1
    - _Noise01RandomMin: 0.9
    - _Noise01ScaleU: 1
    - _Noise01ScaleV: 1
    - _Noise01ScrollSpeedU: 0
    - _Noise01ScrollSpeedV: 0
    - _QueueControl: 0
    - _QueueOffset: 0
    - _RAMPAFFECTEDBYVERTEXCOLOR: 0
    - _RAMPENABLED: 0
    - _RampAffectedByDynamics: 1
    - _RampOffsetExp: 1
    - _RampOffsetMultiply: 1
    - _SecondaryMaskNegate: 1
    - _SecondaryMaskVSMoveU: 0
    - _SecondaryMaskVSMoveV: 0
    - _SecondayMaskVSMoveV: 0
    - __dirty: 0
    m_Colors:
    - _FinalColor: {r: 0.5294118, g: 0.5294118, b: 0.5294118, a: 1}
    - _MainTexChannels: {r: 0, g: 0, b: 1, a: 0}
    - _RampColorTint: {r: 1, g: 1, b: 1, a: 1}
  m_BuildTextureStacks: []
