%YAML 1.1
%TAG !u! tag:unity3d.com,2011:
--- !u!21 &2100000
Material:
  serializedVersion: 8
  m_ObjectHideFlags: 0
  m_CorrespondingSourceObject: {fileID: 0}
  m_PrefabInstance: {fileID: 0}
  m_PrefabAsset: {fileID: 0}
  m_Name: LaserCannonBarrage_Beam_01
  m_Shader: {fileID: -6465566751694194690, guid: 28890434b7404a74095bc3cb05f55aed,
    type: 3}
  m_ValidKeywords: []
  m_InvalidKeywords:
  - _DISSOLVETEXTUREFLIP_ON
  - _EMISSIONVERTEXSTREAMENABLED_ON
  - _ISFAKETRAIL_ON
  m_LightmapFlags: 0
  m_EnableInstancingVariants: 0
  m_DoubleSidedGI: 0
  m_CustomRenderQueue: -1
  stringTagMap: {}
  disabledShaderPasses: []
  m_SavedProperties:
    serializedVersion: 3
    m_TexEnvs:
    - _CustomColorMask:
        m_Texture: {fileID: 0}
        m_Scale: {x: 1, y: 1}
        m_Offset: {x: 0, y: 0}
    - _DissolveMask:
        m_Texture: {fileID: 2800000, guid: b86eae364d9342c9bbb67e1a67af5a3c, type: 3}
        m_Scale: {x: 1, y: 1}
        m_Offset: {x: 0, y: 0}
    - _DissolveTexture:
        m_Texture: {fileID: 2800000, guid: 57535fb8629b4c6eb8530d7d3664d59f, type: 3}
        m_Scale: {x: 1, y: 1}
        m_Offset: {x: 0, y: 0}
    - _Distortion:
        m_Texture: {fileID: 2800000, guid: cee6e691b28a48b4a7c3bd7a495539e3, type: 3}
        m_Scale: {x: 1, y: 1}
        m_Offset: {x: 0, y: 0}
    - _DistortionMask:
        m_Texture: {fileID: 0}
        m_Scale: {x: 1, y: 1}
        m_Offset: {x: 0, y: 0}
    - _MainMask:
        m_Texture: {fileID: 2800000, guid: 9363947f4e54412c827bb59a440765cd, type: 3}
        m_Scale: {x: 1, y: 1}
        m_Offset: {x: 0, y: 0}
    - _MainTex:
        m_Texture: {fileID: 2800000, guid: 25c93ba0608e478e85afe660509a0f3c, type: 3}
        m_Scale: {x: 1, y: 1}
        m_Offset: {x: 0, y: 0}
    - _Noise01:
        m_Texture: {fileID: 2800000, guid: 381971b998464a3b89560a23153e6212, type: 3}
        m_Scale: {x: 1, y: 1}
        m_Offset: {x: 0, y: 0}
    - _RadialDistortionNoise:
        m_Texture: {fileID: 2800000, guid: a9fcba2b3c04c484081fd31c7a5b9101, type: 3}
        m_Scale: {x: 1, y: 1}
        m_Offset: {x: 0, y: 0}
    - _Ramp:
        m_Texture: {fileID: 2800000, guid: 3516a806c0cb4de3a8f3c2eea6f031e7, type: 3}
        m_Scale: {x: 1, y: 1}
        m_Offset: {x: 0, y: 0}
    - _SecondMask:
        m_Texture: {fileID: 0}
        m_Scale: {x: 1, y: 1}
        m_Offset: {x: 0, y: 0}
    - _SecondMaskProfile:
        m_Texture: {fileID: 0}
        m_Scale: {x: 1, y: 1}
        m_Offset: {x: 0, y: 0}
    - _SecondaryMask:
        m_Texture: {fileID: 2800000, guid: 7201221bb2484375891942d3cbe8cbec, type: 3}
        m_Scale: {x: 1, y: 1}
        m_Offset: {x: 0, y: 0}
    - _tex4coord:
        m_Texture: {fileID: 0}
        m_Scale: {x: 1, y: 1}
        m_Offset: {x: 0, y: 0}
    - _tex4coord2:
        m_Texture: {fileID: 0}
        m_Scale: {x: 1, y: 1}
        m_Offset: {x: 0, y: 0}
    - _tex4coord3:
        m_Texture: {fileID: 0}
        m_Scale: {x: 1, y: 1}
        m_Offset: {x: 0, y: 0}
    - _texcoord:
        m_Texture: {fileID: 0}
        m_Scale: {x: 1, y: 1}
        m_Offset: {x: 0, y: 0}
    - unity_Lightmaps:
        m_Texture: {fileID: 0}
        m_Scale: {x: 1, y: 1}
        m_Offset: {x: 0, y: 0}
    - unity_LightmapsInd:
        m_Texture: {fileID: 0}
        m_Scale: {x: 1, y: 1}
        m_Offset: {x: 0, y: 0}
    - unity_ShadowMasks:
        m_Texture: {fileID: 0}
        m_Scale: {x: 1, y: 1}
        m_Offset: {x: 0, y: 0}
    m_Ints: []
    m_Floats:
    - _CustomColorMaskAffectedByDynamics: 1
    - _CustomColorMaskSwitch: 0
    - _DISSOLVETEXTUREFLIP: 1
    - _DISSOLVETEXTUREFLIPSwitch: 1
    - _DISSOLVETEXTURERADIAL: 0
    - _DISSOLVETEXTURERADIALScaleU: 1
    - _DISSOLVETEXTURERADIALScaleV: 1
    - _DISTORTIONENABLED: 0
    - _DISTORTIONRADIAL: 0
    - _DISTORTIONRADIALOldMethodSwitch: 0
    - _DISTORTIONRADIALScaleU: 1
    - _DISTORTIONRADIALScaleV: 1
    - _DISTORTIONUVORSPHERICAL: 0
    - _DissolveExp: 8
    - _DissolveExpReversed: 8
    - _DissolveGlowAffectsRamp: 1
    - _DissolveGlowAmount: 0
    - _DissolveGlowOffset: 0.125
    - _DissolveGlowPower: 1
    - _DissolveMaskSteepness: 2
    - _DissolveTextureRandomMax: 1.1
    - _DissolveTextureRandomMin: 0.9
    - _DissolveTextureScale: 0.5
    - _DissolveTextureScaleU: 1
    - _DissolveTextureScaleV: 0.125
    - _DistortionExp: 1
    - _DistortionMaskNegate: 0
    - _DistortionMaskVSMoveU: 0
    - _DistortionMaskVSMoveV: 0
    - _DistortionPower: 0
    - _DistortionPowerU: 0.125
    - _DistortionPowerV: 0
    - _DistortionRemapMax: 1
    - _DistortionRemapMin: 0
    - _DistortionScaleU: 0.5
    - _DistortionScaleV: 1
    - _DistortionScrollSpeed: 0
    - _DistortionScrollSpeedU: 0
    - _DistortionScrollSpeedV: 0
    - _DistortionSpheticalStyle: 0
    - _DistortionU: 1
    - _DistortionV: 1
    - _EMISSIONVERTEXSTREAMENABLED: 1
    - _EndMaskAdd: 0
    - _EndMaskExp: 2
    - _EndPointMaskExp: 3
    - _FakeTrailOffset: -1.5
    - _FakeTrailScrollMultiplier: 0.175
    - _FakeTrailScrollRandomMax: 1.1
    - _FakeTrailScrollRandomMin: 0.8
    - _FinalOpacityExp: 1
    - _FinalOpacityPower: 1
    - _FinalPower: 6
    - _FlipbookColums: 1
    - _FlipbookRows: 1
    - _Float0: 0.15
    - _Float1: 1
    - _Float2: 8
    - _Float3: -1.5
    - _Float4: 4
    - _IsFakeTrail: 1
    - _MainMaskExp: 4
    - _MainMaskScaleU: 1
    - _MainMaskScaleV: 1
    - _MainMaskScrollSpeed: 0
    - _MainMaskScrollSpeedU: 0
    - _MainMaskScrollSpeedV: 0
    - _MainTexRotation: 0
    - _NOISE01RADIAL: 0
    - _NOISE01RADIALScaleU: 1
    - _NOISE01RADIALScaleV: 1
    - _Noise01Exp: 1
    - _Noise01Negate: 0.45
    - _Noise01RandomMax: 1.1
    - _Noise01RandomMin: 0.9
    - _Noise01ScaleU: 1
    - _Noise01ScaleV: 1.5
    - _Noise01ScrollSpeed: 0
    - _Noise01ScrollSpeedU: 0
    - _Noise01ScrollSpeedV: 0
    - _QueueControl: 0
    - _QueueOffset: 0
    - _RAMPAFFECTEDBYVERTEXCOLOR: 0
    - _RAMPENABLED: 0
    - _RIMMASKENABLED: 0
    - _RadialDistortionNoisePower: 0
    - _RampAffectedByDynamics: 1
    - _RampIgnoreVertexColor: 0
    - _RampNoiseAmount: 1
    - _RampOffsetExp: 1
    - _RampOffsetMultiply: 1
    - _RimMaskExp: 1
    - _RimMaskExpReversed: 1
    - _RimMaskScale: 1
    - _RimStartPointBoostExp: 1
    - _RimStartPointBoostPower: 0
    - _SOFTPARTICLESENABLED: 0
    - _SecondMaskAffectsDistortion: 0
    - _SecondMaskAffectsNoise01Negate: 0
    - _SecondMaskAffectsRamp: 0
    - _SecondMaskBoostsEmission: 0
    - _SecondMaskFractShrink: 1
    - _SecondMaskFractSwitch: 0
    - _SecondMaskNegate: 1
    - _SecondMaskScaleU: 1
    - _SecondMaskScaleV: 1
    - _SecondMaskVSMoveU: 0
    - _SecondMaskVSMoveV: 0
    - _SoftParticlesDistance: 0.2
    - _SqueezeUVAmount: 1.5
    - _SqueezeUVExp: 2
    - _StartPointBoostExp: 1
    - _StartPointBoostPower: 0
    - _StartPointMaskAdd: 0
    - _StartPointMaskExp: 1
    - __dirty: 0
    m_Colors:
    - _CustomColorMaskChannels: {r: 1, g: 0, b: 0, a: 0}
    - _FinalColor: {r: 1, g: 0.13899967, b: 0, a: 1}
    - _MainMaskChannelsMultiply: {r: 1, g: 0, b: 0, a: 0}
    - _MainTexChannels: {r: 1, g: 0, b: 0, a: 0}
    - _RampColorTint: {r: 1, g: 1, b: 1, a: 1}
  m_BuildTextureStacks: []
--- !u!114 &1911328497312185685
MonoBehaviour:
  m_ObjectHideFlags: 11
  m_CorrespondingSourceObject: {fileID: 0}
  m_PrefabInstance: {fileID: 0}
  m_PrefabAsset: {fileID: 0}
  m_GameObject: {fileID: 0}
  m_Enabled: 1
  m_EditorHideFlags: 0
  m_Script: {fileID: 11500000, guid: d0353a89b1f911e48b9e16bdc9f2e058, type: 3}
  m_Name: 
  m_EditorClassIdentifier: 
  version: 5
