%YAML 1.1
%TAG !u! tag:unity3d.com,2011:
--- !u!21 &2100000
Material:
  serializedVersion: 8
  m_ObjectHideFlags: 0
  m_CorrespondingSourceObject: {fileID: 0}
  m_PrefabInstance: {fileID: 0}
  m_PrefabAsset: {fileID: 0}
  m_Name: Chain2bn
  m_Shader: {fileID: -6465566751694194690, guid: d84ea5bdbc3687f438425a99bb871260,
    type: 3}
  m_ValidKeywords: []
  m_InvalidKeywords:
  - _USEDEPTH_ON
  m_LightmapFlags: 4
  m_EnableInstancingVariants: 0
  m_DoubleSidedGI: 0
  m_CustomRenderQueue: -1
  stringTagMap: {}
  disabledShaderPasses: []
  m_SavedProperties:
    serializedVersion: 3
    m_TexEnvs:
    - _MainTex:
        m_Texture: {fileID: 2800000, guid: 043d92615bd157d4c85b0064b9f76625, type: 3}
        m_Scale: {x: 10, y: 1}
        m_Offset: {x: 0, y: 0}
    - _Mask:
        m_Texture: {fileID: 0}
        m_Scale: {x: 1, y: 1}
        m_Offset: {x: 0, y: 0}
    - _Noise:
        m_Texture: {fileID: 0}
        m_Scale: {x: 1, y: 1}
        m_Offset: {x: 0, y: 0}
    - _NormalMap:
        m_Texture: {fileID: 2800000, guid: 2afb8b57fb42ef748a57df359dbd01f3, type: 3}
        m_Scale: {x: 10, y: 1}
        m_Offset: {x: 0, y: 0}
    - _tex4coord:
        m_Texture: {fileID: 0}
        m_Scale: {x: 1, y: 1}
        m_Offset: {x: 0, y: 0}
    - _texcoord:
        m_Texture: {fileID: 0}
        m_Scale: {x: 1, y: 1}
        m_Offset: {x: 0, y: 0}
    - unity_Lightmaps:
        m_Texture: {fileID: 0}
        m_Scale: {x: 1, y: 1}
        m_Offset: {x: 0, y: 0}
    - unity_LightmapsInd:
        m_Texture: {fileID: 0}
        m_Scale: {x: 1, y: 1}
        m_Offset: {x: 0, y: 0}
    - unity_ShadowMasks:
        m_Texture: {fileID: 0}
        m_Scale: {x: 1, y: 1}
        m_Offset: {x: 0, y: 0}
    m_Ints: []
    m_Floats:
    - _Cutoff: 0.5
    - _Depthpower: 0.1
    - _Emission: 3
    - _Fresnel: 1
    - _FresnelEmission: 1
    - _NormalScale: 1
    - _Opacity: 1
    - _QueueControl: 0
    - _QueueOffset: 0
    - _UseCustomData: 0
    - _UseFresnel: 0
    - _Usecenterglow: 0
    - _Usedepth: 1
    - __dirty: 1
    m_Colors:
    - _BackFacesColor: {r: 0, g: 0.3524227, b: 1, a: 1}
    - _Color: {r: 1, g: 1, b: 1, a: 1}
    - _FresnelColor: {r: 1, g: 1, b: 1, a: 1}
    - _FrontFacesColor: {r: 0.3066038, g: 0.6716987, b: 1, a: 1}
    - _MainTexTiling: {r: 10, g: 1, b: 0, a: 0}
    - _NoiseTiling: {r: 1, g: 1, b: 0, a: 0}
    - _SpecColor: {r: 1, g: 1, b: 1, a: 1}
    - _SpeedMainTexUVNoiseZW: {r: 2.5, g: 0, b: 0, a: 0}
  m_BuildTextureStacks: []
--- !u!114 &7005023487695894784
MonoBehaviour:
  m_ObjectHideFlags: 11
  m_CorrespondingSourceObject: {fileID: 0}
  m_PrefabInstance: {fileID: 0}
  m_PrefabAsset: {fileID: 0}
  m_GameObject: {fileID: 0}
  m_Enabled: 1
  m_EditorHideFlags: 0
  m_Script: {fileID: 11500000, guid: d0353a89b1f911e48b9e16bdc9f2e058, type: 3}
  m_Name: 
  m_EditorClassIdentifier: 
  version: 5
