%YAML 1.1
%TAG !u! tag:unity3d.com,2011:
--- !u!114 &11400000
MonoBehaviour:
  m_ObjectHideFlags: 0
  m_CorrespondingSourceObject: {fileID: 0}
  m_PrefabInstance: {fileID: 0}
  m_PrefabAsset: {fileID: 0}
  m_GameObject: {fileID: 0}
  m_Enabled: 1
  m_EditorHideFlags: 0
  m_Script: {fileID: 11500000, guid: 92129e6bc9018ce468039aae7d4df5b3, type: 3}
  m_Name: SignWitch_Aries_Skill_6_Unit_Ablility
  m_EditorClassIdentifier: 
  m_AbilityName: Slap
  m_SpriteIcon: {fileID: 21300000, guid: fd7f558f7d9331346bacc5f4946dc86b, type: 3}
  m_Radius: 3
  m_ActionPointCost: 0
  m_moveToTarget: 0
  m_bAllowBlocked: 0
  m_EffectedTeam: 2
  m_EffectedType: 0
  m_ExcuteSeftInSelect: 0
  m_BuffSeft: 0
  m_DeBuffSeft: 0
  m_AbilityShape: {fileID: 11400000, guid: e5878233c2bc97d43a5cfe8964ccd263, type: 2}
  m_EffectShape: {fileID: 11400000, guid: 8a5f04f9d3cd02f42bde4c549b404637, type: 2}
  m_EffectRadius: 1
  m_SpawnOnCaster:
  - {fileID: 6141600212177985748, guid: 21232a3030c99c343886d04e7bf41f50, type: 3}
  m_SpawnOnTarget:
  - {fileID: 261548941115334367, guid: ac8c0e7f99f1f2e4694c301d9ce3264c, type: 3}
  m_Params:
  - {fileID: 11400000, guid: 677560ffbfe5fed448b755f92b93ef92, type: 2}
  m_Ailments: []
  skillID: SignWitch_Aries_Skill_6
