%YAML 1.1
%TAG !u! tag:unity3d.com,2011:
--- !u!114 &11400000
MonoBehaviour:
  m_ObjectHideFlags: 0
  m_CorrespondingSourceObject: {fileID: 0}
  m_PrefabInstance: {fileID: 0}
  m_PrefabAsset: {fileID: 0}
  m_GameObject: {fileID: 0}
  m_Enabled: 1
  m_EditorHideFlags: 0
  m_Script: {fileID: 11500000, guid: 0ddb2db3b727e924dbb5bc75db202e3b, type: 3}
  m_Name: DefeatAllOpponents
  m_EditorClassIdentifier: 
  m_ConditionName: Defeat All
  m_Description: Defeat all opponents.
  m_Icon: {fileID: 2800000, guid: ce65ff8700a37cd409701dc38d172ba1, type: 3}
  m_bCheckWinFirst: 1
  m_bCheckFriendlyTeam: 1
  m_bCheckHostileTeam: 1
