%YAML 1.1
%TAG !u! tag:unity3d.com,2011:
--- !u!21 &2100000
Material:
  serializedVersion: 8
  m_ObjectHideFlags: 0
  m_CorrespondingSourceObject: {fileID: 0}
  m_PrefabInstance: {fileID: 0}
  m_PrefabAsset: {fileID: 0}
  m_Name: LR_ShadowCurve
  m_Shader: {fileID: 4800000, guid: 5c3d236358974bd46a03870d25eb8181, type: 3}
  m_ValidKeywords:
  - _USESOFTPARTICLES_ON
  m_InvalidKeywords: []
  m_LightmapFlags: 4
  m_EnableInstancingVariants: 1
  m_DoubleSidedGI: 0
  m_CustomRenderQueue: -1
  stringTagMap: {}
  disabledShaderPasses: []
  m_SavedProperties:
    serializedVersion: 3
    m_TexEnvs:
    - _BumpMap:
        m_Texture: {fileID: 0}
        m_Scale: {x: 1, y: 1}
        m_Offset: {x: 0, y: 0}
    - _DetailAlbedoMap:
        m_Texture: {fileID: 0}
        m_Scale: {x: 1, y: 1}
        m_Offset: {x: 0, y: 0}
    - _DetailMask:
        m_Texture: {fileID: 0}
        m_Scale: {x: 1, y: 1}
        m_Offset: {x: 0, y: 0}
    - _DetailNormalMap:
        m_Texture: {fileID: 0}
        m_Scale: {x: 1, y: 1}
        m_Offset: {x: 0, y: 0}
    - _Diffuse:
        m_Texture: {fileID: 2800000, guid: 27779bac95236784ab8f7246c70afa83, type: 3}
        m_Scale: {x: 1, y: 1}
        m_Offset: {x: 0, y: 0}
    - _EmissionMap:
        m_Texture: {fileID: 0}
        m_Scale: {x: 1, y: 1}
        m_Offset: {x: 0, y: 0}
    - _FlowMap:
        m_Texture: {fileID: 2800000, guid: 140c5b15ccac91a4fb58b5ea4666c02f, type: 3}
        m_Scale: {x: 1, y: 1}
        m_Offset: {x: 0, y: 0}
    - _MainTex:
        m_Texture: {fileID: 2800000, guid: 67445778cc9abb1418e25e66352fdd84, type: 3}
        m_Scale: {x: 1, y: 1}
        m_Offset: {x: 0, y: 1}
    - _MaskMap:
        m_Texture: {fileID: 0}
        m_Scale: {x: 1, y: 1}
        m_Offset: {x: 0, y: 0}
    - _MetallicGlossMap:
        m_Texture: {fileID: 0}
        m_Scale: {x: 1, y: 1}
        m_Offset: {x: 0, y: 0}
    - _NoiseTex:
        m_Texture: {fileID: 2800000, guid: 163632276e446414db3976d5befc6048, type: 3}
        m_Scale: {x: 2, y: 3}
        m_Offset: {x: 0, y: 0}
    - _OcclusionMap:
        m_Texture: {fileID: 0}
        m_Scale: {x: 1, y: 1}
        m_Offset: {x: 0, y: 0}
    - _ParallaxMap:
        m_Texture: {fileID: 0}
        m_Scale: {x: 1, y: 1}
        m_Offset: {x: 0, y: 0}
    - _TextureSample0:
        m_Texture: {fileID: 2800000, guid: 140c5b15ccac91a4fb58b5ea4666c02f, type: 3}
        m_Scale: {x: 1, y: 1}
        m_Offset: {x: 0, y: 0}
    - _ToonRamp:
        m_Texture: {fileID: 2800000, guid: 14594fdf81fa2af4885b3a97491e736b, type: 3}
        m_Scale: {x: 1, y: 1}
        m_Offset: {x: 0, y: 0}
    - _tex3coord:
        m_Texture: {fileID: 0}
        m_Scale: {x: 1, y: 1}
        m_Offset: {x: 0, y: 0}
    - _texcoord:
        m_Texture: {fileID: 0}
        m_Scale: {x: 1, y: 1}
        m_Offset: {x: 0, y: 0}
    m_Ints: []
    m_Floats:
    - _ASEOutlineWidth: 0.015
    - _BumpScale: 1
    - _Cutoff: 0.5
    - _DetailNormalMapScale: 1
    - _DstBlend: 0
    - _EmissionAdjust: 0
    - _Float0: 0.26
    - _Float2: 1
    - _Float3: 1
    - _FlowStrength: 1.5
    - _FresnelPower: 0
    - _FresnelScale: 0
    - _GlossMapScale: 1
    - _Glossiness: 0.5
    - _GlossyReflections: 1
    - _InvFade: 1
    - _MainTexOffsetX: 0.5
    - _MainTexOffsetY: 0
    - _MaskAppearProgress: 0
    - _MaskClipValue: 0.5
    - _MaskOffset: 0
    - _MaskSize: 0.5
    - _Metallic: 0
    - _Mode: 0
    - _OcclusionStrength: 1
    - _Parallax: 0.02
    - _RimOffset: 0.15
    - _RimPower: 0
    - _Size: 1
    - _SmoothnessTextureChannel: 0
    - _SpecularHighlights: 1
    - _SrcBlend: 1
    - _TexAdd: 0.5
    - _TimeScale: 1
    - _UVSec: 0
    - _UseSoftParticles: 1
    - _VertexOffset: 3
    - _VertexOffsetPosa: 1.13
    - _VertexOffsetSize: 0.12
    - _ZWrite: 1
    - __dirty: 0
    m_Colors:
    - _ASEOutlineColor: {r: 1, g: 1, b: 1, a: 0}
    - _Color: {r: 1, g: 1, b: 1, a: 1}
    - _EmissionColor: {r: 0, g: 0, b: 0, a: 1}
    - _FlowMapSpeed: {r: 1, g: 0.5, b: 0, a: 0}
    - _MaskSize: {r: 0.5, g: 0.5, b: 0, a: 0}
    - _NoiseSpeed: {r: 1, g: 0, b: 0, a: 0}
    - _RimColor: {r: 0, g: 0, b: 0, a: 1}
    - _TintColor: {r: 0, g: 0, b: 0, a: 1}
    - _Vector0: {r: 1, g: 0, b: 0, a: 0}
  m_BuildTextureStacks: []
