%YAML 1.1
%TAG !u! tag:unity3d.com,2011:
--- !u!114 &-4284913603984748648
MonoBehaviour:
  m_ObjectHideFlags: 11
  m_CorrespondingSourceObject: {fileID: 0}
  m_PrefabInstance: {fileID: 0}
  m_PrefabAsset: {fileID: 0}
  m_GameObject: {fileID: 0}
  m_Enabled: 1
  m_EditorHideFlags: 0
  m_Script: {fileID: 11500000, guid: d0353a89b1f911e48b9e16bdc9f2e058, type: 3}
  m_Name: 
  m_EditorClassIdentifier: 
  version: 5
--- !u!21 &2100000
Material:
  serializedVersion: 8
  m_ObjectHideFlags: 0
  m_CorrespondingSourceObject: {fileID: 0}
  m_PrefabInstance: {fileID: 0}
  m_PrefabAsset: {fileID: 0}
  m_Name: Bow_Example
  m_Shader: {fileID: -6465566751694194690, guid: 4e11911a9b9313346925170bf2b846c5,
    type: 3}
  m_ValidKeywords: []
  m_InvalidKeywords:
  - _DISSOLVEMANUALCONTROL_ON
  m_LightmapFlags: 2
  m_EnableInstancingVariants: 0
  m_DoubleSidedGI: 0
  m_CustomRenderQueue: -1
  stringTagMap: {}
  disabledShaderPasses: []
  m_SavedProperties:
    serializedVersion: 3
    m_TexEnvs:
    - _AlbedoDecalMask:
        m_Texture: {fileID: 2800000, guid: 3cd0e609cad3bb7479bf9026edb0a6c7, type: 3}
        m_Scale: {x: 1, y: 1}
        m_Offset: {x: 0, y: 0}
    - _DissolveDirectionMask:
        m_Texture: {fileID: 0}
        m_Scale: {x: 1, y: 1}
        m_Offset: {x: 0, y: 0}
    - _DissolveTexture:
        m_Texture: {fileID: 0}
        m_Scale: {x: 1, y: 1}
        m_Offset: {x: 0, y: 0}
    - _Emission:
        m_Texture: {fileID: 2800000, guid: 075fb21784e2cc74eacb3054dc077fb1, type: 3}
        m_Scale: {x: 1, y: 1}
        m_Offset: {x: 0, y: 0}
    - _MetallicSmoothness:
        m_Texture: {fileID: 2800000, guid: 986f06b7e50a9544f871c73c435282bd, type: 3}
        m_Scale: {x: 1, y: 1}
        m_Offset: {x: 0, y: 0}
    - _Normal:
        m_Texture: {fileID: 2800000, guid: 5e6c0566dcc6c9d46a8f87dcca9e886f, type: 3}
        m_Scale: {x: 1, y: 1}
        m_Offset: {x: 0, y: 0}
    - _tex4coord:
        m_Texture: {fileID: 0}
        m_Scale: {x: 1, y: 1}
        m_Offset: {x: 0, y: 0}
    - _tex4coord2:
        m_Texture: {fileID: 0}
        m_Scale: {x: 1, y: 1}
        m_Offset: {x: 0, y: 0}
    - _texcoord:
        m_Texture: {fileID: 0}
        m_Scale: {x: 1, y: 1}
        m_Offset: {x: 0, y: 0}
    - unity_Lightmaps:
        m_Texture: {fileID: 0}
        m_Scale: {x: 1, y: 1}
        m_Offset: {x: 0, y: 0}
    - unity_LightmapsInd:
        m_Texture: {fileID: 0}
        m_Scale: {x: 1, y: 1}
        m_Offset: {x: 0, y: 0}
    - unity_ShadowMasks:
        m_Texture: {fileID: 0}
        m_Scale: {x: 1, y: 1}
        m_Offset: {x: 0, y: 0}
    m_Ints: []
    m_Floats:
    - _AlbedoDecalNegate: 1
    - _Cutoff: 0.5
    - _DISSOLVEDIRECTIONMASKFLIP: 0
    - _DISSOLVEMANUALCONTROL: 1
    - _DISSOLVETEXTUREFLIP: 0
    - _DissolveDirectionScale: 1
    - _DissolveEmissionExp: 1
    - _DissolveEmissionOffset: 0
    - _DissolveEmissionPower: 1
    - _DissolveEmissionRemapMax: 0.25
    - _DissolveManualProgress: 0
    - _DissolveTextureScaleU: 1
    - _DissolveTextureScaleV: 1
    - _EMISSIONVSCONTROLENABLED: 0
    - _EmissionPower: 6
    - _Float0: 1
    - _Metallic: 1
    - _QueueControl: 0
    - _QueueOffset: 0
    - _RIMEMISSIONAFFECTSMASK: 0
    - _RIMEMISSIONENABLED: 0
    - _RimEmissionExp: 3
    - _RimEmissionNormal: 1
    - _RimEmissionPower: 6
    - _Smoothness: 1
    - __dirty: 0
    m_Colors:
    - _AlbedoColorTint: {r: 1, g: 1, b: 1, a: 1}
    - _AlbedoDecalColor: {r: 1, g: 1, b: 1, a: 1}
    - _DissolveEmissionColor: {r: 1, g: 0, b: 0, a: 1}
    - _EmissionColor: {r: 1, g: 0.12413778, b: 0, a: 0}
    - _RimEmissionColor: {r: 1, g: 0, b: 0, a: 1}
  m_BuildTextureStacks: []
