%YAML 1.1
%TAG !u! tag:unity3d.com,2011:
--- !u!114 &11400000
MonoBehaviour:
  m_ObjectHideFlags: 0
  m_CorrespondingSourceObject: {fileID: 0}
  m_PrefabInstance: {fileID: 0}
  m_PrefabAsset: {fileID: 0}
  m_GameObject: {fileID: 0}
  m_Enabled: 1
  m_EditorHideFlags: 0
  m_Script: {fileID: 11500000, guid: 9372cc902d352b2499fa64c8b9c91d5b, type: 3}
  m_Name: SkillBuffImageManagerScriptObj
  m_EditorClassIdentifier: 
  buffDataList:
  - buffType: 1
    buffJPfName: Veil
    buffDescription: Disable new debuff one time
    buffSummary: Disable new debuff one time
    buffSprite: {fileID: 21300000, guid: 8624b61fad729404fbe0882e481f793f, type: 3}
    isSkillDependent: 0
    isMentalBuff: 0
  - buffType: 2
    buffJPfName: Barrier
    buffDescription: "\u88AB\u30C0\u30E1\u30FC\u30B8\u6570%\u6E1B\u5C11\uFF08\u30B9\u30AD\u30EB\u306B\u3088\u308B\uFF09\u30012\u30BF\u30FC\u30F3\u7D99\u7D9A"
    buffSummary: Received Damaged -{skill}%
    buffSprite: {fileID: 21300000, guid: f3112332a16834248bcf51b2482916d2, type: 3}
    isSkillDependent: 1
    isMentalBuff: 0
  - buffType: 3
    buffJPfName: Activation
    buffDescription: "\u305D\u306EMonster\u306E\u30BF\u30FC\u30F3\u6BCE\u306B\u6700\u5927HP\u306E\u6570%\u56DE\u5FA9\uFF08\u30B9\u30AD\u30EB\u306B\u3088\u308B\uFF09\u30013\u30BF\u30FC\u30F3\u7D99\u7D9A"
    buffSummary: Recovery {skill}% of max HP each turn
    buffSprite: {fileID: 21300000, guid: bc43a55953f4cef4891e848e074fc5a5, type: 3}
    isSkillDependent: 1
    isMentalBuff: 0
  - buffType: 5
    buffJPfName: Accelerate
    buffDescription: "\u30B9\u30D4\u30FC\u30C9+10%\u30012\u30BF\u30FC\u30F3\u7D99\u7D9A"
    buffSummary: SPD+10%
    buffSprite: {fileID: 21300000, guid: b9e0ada9481c1734999e2a3793d5e221, type: 3}
    isSkillDependent: 0
    isMentalBuff: 0
  - buffType: 6
    buffJPfName: Sink
    buffDescription: "\u6B21\u56DE\u653B\u6483\u6642\u306B\u30B9\u30AD\u30EB\u6BCE\u306B\u6C7A\u3081\u3089\u308C\u305F\u91CF\u306E\u4E0E\u30C0\u30E1\u30FC\u30B8\u4E0A\u6607"
    buffSummary: Next attack damage +{skill}%
    buffSprite: {fileID: 21300000, guid: c51d84b46126898438326b36650a287d, type: 3}
    isSkillDependent: 1
    isMentalBuff: 0
  - buffType: 7
    buffJPfName: Illusion
    buffDescription: "\u56DE\u907F\u7387\u6570%\u4E0A\u6607\uFF08\u30B9\u30AD\u30EB\u306B\u3088\u308B\uFF09\u30012\u30BF\u30FC\u30F3\u7D99\u7D9A"
    buffSummary: Evasion rate +{skill}%
    buffSprite: {fileID: 21300000, guid: a6fc1c542855b1846bda2eb4ab3a4931, type: 3}
    isSkillDependent: 1
    isMentalBuff: 0
  - buffType: 8
    buffJPfName: Provoke
    buffDescription: Concentrate the opponent monster's attack on yourself
    buffSummary: Concentrate the opponent monster's attack on yourself
    buffSprite: {fileID: 21300000, guid: 63eb7325ae5e34e43b780c9e0e5fad64, type: 3}
    isSkillDependent: 0
    isMentalBuff: 0
  - buffType: 9
    buffJPfName: Hide
    buffDescription: "\"\u76F8\u624B\u304B\u3089\u898B\u3048\u306A\u304F\u306A\u308A\u653B\u6483\u306E\u30BF\u30FC\u30B2\u30C3\u30C8\u306B\u51FA\u6765\u306A\u304F\u306A\u308B\u30013\u30BF\u30FC\u30F3\u7D99\u7D9A
      \u30BF\u30FC\u30F3\u7D4C\u904E\u4EE5\u5916\u306B\u7BC4\u56F2\u653B\u6483\u306E\u30D2\u30C3\u30C8\u3001\u30B5\u30FC\u30C1\u30B9\u30AD\u30EB\u3001\u30B9\u30AD\u30EB\u3092\u4F7F\u3046\u3053\u3068\u3067\u89E3\u9664\u3055\u308C\u308B\""
    buffSummary: Become invisible to the opponent and unable to select a target
    buffSprite: {fileID: 21300000, guid: 35ec4517b34f6384e864a835df7902ae, type: 3}
    isSkillDependent: 0
    isMentalBuff: 0
  - buffType: 10
    buffJPfName: STR Increase
    buffDescription: "STR\u304C\u30B9\u30AD\u30EB\u6BCE\u306B\u6C7A\u3081\u3089\u308C\u305F\u91CF\u4E0A\u6607"
    buffSummary: STR+{skill}%
    buffSprite: {fileID: 21300000, guid: 2b8f14e75e24bd945b36d6e57623cd91, type: 3}
    isSkillDependent: 1
    isMentalBuff: 0
  - buffType: 11
    buffJPfName: INT Increase
    buffDescription: "INT\u304C\u30B9\u30AD\u30EB\u6BCE\u306B\u6C7A\u3081\u3089\u308C\u305F\u91CF\u4E0A\u6607"
    buffSummary: INT+{skill}%
    buffSprite: {fileID: 21300000, guid: 6b2269ed8e583d8468d8efbc74d79d10, type: 3}
    isSkillDependent: 1
    isMentalBuff: 0
  - buffType: 12
    buffJPfName: DEX Increase
    buffDescription: "DEX\u304C\u30B9\u30AD\u30EB\u6BCE\u306B\u6C7A\u3081\u3089\u308C\u305F\u91CF\u4E0A\u6607"
    buffSummary: DEX+{skill}%
    buffSprite: {fileID: 21300000, guid: 952301fd6d644c14a88d1ad89cff45dc, type: 3}
    isSkillDependent: 1
    isMentalBuff: 0
  - buffType: 13
    buffJPfName: AGI Increase
    buffDescription: "AGI\u304C\u30B9\u30AD\u30EB\u6BCE\u306B\u6C7A\u3081\u3089\u308C\u305F\u91CF\u4E0A\u6607"
    buffSummary: AGI+{skill}%
    buffSprite: {fileID: 21300000, guid: 92f6fd5b90f18f040961ffbdb677a8e0, type: 3}
    isSkillDependent: 1
    isMentalBuff: 0
  - buffType: 14
    buffJPfName: VIT Increase
    buffDescription: "VIT\u304C\u30B9\u30AD\u30EB\u6BCE\u306B\u6C7A\u3081\u3089\u308C\u305F\u91CF\u4E0A\u6607"
    buffSummary: VIT+{skill}%
    buffSprite: {fileID: 21300000, guid: 0e04b9904658eec4ab81014f49a116b8, type: 3}
    isSkillDependent: 1
    isMentalBuff: 0
  - buffType: 15
    buffJPfName: Courage
    buffDescription: "\u4E0E\u30C0\u30E1\u30FC\u30B8\u3001\u30AF\u30EA\u30C6\u30A3\u30AB\u30EB\u7387\u3092\u6570%\u4E0A\u6607\uFF08\u30B9\u30AD\u30EB\u306B\u3088\u308B\uFF09\u30013\u30BF\u30FC\u30F3\u7D99\u7D9A"
    buffSummary: Dealt damage & CRI+{skill}%
    buffSprite: {fileID: 21300000, guid: 65f99c2e9023c61408d61295cb10f11a, type: 3}
    isSkillDependent: 1
    isMentalBuff: 1
  - buffType: 16
    buffJPfName: Cheer
    buffDescription: "\u30AF\u30EA\u30C6\u30A3\u30AB\u30EB\u7387\u6570%\u4E0A\u6607\uFF08\u30B9\u30AD\u30EB\u306B\u3088\u308B\uFF09\u30013\u30BF\u30FC\u30F3\u7D99\u7D9A"
    buffSummary: CRI+{skill}%
    buffSprite: {fileID: 21300000, guid: d13ebb49aa4887949a50bdf292e370a9, type: 3}
    isSkillDependent: 1
    isMentalBuff: 1
  - buffType: 17
    buffJPfName: Concentrate
    buffDescription: "\u547D\u4E2D\u7387\u3068\u56DE\u907F\u7387\u6570%\u4E0A\u6607\uFF08\u30B9\u30AD\u30EB\u306B\u3088\u308B\uFF09\u30012\u30BF\u30FC\u30F3\u7D99\u7D9A"
    buffSummary: Accuracy & Evasion +{skill}%
    buffSprite: {fileID: 21300000, guid: bf348eceac504ca43817b6b3751d6d9b, type: 3}
    isSkillDependent: 1
    isMentalBuff: 1
  - buffType: 18
    buffJPfName: Energize
    buffDescription: "ST\u56DE\u5FA9\u91CF\u304C\u6570%\u5897\u52A0\uFF08\u30B9\u30AD\u30EB\u306B\u3088\u308B\uFF09\u30013\u30BF\u30FC\u30F3\u7D99\u7D9A"
    buffSummary: ST recovery increased by {skill}%
    buffSprite: {fileID: 21300000, guid: 96a011423f5e56b4fb63aa214e4c25e9, type: 3}
    isSkillDependent: 1
    isMentalBuff: 0
  debuffDataList:
  - debuffType: 1
    debuffJPfName: Poison
    debuffDescription: "\u305D\u306EMonster\u306E\u30BF\u30FC\u30F3\u6BCE\u306B\u6700\u5927HP\u306E5%\u306E\u30C0\u30E1\u30FC\u30B8\u30013\u30BF\u30FC\u30F3\u7D99\u7D9A"
    debuffSummary: 5% max HP damage for each turn
    debuffSprite: {fileID: 21300000, guid: 1b34b8c86c55f8f4a9444da84290daee, type: 3}
    isSkillDependent: 0
    isMentalDebuff: 0
  - debuffType: 2
    debuffJPfName: Toxic
    debuffDescription: "\u305D\u306EMonster\u306E\u30BF\u30FC\u30F3\u6BCE\u306B\u6700\u5927HP\u306E10%\u306E\u30C0\u30E1\u30FC\u30B8\u30013\u30BF\u30FC\u30F3\u7D99\u7D9A"
    debuffSummary: 10% max HP damage for each turn
    debuffSprite: {fileID: 21300000, guid: 7d7060dc5bf2f1c42befc85b049bdee8, type: 3}
    isSkillDependent: 0
    isMentalDebuff: 0
  - debuffType: 3
    debuffJPfName: Weakened
    debuffDescription: "Monster\u306E\u756A\u306B\u306A\u308B\u3054\u3068\u306B\u3001\u30B9\u30BF\u30DF\u30CA\u56DE\u5FA9\u5F8C\u306B\u30B9\u30BF\u30DF\u30CA10%\u6E1B\u5C11
      \u30B9\u30AD\u30EB\u306B\u3088\u308BHP\u3001\u30B9\u30BF\u30DF\u30CA\u56DE\u5FA920%\u6E1B\u5C11\u30012\u30BF\u30FC\u30F3\u7D99\u7D9A"
    debuffSummary: '10% stamina damage for each turn

      HP and ST recovery from
      skills -20%'
    debuffSprite: {fileID: 21300000, guid: a5b7b54b4b06fbe4da640217bfd2429d, type: 3}
    isSkillDependent: 0
    isMentalDebuff: 0
  - debuffType: 4
    debuffJPfName: Blind
    debuffDescription: "\u547D\u4E2D\u7387\u3068\u56DE\u907F\u7387-15%\u30011\u30BF\u30FC\u30F3\u7D99\u7D9A\t"
    debuffSummary: Accuracy & Evasion -15%
    debuffSprite: {fileID: 21300000, guid: cd710d52a4bd12f4c97e600c93a1bcc8, type: 3}
    isSkillDependent: 0
    isMentalDebuff: 0
  - debuffType: 5
    debuffJPfName: Slow
    debuffDescription: "\u30B9\u30D4\u30FC\u30C9-10%\u3001\u79FB\u52D5\u529B-1\uFF08\u79FB\u52D5\u529B\u306E\u4E0B\u9650\u306F1\uFF09\u30011\u30BF\u30FC\u30F3\u7D99\u7D9A"
    debuffSummary: SPD-10% & MOV-1
    debuffSprite: {fileID: 21300000, guid: 2d64f5a56ba971d44b14b2905b98214b, type: 3}
    isSkillDependent: 0
    isMentalDebuff: 0
  - debuffType: 6
    debuffJPfName: Paralyze
    debuffDescription: "1\u30BF\u30FC\u30F3\u884C\u52D5\u4E0D\u80FD"
    debuffSummary: Unable to act for 1 turn
    debuffSprite: {fileID: 21300000, guid: 455a9821a9b83eb4992e466300be531b, type: 3}
    isSkillDependent: 0
    isMentalDebuff: 0
  - debuffType: 7
    debuffJPfName: Sleep
    debuffDescription: "1\u30BF\u30FC\u30F3\u884C\u52D5\u4E0D\u80FD\u3001\u30B9\u30BF\u30DF\u30CA\u56DE\u5FA9+50%\u3001\u88AB\u30C0\u30E1\u30FC\u30B8\u6642\u89E3\u9664"
    debuffSummary: 'Unable to act for 1 turn

      ST recovery on next turn +50%'
    debuffSprite: {fileID: 21300000, guid: 0d6ebbcf5eb27bb41afa3c66c4d1ff8d, type: 3}
    isSkillDependent: 0
    isMentalDebuff: 0
  - debuffType: 8
    debuffJPfName: STR Decrease
    debuffDescription: "STR\u304C\u30B9\u30AD\u30EB\u6BCE\u306B\u6C7A\u3081\u3089\u308C\u305F\u91CF\u6E1B\u5C11"
    debuffSummary: STR-{skill}%
    debuffSprite: {fileID: 21300000, guid: 80521111d1af18a43bc0273fc75e7935, type: 3}
    isSkillDependent: 1
    isMentalDebuff: 0
  - debuffType: 9
    debuffJPfName: INT Decrease
    debuffDescription: "INT\u304C\u30B9\u30AD\u30EB\u6BCE\u306B\u6C7A\u3081\u3089\u308C\u305F\u91CF\u6E1B\u5C11"
    debuffSummary: INT-{skill}%
    debuffSprite: {fileID: 21300000, guid: b55291983045cad41b90dd4b2699701b, type: 3}
    isSkillDependent: 1
    isMentalDebuff: 0
  - debuffType: 10
    debuffJPfName: DEX Decrease
    debuffDescription: "DEX\u304C\u30B9\u30AD\u30EB\u6BCE\u306B\u6C7A\u3081\u3089\u308C\u305F\u91CF\u6E1B\u5C11"
    debuffSummary: DEX-{skill}%
    debuffSprite: {fileID: 21300000, guid: 996a32da1dfbe514e9562e4104e6bfab, type: 3}
    isSkillDependent: 1
    isMentalDebuff: 0
  - debuffType: 11
    debuffJPfName: AGI Decrease
    debuffDescription: "AGI\u304C\u30B9\u30AD\u30EB\u6BCE\u306B\u6C7A\u3081\u3089\u308C\u305F\u91CF\u6E1B\u5C11"
    debuffSummary: AGI-{skill}%
    debuffSprite: {fileID: 21300000, guid: cc7f785fd269622408f460e286b10f3c, type: 3}
    isSkillDependent: 1
    isMentalDebuff: 0
  - debuffType: 12
    debuffJPfName: VIT Decrease
    debuffDescription: "VIT\u304C\u30B9\u30AD\u30EB\u6BCE\u306B\u6C7A\u3081\u3089\u308C\u305F\u91CF\u6E1B\u5C11"
    debuffSummary: VIT-{skill}%
    debuffSprite: {fileID: 21300000, guid: e6a5b15a512037446b11464c8c149170, type: 3}
    isSkillDependent: 1
    isMentalDebuff: 0
  - debuffType: 13
    debuffJPfName: Enrage
    debuffDescription: "\u4E0E\u30C0\u30E1\u30FC\u30B8+10%\u3001\u88AB\u30C0\u30E1\u30FC\u30B8+10%\u3001\u6D88\u8CBB\u30B9\u30BF\u30DF\u30CA+10%\u30013\u30BF\u30FC\u30F3\u7D99\u7D9A"
    debuffSummary: Dealt Damage +10% & taken damage +10% & consumed ST +10%
    debuffSprite: {fileID: 21300000, guid: 3f4170c01e823c241befef32e821d85c, type: 3}
    isSkillDependent: 0
    isMentalDebuff: 1
  - debuffType: 14
    debuffJPfName: Fear
    debuffDescription: "\u30B9\u30AD\u30EB\u4F7F\u7528\u4E0D\u53EF\u30012\u30BF\u30FC\u30F3\u7D99\u7D9A"
    debuffSummary: Unable to use skill
    debuffSprite: {fileID: 21300000, guid: 772656075a4c35142bebecf341b14690, type: 3}
    isSkillDependent: 0
    isMentalDebuff: 1
  - debuffType: 15
    debuffJPfName: Confusion
    debuffDescription: "\u6575Monster\u304C\u9060\u304F\u306B\u306A\u308B\u3088\u3046\u306B\u79FB\u52D5\u3059\u308B\uFF08\u9003\u3052\u308B\uFF092\u30BF\u30FC\u30F3\u7D99\u7D9A"
    debuffSummary: Run away from opponent monster
    debuffSprite: {fileID: 21300000, guid: 2fbfe687143023b48b128c5f9852fcc2, type: 3}
    isSkillDependent: 0
    isMentalDebuff: 1
  - debuffType: 16
    debuffJPfName: Charm
    debuffDescription: "\u6700\u3082\u8FD1\u3044\u5473\u65B9Monster\u306B\u30E9\u30F3\u30C0\u30E0\u3067\u30B9\u30AD\u30EB\u3092\u4F7F\u3046
      1\u30BF\u30FC\u30F3\u7D99\u7D9A"
    debuffSummary: Attack nearby teammate
    debuffSprite: {fileID: 21300000, guid: 3cca40af501563046861931ea2347655, type: 3}
    isSkillDependent: 0
    isMentalDebuff: 1
  buffImages:
  - buffType: 1
    sprite: {fileID: 21300000, guid: 8624b61fad729404fbe0882e481f793f, type: 3}
  - buffType: 2
    sprite: {fileID: 21300000, guid: f3112332a16834248bcf51b2482916d2, type: 3}
  - buffType: 3
    sprite: {fileID: 21300000, guid: bc43a55953f4cef4891e848e074fc5a5, type: 3}
  - buffType: 4
    sprite: {fileID: 21300000, guid: 96a011423f5e56b4fb63aa214e4c25e9, type: 3}
  - buffType: 5
    sprite: {fileID: 21300000, guid: b9e0ada9481c1734999e2a3793d5e221, type: 3}
  - buffType: 6
    sprite: {fileID: 21300000, guid: c51d84b46126898438326b36650a287d, type: 3}
  - buffType: 7
    sprite: {fileID: 21300000, guid: a6fc1c542855b1846bda2eb4ab3a4931, type: 3}
  - buffType: 8
    sprite: {fileID: 21300000, guid: 63eb7325ae5e34e43b780c9e0e5fad64, type: 3}
  - buffType: 9
    sprite: {fileID: 21300000, guid: 35ec4517b34f6384e864a835df7902ae, type: 3}
  - buffType: 10
    sprite: {fileID: 21300000, guid: 2b8f14e75e24bd945b36d6e57623cd91, type: 3}
  - buffType: 11
    sprite: {fileID: 21300000, guid: 6b2269ed8e583d8468d8efbc74d79d10, type: 3}
  - buffType: 12
    sprite: {fileID: 21300000, guid: 952301fd6d644c14a88d1ad89cff45dc, type: 3}
  - buffType: 13
    sprite: {fileID: 21300000, guid: 92f6fd5b90f18f040961ffbdb677a8e0, type: 3}
  - buffType: 14
    sprite: {fileID: 21300000, guid: 0e04b9904658eec4ab81014f49a116b8, type: 3}
  - buffType: 15
    sprite: {fileID: 21300000, guid: 65f99c2e9023c61408d61295cb10f11a, type: 3}
  - buffType: 16
    sprite: {fileID: 21300000, guid: d13ebb49aa4887949a50bdf292e370a9, type: 3}
  - buffType: 17
    sprite: {fileID: 21300000, guid: bf348eceac504ca43817b6b3751d6d9b, type: 3}
  deBuffImages:
  - deBuffType: 1
    sprite: {fileID: 21300000, guid: 1b34b8c86c55f8f4a9444da84290daee, type: 3}
  - deBuffType: 2
    sprite: {fileID: 21300000, guid: 7d7060dc5bf2f1c42befc85b049bdee8, type: 3}
  - deBuffType: 3
    sprite: {fileID: 21300000, guid: a5b7b54b4b06fbe4da640217bfd2429d, type: 3}
  - deBuffType: 4
    sprite: {fileID: 21300000, guid: cd710d52a4bd12f4c97e600c93a1bcc8, type: 3}
  - deBuffType: 5
    sprite: {fileID: 21300000, guid: 2d64f5a56ba971d44b14b2905b98214b, type: 3}
  - deBuffType: 6
    sprite: {fileID: 21300000, guid: 455a9821a9b83eb4992e466300be531b, type: 3}
  - deBuffType: 7
    sprite: {fileID: 21300000, guid: 0d6ebbcf5eb27bb41afa3c66c4d1ff8d, type: 3}
  - deBuffType: 8
    sprite: {fileID: 21300000, guid: 80521111d1af18a43bc0273fc75e7935, type: 3}
  - deBuffType: 9
    sprite: {fileID: 21300000, guid: b55291983045cad41b90dd4b2699701b, type: 3}
  - deBuffType: 10
    sprite: {fileID: 21300000, guid: 996a32da1dfbe514e9562e4104e6bfab, type: 3}
  - deBuffType: 11
    sprite: {fileID: 21300000, guid: cc7f785fd269622408f460e286b10f3c, type: 3}
  - deBuffType: 12
    sprite: {fileID: 21300000, guid: e6a5b15a512037446b11464c8c149170, type: 3}
  - deBuffType: 13
    sprite: {fileID: 21300000, guid: 3f4170c01e823c241befef32e821d85c, type: 3}
  - deBuffType: 14
    sprite: {fileID: 21300000, guid: 772656075a4c35142bebecf341b14690, type: 3}
  - deBuffType: 15
    sprite: {fileID: 21300000, guid: 2fbfe687143023b48b128c5f9852fcc2, type: 3}
  - deBuffType: 16
    sprite: {fileID: 21300000, guid: 3cca40af501563046861931ea2347655, type: 3}
  buffDescriptions:
  - buffType: 1
    description: "\"\u4E00\u5EA6\u3060\u3051\u3001\u65B0\u898F\u306B\u304B\u304B\u308B\u30C7\u30D0\u30D5\u3092\u7121\u52B9\u5316\u3059\u308B\u30012\u30BF\u30FC\u30F3\u7D99\u7D9A"
  - buffType: 2
    description: "\u88AB\u30C0\u30E1\u30FC\u30B8\u6570%\u6E1B\u5C11\uFF08\u30B9\u30AD\u30EB\u306B\u3088\u308B\uFF09\u30012\u30BF\u30FC\u30F3\u7D99\u7D9A"
  - buffType: 3
    description: "\u305D\u306EMonster\u306E\u30BF\u30FC\u30F3\u6BCE\u306B\u6700\u5927HP\u306E\u6570%\u56DE\u5FA9\uFF08\u30B9\u30AD\u30EB\u306B\u3088\u308B\uFF09\u30013\u30BF\u30FC\u30F3\u7D99\u7D9A"
  - buffType: 4
    description: "ST\u56DE\u5FA9\u91CF\u304C\u6570%\u5897\u52A0\u30013\u30BF\u30FC\u30F3\u7D99\u7D9A"
  - buffType: 5
    description: "\u30B9\u30D4\u30FC\u30C9+10%\u30012\u30BF\u30FC\u30F3\u7D99\u7D9A"
  - buffType: 6
    description: "\u6B21\u56DE\u653B\u6483\u6642\u306B\u30B9\u30AD\u30EB\u6BCE\u306B\u6C7A\u3081\u3089\u308C\u305F\u91CF\u306E\u4E0E\u30C0\u30E1\u30FC\u30B8\u4E0A\u6607"
  - buffType: 7
    description: "\u56DE\u907F\u7387\u6570%\u4E0A\u6607\uFF08\u30B9\u30AD\u30EB\u306B\u3088\u308B\uFF09\u30012\u30BF\u30FC\u30F3\u7D99\u7D9A"
  - buffType: 8
    description: "\u653B\u6483\u7BC4\u56F2\u306B\u5165\u3063\u3066\u3044\u308B\u3068\u3001\u3053\u306EMonster\u3057\u304B\u72D9\u3048\u306A\u304F\u306A\u308B\u3001x\u30BF\u30FC\u30F3\uFF08\u30B9\u30AD\u30EB\u306B\u3088\u308B\uFF09\u7D99\u7D9A"
  - buffType: 9
    description: "\u76F8\u624B\u304B\u3089\u898B\u3048\u306A\u304F\u306A\u308A\u653B\u6483\u306E\u30BF\u30FC\u30B2\u30C3\u30C8\u306B\u51FA\u6765\u306A\u304F\u306A\u308B\u30013\u30BF\u30FC\u30F3\u7D99\u7D9A
      \u30BF\u30FC\u30F3\u7D4C\u904E\u4EE5\u5916\u306B\u7BC4\u56F2\u653B\u6483\u306E\u30D2\u30C3\u30C8\u3001\u30B5\u30FC\u30C1\u30B9\u30AD\u30EB\u3001\u30B9\u30AD\u30EB\u3092\u4F7F\u3046\u3053\u3068\u3067\u89E3\u9664\u3055\u308C\u308B"
  - buffType: 10
    description: "STR \u306E\u3046\u3061\u3044\u305A\u308C\u304B\u304C\u30B9\u30AD\u30EB\u6BCE\u306B\u6C7A\u3081\u3089\u308C\u305F\u91CF\u4E0A\u6607"
  - buffType: 11
    description: "INT \u306E\u3046\u3061\u3044\u305A\u308C\u304B\u304C\u30B9\u30AD\u30EB\u6BCE\u306B\u6C7A\u3081\u3089\u308C\u305F\u91CF\u4E0A\u6607"
  - buffType: 12
    description: "DEX \u306E\u3046\u3061\u3044\u305A\u308C\u304B\u304C\u30B9\u30AD\u30EB\u6BCE\u306B\u6C7A\u3081\u3089\u308C\u305F\u91CF\u4E0A\u6607"
  - buffType: 13
    description: "AGI \u306E\u3046\u3061\u3044\u305A\u308C\u304B\u304C\u30B9\u30AD\u30EB\u6BCE\u306B\u6C7A\u3081\u3089\u308C\u305F\u91CF\u4E0A\u6607"
  - buffType: 14
    description: "VIT \u306E\u3046\u3061\u3044\u305A\u308C\u304B\u304C\u30B9\u30AD\u30EB\u6BCE\u306B\u6C7A\u3081\u3089\u308C\u305F\u91CF\u4E0A\u6607"
  - buffType: 15
    description: "\u4E0E\u30C0\u30E1\u30FC\u30B8\u3001\u30AF\u30EA\u30C6\u30A3\u30AB\u30EB\u7387\u3092\u6570%\u4E0A\u6607\uFF08\u30B9\u30AD\u30EB\u306B\u3088\u308B\uFF09\u30013\u30BF\u30FC\u30F3\u7D99\u7D9A"
  - buffType: 16
    description: "\u30AF\u30EA\u30C6\u30A3\u30AB\u30EB\u7387\u6570%\u4E0A\u6607\uFF08\u30B9\u30AD\u30EB\u306B\u3088\u308B\uFF09\u30013\u30BF\u30FC\u30F3\u7D99\u7D9A"
  - buffType: 17
    description: "\u547D\u4E2D\u7387\u3068\u56DE\u907F\u7387\u6570%\u4E0A\u6607\uFF08\u30B9\u30AD\u30EB\u306B\u3088\u308B\uFF09\u30012\u30BF\u30FC\u30F3\u7D99\u7D9A "
  deBuffDescriptions:
  - deBuffType: 1
    description: "\u305D\u306EMonster\u306E\u30BF\u30FC\u30F3\u6BCE\u306B\u6700\u5927HP\u306E5%\u306E\u30C0\u30E1\u30FC\u30B8\u30013\u30BF\u30FC\u30F3\u7D99\u7D9A"
  - deBuffType: 2
    description: "\u305D\u306EMonster\u306E\u30BF\u30FC\u30F3\u6BCE\u306B\u6700\u5927HP\u306E10%\u306E\u30C0\u30E1\u30FC\u30B8\u30013\u30BF\u30FC\u30F3\u7D99\u7D9A"
  - deBuffType: 3
    description: "Monster\u306E\u756A\u306B\u306A\u308B\u3054\u3068\u306B\u3001\u30B9\u30BF\u30DF\u30CA\u56DE\u5FA9\u5F8C\u306B\u30B9\u30BF\u30DF\u30CA10%\u6E1B\u5C11
      \u30B9\u30AD\u30EB\u306B\u3088\u308BHP\u3001\u30B9\u30BF\u30DF\u30CA\u56DE\u5FA920%\u6E1B\u5C11\u30012\u30BF\u30FC\u30F3\u7D99\u7D9A"
  - deBuffType: 4
    description: "\u547D\u4E2D\u7387\u3068\u56DE\u907F\u7387-15%\u30011\u30BF\u30FC\u30F3\u7D99\u7D9A"
  - deBuffType: 5
    description: "\u30B9\u30D4\u30FC\u30C9-10%\u3001\u79FB\u52D5\u529B-1\uFF08\u79FB\u52D5\u529B\u306E\u4E0B\u9650\u306F1\uFF09\u30011\u30BF\u30FC\u30F3\u7D99\u7D9A"
  - deBuffType: 6
    description: "1\u30BF\u30FC\u30F3\u884C\u52D5\u4E0D\u80FD"
  - deBuffType: 7
    description: "1\u30BF\u30FC\u30F3\u884C\u52D5\u4E0D\u80FD\u3001\u30B9\u30BF\u30DF\u30CA\u56DE\u5FA9+50%\u3001\u88AB\u30C0\u30E1\u30FC\u30B8\u6642\u89E3\u9664"
  - deBuffType: 8
    description: "STR \u306E\u3046\u3061\u3044\u305A\u308C\u304B\u304C\u30B9\u30AD\u30EB\u6BCE\u306B\u6C7A\u3081\u3089\u308C\u305F\u91CF\u6E1B\u5C11"
  - deBuffType: 9
    description: "INT \u306E\u3046\u3061\u3044\u305A\u308C\u304B\u304C\u30B9\u30AD\u30EB\u6BCE\u306B\u6C7A\u3081\u3089\u308C\u305F\u91CF\u6E1B\u5C11"
  - deBuffType: 10
    description: "DEX \u306E\u3046\u3061\u3044\u305A\u308C\u304B\u304C\u30B9\u30AD\u30EB\u6BCE\u306B\u6C7A\u3081\u3089\u308C\u305F\u91CF\u6E1B\u5C11"
  - deBuffType: 11
    description: "AGI \u306E\u3046\u3061\u3044\u305A\u308C\u304B\u304C\u30B9\u30AD\u30EB\u6BCE\u306B\u6C7A\u3081\u3089\u308C\u305F\u91CF\u6E1B\u5C11"
  - deBuffType: 12
    description: "VIT \u306E\u3046\u3061\u3044\u305A\u308C\u304B\u304C\u30B9\u30AD\u30EB\u6BCE\u306B\u6C7A\u3081\u3089\u308C\u305F\u91CF\u6E1B\u5C11"
  - deBuffType: 13
    description: "\u4E0E\u30C0\u30E1\u30FC\u30B8+10%\u3001\u88AB\u30C0\u30E1\u30FC\u30B8+10%\u3001\u6D88\u8CBB\u30B9\u30BF\u30DF\u30CA+10%\u30013\u30BF\u30FC\u30F3\u7D99\u7D9A"
  - deBuffType: 14
    description: "\u30B9\u30AD\u30EB\u4F7F\u7528\u4E0D\u53EF\u30012\u30BF\u30FC\u30F3\u7D99\u7D9A"
  - deBuffType: 15
    description: "\u6575Monster\u304C\u9060\u304F\u306B\u306A\u308B\u3088\u3046\u306B\u79FB\u52D5\u3059\u308B\uFF08\u9003\u3052\u308B\uFF092\u30BF\u30FC\u30F3\u7D99\u7D9A"
  - deBuffType: 16
    description: "\u6700\u3082\u8FD1\u3044\u5473\u65B9Monster\u306B\u30E9\u30F3\u30C0\u30E0\u3067\u30B9\u30AD\u30EB\u3092\u4F7F\u3046
      1\u30BF\u30FC\u30F3\u7D99\u7D9A"
