%YAML 1.1
%TAG !u! tag:unity3d.com,2011:
--- !u!114 &-3191360705092719821
MonoBehaviour:
  m_ObjectHideFlags: 11
  m_CorrespondingSourceObject: {fileID: 0}
  m_PrefabInstance: {fileID: 0}
  m_PrefabAsset: {fileID: 0}
  m_GameObject: {fileID: 0}
  m_Enabled: 1
  m_EditorHideFlags: 0
  m_Script: {fileID: 11500000, guid: d0353a89b1f911e48b9e16bdc9f2e058, type: 3}
  m_Name: 
  m_EditorClassIdentifier: 
  version: 5
--- !u!21 &2100000
Material:
  serializedVersion: 8
  m_ObjectHideFlags: 0
  m_CorrespondingSourceObject: {fileID: 0}
  m_PrefabInstance: {fileID: 0}
  m_PrefabAsset: {fileID: 0}
  m_Name: SummonStorm_Explosion_LightImpact_01
  m_Shader: {fileID: -6465566751694194690, guid: 28890434b7404a74095bc3cb05f55aed,
    type: 3}
  m_ValidKeywords:
  - _DISTORTIONENABLED_ON
  m_InvalidKeywords:
  - _DISSOLVETEXTUREFLIP_ON
  - _EMISSIONVERTEXSTREAMENABLED_ON
  m_LightmapFlags: 0
  m_EnableInstancingVariants: 0
  m_DoubleSidedGI: 0
  m_CustomRenderQueue: -1
  stringTagMap: {}
  disabledShaderPasses: []
  m_SavedProperties:
    serializedVersion: 3
    m_TexEnvs:
    - _CustomColorMask:
        m_Texture: {fileID: 0}
        m_Scale: {x: 1, y: 1}
        m_Offset: {x: 0, y: 0}
    - _CustomColorMask1:
        m_Texture: {fileID: 0}
        m_Scale: {x: 1, y: 1}
        m_Offset: {x: 0, y: 0}
    - _DissolveMask:
        m_Texture: {fileID: 0}
        m_Scale: {x: 1, y: 1}
        m_Offset: {x: 0, y: 0}
    - _DissolveTexture:
        m_Texture: {fileID: 2800000, guid: 7946756a0d414f759c470943148ed64a, type: 3}
        m_Scale: {x: 1, y: 1}
        m_Offset: {x: 0, y: 0}
    - _Distortion:
        m_Texture: {fileID: 2800000, guid: 7946756a0d414f759c470943148ed64a, type: 3}
        m_Scale: {x: 1, y: 1}
        m_Offset: {x: 0, y: 0}
    - _DistortionMask:
        m_Texture: {fileID: 0}
        m_Scale: {x: 1, y: 1}
        m_Offset: {x: 0, y: 0}
    - _EmissionMask:
        m_Texture: {fileID: 2800000, guid: c2f37fa156985f54286d9f3423ca4229, type: 3}
        m_Scale: {x: 1, y: 1}
        m_Offset: {x: 0, y: 0}
    - _EmissionMaskDissolveNoise:
        m_Texture: {fileID: 2800000, guid: 35bc48dad7fe46a4f82965e223b86f2e, type: 3}
        m_Scale: {x: 1, y: 1}
        m_Offset: {x: 0, y: 0}
    - _MainMask:
        m_Texture: {fileID: 2800000, guid: dec06c9f8ba74dee873eed1c9f134096, type: 3}
        m_Scale: {x: 1, y: 1}
        m_Offset: {x: 0, y: 0}
    - _MainTex:
        m_Texture: {fileID: 2800000, guid: 904d8ff05d83c8342a7ec10767019412, type: 3}
        m_Scale: {x: 1, y: 1}
        m_Offset: {x: 0, y: 0}
    - _Noise01:
        m_Texture: {fileID: 2800000, guid: 7946756a0d414f759c470943148ed64a, type: 3}
        m_Scale: {x: 1, y: 1}
        m_Offset: {x: 0, y: 0}
    - _RadialDistortionNoise:
        m_Texture: {fileID: 2800000, guid: a9fcba2b3c04c484081fd31c7a5b9101, type: 3}
        m_Scale: {x: 1, y: 1}
        m_Offset: {x: 0, y: 0}
    - _Ramp:
        m_Texture: {fileID: 2800000, guid: 2f126060a46d4a018caad99e69d3cc69, type: 3}
        m_Scale: {x: 1, y: 1}
        m_Offset: {x: 0, y: 0}
    - _SecondMask:
        m_Texture: {fileID: 0}
        m_Scale: {x: 1, y: 1}
        m_Offset: {x: 0, y: 0}
    - _SecondMaskProfile:
        m_Texture: {fileID: 0}
        m_Scale: {x: 1, y: 1}
        m_Offset: {x: 0, y: 0}
    - _SecondaryMask:
        m_Texture: {fileID: 0}
        m_Scale: {x: 1, y: 1}
        m_Offset: {x: 0, y: 0}
    - _tex4coord:
        m_Texture: {fileID: 0}
        m_Scale: {x: 1, y: 1}
        m_Offset: {x: 0, y: 0}
    - _tex4coord2:
        m_Texture: {fileID: 0}
        m_Scale: {x: 1, y: 1}
        m_Offset: {x: 0, y: 0}
    - _tex4coord3:
        m_Texture: {fileID: 0}
        m_Scale: {x: 1, y: 1}
        m_Offset: {x: 0, y: 0}
    - _texcoord:
        m_Texture: {fileID: 0}
        m_Scale: {x: 1, y: 1}
        m_Offset: {x: 0, y: 0}
    - unity_Lightmaps:
        m_Texture: {fileID: 0}
        m_Scale: {x: 1, y: 1}
        m_Offset: {x: 0, y: 0}
    - unity_LightmapsInd:
        m_Texture: {fileID: 0}
        m_Scale: {x: 1, y: 1}
        m_Offset: {x: 0, y: 0}
    - unity_ShadowMasks:
        m_Texture: {fileID: 0}
        m_Scale: {x: 1, y: 1}
        m_Offset: {x: 0, y: 0}
    m_Ints: []
    m_Floats:
    - _CustomColorMaskAffectedByDynamics: 1
    - _CustomColorMaskAffectedByDynamics1: 1
    - _CustomColorMaskSwitch: 0
    - _CustomColorMaskSwitch1: 0
    - _DISSOLVETEXTUREFLIP: 1
    - _DISSOLVETEXTUREFLIPSwitch: 1
    - _DISSOLVETEXTURERADIAL: 0
    - _DISSOLVETEXTURERADIALEnabled: 0
    - _DISSOLVETEXTURERADIALScaleU: 0.2
    - _DISSOLVETEXTURERADIALScaleV: 1
    - _DISTORTIONENABLED: 1
    - _DISTORTIONRADIAL: 0
    - _DISTORTIONRADIALOldMethodSwitch: 0
    - _DISTORTIONRADIALScaleU: 1
    - _DISTORTIONRADIALScaleV: 1
    - _DISTORTIONRADIALUseOldMethod: 0
    - _DISTORTIONUVORSPHERICAL: 0
    - _DissolveExp: 0.5
    - _DissolveExpReversed: 1
    - _DissolveGlowAffectsRamp: 1
    - _DissolveGlowAffectsRamp1: 1
    - _DissolveGlowAmount: 0
    - _DissolveGlowOffset: 0.25
    - _DissolveGlowPower: 2
    - _DissolveMaskScale: 1
    - _DissolveMaskSteepness: 0
    - _DissolveTextureRandomMax: 1
    - _DissolveTextureRandomMin: 1
    - _DissolveTextureScale: 1
    - _DissolveTextureScaleU: 1
    - _DissolveTextureScaleV: 0.125
    - _DistortionExp: 1
    - _DistortionMaskNegate: 0
    - _DistortionMaskVSMoveU: 0
    - _DistortionMaskVSMoveV: 0
    - _DistortionPower: -0.25
    - _DistortionRemapMax: 1
    - _DistortionRemapMin: 0
    - _DistortionScaleU: 3
    - _DistortionScaleV: 0.25
    - _DistortionScrollSpeedU: 0
    - _DistortionScrollSpeedV: -0.1
    - _DistortionSpheticalStyle: 0
    - _DistortionU: 0
    - _DistortionUseOldMethod: 0
    - _DistortionV: 1
    - _EMISSIONVERTEXSTREAMENABLED: 1
    - _FinalOpacityExp: 1
    - _FinalOpacityExp1: 1.125
    - _FinalOpacityPower: 1
    - _FinalPower: 20
    - _MainMaskExp: 1
    - _MainMaskScaleU: 1
    - _MainMaskScaleV: 1
    - _MainMaskScrollSpeedU: 0
    - _MainMaskScrollSpeedV: 0
    - _NOISE01RADIAL: 0
    - _NOISE01RADIAL1: 0
    - _NOISE01RADIALScaleU: 1
    - _NOISE01RADIALScaleU1: 1
    - _NOISE01RADIALScaleV: 1
    - _NOISE01RADIALScaleV1: 1
    - _Noise01Exp: 4
    - _Noise01Negate: 0
    - _Noise01RandomMax: 1
    - _Noise01RandomMin: 1
    - _Noise01Scale: 1
    - _Noise01ScaleU: 3
    - _Noise01ScaleV: 0.25
    - _Noise01ScrollSpeed1: 0
    - _Noise01ScrollSpeedU: 0
    - _Noise01ScrollSpeedV: -0.1
    - _QueueControl: 0
    - _QueueOffset: 0
    - _RAMPAFFECTEDBYVERTEXCOLOR: 0
    - _RAMPENABLED: 0
    - _RadialDistortionNoisePower: 0
    - _RampAffectedByDynamics: 1
    - _RampIgnoreVertexColor: 0
    - _RampNoiseAmount: 1
    - _RampOffsetExp: 4
    - _RampOffsetMultiply: 2
    - _RampOffsetMultiply1: 1
    - _SOFTPARTICLESENABLED: 0
    - _SecondMaskAffectsDistortion: 0
    - _SecondMaskAffectsNoise01Negate: 0
    - _SecondMaskAffectsRamp: 0
    - _SecondMaskBoostsEmission: 0
    - _SecondMaskFractShrink: 1
    - _SecondMaskFractSwitch: 0
    - _SecondMaskNegate: 1
    - _SecondMaskScaleU: 1
    - _SecondMaskScaleV: 1
    - _SecondMaskVSMoveU: 0
    - _SecondMaskVSMoveV: 0
    - _SecondaryMaskEnabled: 0
    - _SecondaryMaskNegate: 1
    - _SecondaryMaskVSMoveU: 0
    - _SecondayMaskVSMoveV: 0
    - _SoftParticlesDistance: 0.2
    - __dirty: 0
    m_Colors:
    - _CustomColorMaskChannels: {r: 1, g: 0, b: 0, a: 0}
    - _CustomColorMaskChannels1: {r: 1, g: 0, b: 0, a: 0}
    - _FinalColor: {r: 0.1745283, g: 0.5370884, b: 1, a: 1}
    - _MainMaskChannelsMultiply: {r: 1, g: 0, b: 0, a: 0}
    - _Noise01ScrollSpeedUV: {r: 1, g: 1, b: 0, a: 0}
    - _RampColorTint: {r: 0.4117647, g: 0.81960785, b: 1, a: 1}
  m_BuildTextureStacks: []
