%YAML 1.1
%TAG !u! tag:unity3d.com,2011:
--- !u!21 &2100000
Material:
  serializedVersion: 8
  m_ObjectHideFlags: 0
  m_CorrespondingSourceObject: {fileID: 0}
  m_PrefabInstance: {fileID: 0}
  m_PrefabAsset: {fileID: 0}
  m_Name: HeartOfBattle_Flare_01
  m_Shader: {fileID: -6465566751694194690, guid: 28890434b7404a74095bc3cb05f55aed,
    type: 3}
  m_ValidKeywords:
  - _DISTORTIONENABLED_ON
  - _RAMPENABLED_ON
  m_InvalidKeywords:
  - _DISSOLVETEXTUREFLIP_ON
  - _DISTORTIONRADIAL_ON
  - _DISTORTIONUVORSPHERICAL_ON
  - _EMISSIONVERTEXSTREAMENABLED_ON
  m_LightmapFlags: 0
  m_EnableInstancingVariants: 0
  m_DoubleSidedGI: 0
  m_CustomRenderQueue: -1
  stringTagMap: {}
  disabledShaderPasses: []
  m_SavedProperties:
    serializedVersion: 3
    m_TexEnvs:
    - _BumpMap:
        m_Texture: {fileID: 0}
        m_Scale: {x: 1, y: 1}
        m_Offset: {x: 0, y: 0}
    - _CustomColorMask:
        m_Texture: {fileID: 0}
        m_Scale: {x: 1, y: 1}
        m_Offset: {x: 0, y: 0}
    - _DetailAlbedoMap:
        m_Texture: {fileID: 0}
        m_Scale: {x: 1, y: 1}
        m_Offset: {x: 0, y: 0}
    - _DetailMask:
        m_Texture: {fileID: 0}
        m_Scale: {x: 1, y: 1}
        m_Offset: {x: 0, y: 0}
    - _DetailNormalMap:
        m_Texture: {fileID: 0}
        m_Scale: {x: 1, y: 1}
        m_Offset: {x: 0, y: 0}
    - _DissolveMask:
        m_Texture: {fileID: 0}
        m_Scale: {x: 1, y: 1}
        m_Offset: {x: 0, y: 0}
    - _DissolveTexture:
        m_Texture: {fileID: 0}
        m_Scale: {x: 1, y: 1}
        m_Offset: {x: 0, y: 0}
    - _Distortion:
        m_Texture: {fileID: 2800000, guid: 67a416f2831a4cbcb606f345d4f2a996, type: 3}
        m_Scale: {x: 1, y: 1}
        m_Offset: {x: 0, y: 0}
    - _DistortionMask:
        m_Texture: {fileID: 0}
        m_Scale: {x: 1, y: 1}
        m_Offset: {x: 0, y: 0}
    - _EmissionMap:
        m_Texture: {fileID: 0}
        m_Scale: {x: 1, y: 1}
        m_Offset: {x: 0, y: 0}
    - _MainMask:
        m_Texture: {fileID: 2800000, guid: e6fef212ea594029b740fbed869b1575, type: 3}
        m_Scale: {x: 1, y: 1}
        m_Offset: {x: 0, y: 0}
    - _MainTex:
        m_Texture: {fileID: 0}
        m_Scale: {x: 1, y: 1}
        m_Offset: {x: 0, y: 0}
    - _MetallicGlossMap:
        m_Texture: {fileID: 0}
        m_Scale: {x: 1, y: 1}
        m_Offset: {x: 0, y: 0}
    - _Noise01:
        m_Texture: {fileID: 0}
        m_Scale: {x: 1, y: 1}
        m_Offset: {x: 0, y: 0}
    - _OcclusionMap:
        m_Texture: {fileID: 0}
        m_Scale: {x: 1, y: 1}
        m_Offset: {x: 0, y: 0}
    - _ParallaxMap:
        m_Texture: {fileID: 0}
        m_Scale: {x: 1, y: 1}
        m_Offset: {x: 0, y: 0}
    - _Ramp:
        m_Texture: {fileID: 2800000, guid: 6844a24f1b1b407e8deb3b0e4d3f41e5, type: 3}
        m_Scale: {x: 1, y: 1}
        m_Offset: {x: 0, y: 0}
    - _SecondMask:
        m_Texture: {fileID: 0}
        m_Scale: {x: 1, y: 1}
        m_Offset: {x: 0, y: 0}
    - _SecondMaskProfile:
        m_Texture: {fileID: 0}
        m_Scale: {x: 1, y: 1}
        m_Offset: {x: 0, y: 0}
    - _tex4coord:
        m_Texture: {fileID: 0}
        m_Scale: {x: 1, y: 1}
        m_Offset: {x: 0, y: 0}
    - _tex4coord2:
        m_Texture: {fileID: 0}
        m_Scale: {x: 1, y: 1}
        m_Offset: {x: 0, y: 0}
    - _tex4coord3:
        m_Texture: {fileID: 0}
        m_Scale: {x: 1, y: 1}
        m_Offset: {x: 0, y: 0}
    - _texcoord:
        m_Texture: {fileID: 0}
        m_Scale: {x: 1, y: 1}
        m_Offset: {x: 0, y: 0}
    - unity_Lightmaps:
        m_Texture: {fileID: 0}
        m_Scale: {x: 1, y: 1}
        m_Offset: {x: 0, y: 0}
    - unity_LightmapsInd:
        m_Texture: {fileID: 0}
        m_Scale: {x: 1, y: 1}
        m_Offset: {x: 0, y: 0}
    - unity_ShadowMasks:
        m_Texture: {fileID: 0}
        m_Scale: {x: 1, y: 1}
        m_Offset: {x: 0, y: 0}
    m_Ints: []
    m_Floats:
    - _BumpScale: 1
    - _CustomColorMaskAffectedByDynamics: 1
    - _CustomColorMaskSwitch: 0
    - _Cutoff: 0.5
    - _DISSOLVETEXTUREFLIP: 1
    - _DISSOLVETEXTUREFLIPSwitch: 1
    - _DISSOLVETEXTURERADIAL: 0
    - _DISSOLVETEXTURERADIALScaleU: 1
    - _DISSOLVETEXTURERADIALScaleV: 1
    - _DISTORTIONENABLED: 1
    - _DISTORTIONRADIAL: 1
    - _DISTORTIONRADIALOldMethodSwitch: 0
    - _DISTORTIONRADIALScaleU: 0.25
    - _DISTORTIONRADIALScaleV: 1
    - _DISTORTIONUVORSPHERICAL: 1
    - _DetailNormalMapScale: 1
    - _DissolveExp: 6.47
    - _DissolveExpReversed: 2
    - _DissolveGlowAffectsRamp: 1
    - _DissolveGlowAmount: 0
    - _DissolveGlowOffset: 0.125
    - _DissolveGlowPower: 1
    - _DissolveMaskRemapMin1: -1
    - _DissolveMaskScale: 1
    - _DissolveMaskSteepness: 0
    - _DissolveTextureRandomMax: 1.1
    - _DissolveTextureRandomMin: 0.9
    - _DissolveTextureScaleU: 1
    - _DissolveTextureScaleV: 1
    - _DistortionExp: 1
    - _DistortionMaskNegate: 0
    - _DistortionMaskVSMoveU: 0
    - _DistortionMaskVSMoveV: 0
    - _DistortionPower: -0.33
    - _DistortionRemapMax: 1
    - _DistortionRemapMin: 0
    - _DistortionScaleU: 1
    - _DistortionScaleV: 1
    - _DistortionScrollSpeedU: 0.35
    - _DistortionScrollSpeedV: 0
    - _DistortionSpheticalStyle: 1
    - _DistortionU: 1
    - _DistortionV: 1
    - _DstBlend: 0
    - _EMISSIONVERTEXSTREAMENABLED: 1
    - _FinalOpacityExp: 1
    - _FinalOpacityPower: 1
    - _FinalPower: 20
    - _GlossMapScale: 1
    - _Glossiness: 0.5
    - _GlossyReflections: 1
    - _MainMaskExp: 2
    - _MainMaskScaleU: 1
    - _MainMaskScaleV: 1
    - _MainMaskScrollSpeedU: 0
    - _MainMaskScrollSpeedV: 0
    - _Metallic: 0
    - _Mode: 0
    - _NOISE01RADIAL: 0
    - _NOISE01RADIALScaleU: 1
    - _NOISE01RADIALScaleV: 1
    - _Noise01Exp: 1
    - _Noise01Negate: 0
    - _Noise01RandomMax: 1.1
    - _Noise01RandomMin: 0.9
    - _Noise01ScaleU: 1
    - _Noise01ScaleV: 1
    - _Noise01ScrollSpeedU: 0
    - _Noise01ScrollSpeedV: 0
    - _OcclusionStrength: 1
    - _Parallax: 0.02
    - _QueueControl: 0
    - _QueueOffset: 0
    - _RAMPAFFECTEDBYVERTEXCOLOR: 0
    - _RAMPENABLED: 1
    - _RampAffectedByDynamics: 1
    - _RampIgnoreVertexColor: 0
    - _RampOffsetExp: 1
    - _RampOffsetMultiply: 1
    - _SOFTPARTICLESENABLED: 0
    - _SecondMaskAffectsDistortion: 0
    - _SecondMaskAffectsNoise01Negate: 0
    - _SecondMaskAffectsRamp: 0
    - _SecondMaskBoostsEmission: 0
    - _SecondMaskFractShrink: 1
    - _SecondMaskFractSwitch: 0
    - _SecondMaskNegate: 1
    - _SecondMaskScaleU: 1
    - _SecondMaskScaleV: 1
    - _SecondMaskVSMoveU: 0
    - _SecondMaskVSMoveV: 0
    - _SmoothnessTextureChannel: 0
    - _SoftParticlesDistance: 0.2
    - _SpecularHighlights: 1
    - _SrcBlend: 1
    - _UVSec: 0
    - _ZWrite: 1
    - __dirty: 0
    - _tetetetetes: 1
    m_Colors:
    - _Color: {r: 1, g: 1, b: 1, a: 1}
    - _CustomColorMaskChannels: {r: 1, g: 0, b: 0, a: 0}
    - _EmissionColor: {r: 0, g: 0, b: 0, a: 1}
    - _FinalColor: {r: 1, g: 0, b: 0, a: 1}
    - _MainMaskChannelsMultiply: {r: 1, g: 0, b: 0, a: 0}
    - _RampColorTint: {r: 1, g: 0.6179246, b: 0.6179246, a: 1}
  m_BuildTextureStacks: []
--- !u!114 &511048664810950994
MonoBehaviour:
  m_ObjectHideFlags: 11
  m_CorrespondingSourceObject: {fileID: 0}
  m_PrefabInstance: {fileID: 0}
  m_PrefabAsset: {fileID: 0}
  m_GameObject: {fileID: 0}
  m_Enabled: 1
  m_EditorHideFlags: 0
  m_Script: {fileID: 11500000, guid: d0353a89b1f911e48b9e16bdc9f2e058, type: 3}
  m_Name: 
  m_EditorClassIdentifier: 
  version: 5
