%YAML 1.1
%TAG !u! tag:unity3d.com,2011:
--- !u!21 &2100000
Material:
  serializedVersion: 8
  m_ObjectHideFlags: 0
  m_CorrespondingSourceObject: {fileID: 0}
  m_PrefabInstance: {fileID: 0}
  m_PrefabAsset: {fileID: 0}
  m_Name: MoltenPillar_Ground_Impact_01
  m_Shader: {fileID: -6465566751694194690, guid: 5a3e65935a267ad45a19b27fe3bf5060,
    type: 3}
  m_ValidKeywords:
  - _CRACKSENABLED_ON
  - _LAVANOISEENABLED_ON
  - _SURFACENOISEENABLED_ON
  m_InvalidKeywords:
  - _DISSOLVETEXTUREFLIP1_ON
  - _DISSOLVETEXTUREFLIP_ON
  - _KEYWORD0_ON
  - _SECONDMASKPROFILEENABLED_ON
  - _TEST_ON
  - _VALLEYSEMISSIONBOOSTENABLED_ON
  m_LightmapFlags: 0
  m_EnableInstancingVariants: 0
  m_DoubleSidedGI: 0
  m_CustomRenderQueue: 3000
  stringTagMap: {}
  disabledShaderPasses: []
  m_SavedProperties:
    serializedVersion: 3
    m_TexEnvs:
    - _AB:
        m_Texture: {fileID: 2800000, guid: 13178609ad98afa49a18b80ac2468c14, type: 3}
        m_Scale: {x: 1, y: 1}
        m_Offset: {x: 0, y: 0}
    - _Cracks:
        m_Texture: {fileID: 2800000, guid: c5b198b206dd454b9ad4be197a3f119f, type: 3}
        m_Scale: {x: 1, y: 1}
        m_Offset: {x: 0, y: 0}
    - _DissolveMask:
        m_Texture: {fileID: 0}
        m_Scale: {x: 1, y: 1}
        m_Offset: {x: 0, y: 0}
    - _DissolveMask1:
        m_Texture: {fileID: 0}
        m_Scale: {x: 1, y: 1}
        m_Offset: {x: 0, y: 0}
    - _DissolveTexture:
        m_Texture: {fileID: 2800000, guid: 7946756a0d414f759c470943148ed64a, type: 3}
        m_Scale: {x: 1, y: 1}
        m_Offset: {x: 0, y: 0}
    - _DissolveTexture1:
        m_Texture: {fileID: 2800000, guid: 7946756a0d414f759c470943148ed64a, type: 3}
        m_Scale: {x: 1, y: 1}
        m_Offset: {x: 0, y: 0}
    - _Distortion:
        m_Texture: {fileID: 2800000, guid: 983e0460efa54ca8a58cc0586b8d0998, type: 3}
        m_Scale: {x: 1, y: 1}
        m_Offset: {x: 0, y: 0}
    - _G4:
        m_Texture: {fileID: 2800000, guid: 3d2a840f315fa874294909f1e7082d43, type: 3}
        m_Scale: {x: 1, y: 1}
        m_Offset: {x: 0, y: 0}
    - _LavaAppearMask:
        m_Texture: {fileID: 2800000, guid: cace9bf0ffd74841aaddd90b684aa40b, type: 3}
        m_Scale: {x: 1, y: 1}
        m_Offset: {x: 0, y: 0}
    - _LavaFlow:
        m_Texture: {fileID: 2800000, guid: 927df20dbf414676b340479687a2d4a8, type: 3}
        m_Scale: {x: 1, y: 1}
        m_Offset: {x: 0, y: 0}
    - _LavaNoise:
        m_Texture: {fileID: 2800000, guid: 14db6dfb44924e5b81e422950a209c07, type: 3}
        m_Scale: {x: 1, y: 1}
        m_Offset: {x: 0, y: 0}
    - _LavaNoiseDistortion:
        m_Texture: {fileID: 0}
        m_Scale: {x: 1, y: 1}
        m_Offset: {x: 0, y: 0}
    - _OpacityMask:
        m_Texture: {fileID: 2800000, guid: 4d37a61d2a5d4c778ca973d88ed0cd28, type: 3}
        m_Scale: {x: 1, y: 1}
        m_Offset: {x: 0, y: 0}
    - _OpacityMaskProfile:
        m_Texture: {fileID: 0}
        m_Scale: {x: 1, y: 1}
        m_Offset: {x: 0, y: 0}
    - _PackedTex:
        m_Texture: {fileID: 2800000, guid: 29f14b24549346fc861e677572bdddb5, type: 3}
        m_Scale: {x: 1, y: 1}
        m_Offset: {x: 0, y: 0}
    - _Ramp:
        m_Texture: {fileID: 2800000, guid: 6844a24f1b1b407e8deb3b0e4d3f41e5, type: 3}
        m_Scale: {x: 1, y: 1}
        m_Offset: {x: 0, y: 0}
    - _RampEdge:
        m_Texture: {fileID: 2800000, guid: 292d8d6caaae4617a95264dbe2139886, type: 3}
        m_Scale: {x: 1, y: 1}
        m_Offset: {x: 0, y: 0}
    - _SecondMask:
        m_Texture: {fileID: 2800000, guid: cace9bf0ffd74841aaddd90b684aa40b, type: 3}
        m_Scale: {x: 1, y: 1}
        m_Offset: {x: 0, y: 0}
    - _SecondMaskProfile:
        m_Texture: {fileID: 2800000, guid: 5cc5c655573d45119f10fe30cbd2442a, type: 3}
        m_Scale: {x: 1, y: 1}
        m_Offset: {x: 0, y: 0}
    - _SurfaceNoise:
        m_Texture: {fileID: 2800000, guid: 57535fb8629b4c6eb8530d7d3664d59f, type: 3}
        m_Scale: {x: 1, y: 1}
        m_Offset: {x: 0, y: 0}
    - _TEST:
        m_Texture: {fileID: 2800000, guid: 18c1cf1935d2d234492ef01f9262b6a3, type: 3}
        m_Scale: {x: 1, y: 1}
        m_Offset: {x: 0, y: 0}
    - _TEST2:
        m_Texture: {fileID: 2800000, guid: 0d2d2607fc8498c44bf8ebfb0bbd2529, type: 3}
        m_Scale: {x: 1, y: 1}
        m_Offset: {x: 0, y: 0}
    - _TEST3:
        m_Texture: {fileID: 2800000, guid: 84b0277f4586d454a90b961b456eb05e, type: 3}
        m_Scale: {x: 1, y: 1}
        m_Offset: {x: 0, y: 0}
    - _Texture0:
        m_Texture: {fileID: 2800000, guid: 80869f8c62674f99b40beb10656a82dc, type: 3}
        m_Scale: {x: 1, y: 1}
        m_Offset: {x: 0, y: 0}
    - _TextureSample0:
        m_Texture: {fileID: 2800000, guid: 59913c7576dc4db597368fdb423f7557, type: 3}
        m_Scale: {x: 2, y: 2}
        m_Offset: {x: 0, y: 0}
    - _TextureSample1:
        m_Texture: {fileID: 2800000, guid: 57535fb8629b4c6eb8530d7d3664d59f, type: 3}
        m_Scale: {x: 1, y: 1}
        m_Offset: {x: 0, y: 0}
    - _TextureSample2:
        m_Texture: {fileID: 2800000, guid: 203bdeda66a54eda8ab6b4661d64dfbb, type: 3}
        m_Scale: {x: 1, y: 1}
        m_Offset: {x: 0, y: 0}
    - _TextureSample3:
        m_Texture: {fileID: 2800000, guid: 983e0460efa54ca8a58cc0586b8d0998, type: 3}
        m_Scale: {x: 1, y: 1}
        m_Offset: {x: 0, y: 0}
    - _TextureSample4:
        m_Texture: {fileID: 2800000, guid: 38e0972986ed35541a97ec9b8b227df1, type: 3}
        m_Scale: {x: 1, y: 1}
        m_Offset: {x: 0, y: 0}
    - _tex4coord:
        m_Texture: {fileID: 0}
        m_Scale: {x: 1, y: 1}
        m_Offset: {x: 0, y: 0}
    - _tex4coord2:
        m_Texture: {fileID: 0}
        m_Scale: {x: 1, y: 1}
        m_Offset: {x: 0, y: 0}
    - _texcoord:
        m_Texture: {fileID: 0}
        m_Scale: {x: 1, y: 1}
        m_Offset: {x: 0, y: 0}
    - unity_Lightmaps:
        m_Texture: {fileID: 0}
        m_Scale: {x: 1, y: 1}
        m_Offset: {x: 0, y: 0}
    - unity_LightmapsInd:
        m_Texture: {fileID: 0}
        m_Scale: {x: 1, y: 1}
        m_Offset: {x: 0, y: 0}
    - unity_ShadowMasks:
        m_Texture: {fileID: 0}
        m_Scale: {x: 1, y: 1}
        m_Offset: {x: 0, y: 0}
    m_Ints: []
    m_Floats:
    - _AMe: 0
    - _AlbedoAffectedByHeight: 1
    - _AlbedoMapAffectedByHeight: 1
    - _AlbedoMapEnabled: 0
    - _AlbedoMapExp: 0.8
    - _AlbedoNoise: 10
    - _CRACKSENABLED: 1
    - _CracksNegate: 0
    - _CracksNegateSlope: 0
    - _CracksNegateSoft: 0
    - _CracksScaleU: 1
    - _CracksScaleV: 1
    - _DISSOLVETEXTUREFLIP: 1
    - _DISSOLVETEXTUREFLIP1: 1
    - _DISSOLVETEXTURERADIAL: 0
    - _DISSOLVETEXTURERADIAL1: 0
    - _DISSOLVETEXTURERADIALScaleU: 0.1
    - _DISSOLVETEXTURERADIALScaleU1: 0.1
    - _DISSOLVETEXTURERADIALScaleV: 1
    - _DISSOLVETEXTURERADIALScaleV1: 1
    - _DissolveExp: 4
    - _DissolveExp1: 4
    - _DissolveExpReversed: 4
    - _DissolveExpReversed1: 4
    - _DissolveMaskScale: 4
    - _DissolveMaskScale1: 1
    - _DissolveTextureRandomMax: 1.1
    - _DissolveTextureRandomMax1: 1.1
    - _DissolveTextureRandomMin: 0.9
    - _DissolveTextureRandomMin1: 0.9
    - _DissolveTextureScaleU: 0.66
    - _DissolveTextureScaleU1: 0.5
    - _DissolveTextureScaleV: 0.66
    - _DissolveTextureScaleV1: 0.5
    - _DissolveVSEmilationTEST: -1
    - _DistortionAmount: 0.33
    - _FinalOpacityExp: 4
    - _FinalOpacityPower: 1
    - _FinalPower: 2
    - _Float1: 0.5
    - _Float10: 0.98
    - _Float1556: 8
    - _Float156: 0.3
    - _Float2: 0
    - _Float5: 0
    - _Float6: 0.12
    - _Float9: 100
    - _HeightBoost: 1
    - _HeightMapNegate: 0
    - _HeightSlopeControl: 0
    - _Keyword0: 1
    - _LAVANOISEENABLED: 1
    - _LavaAppearMaskExp: 2
    - _LavaAppearMaskScaleU: 1
    - _LavaAppearMaskScaleV: 1
    - _LavaAppearProgress: 0.15
    - _LavaDistortionSlopeNegate: 0
    - _LavaDistortionSlopeStyle: 0.5
    - _LavaFlowNoiseAmount: 1
    - _LavaNoiseAmount: 0.125
    - _LavaNoiseDistortionAmount: 0.2
    - _LavaNoiseDistortionScaleU: 1
    - _LavaNoiseDistortionScaleV: 1
    - _LavaNoiseDistortionScrollSpeed: 0.02
    - _LavaNoiseNegate: 0.5
    - _LavaNoiseScaleU: 2
    - _LavaNoiseScaleV: 2
    - _LavaNoiseScrollSpeed: 0.125
    - _LavaOnlyInValleys: 1
    - _LavaOnlyInValleysExp: 1
    - _LavaOnlyInValleysNegate: 0
    - _NoiseAmount: 0
    - _NoiseNegate: 1
    - _OpacityMaskExp: 6
    - _OpacityMaskNegate: 0
    - _OpacityMaskPower: 6
    - _OpacityMaskProfileEnabled: 0
    - _OpacityMaskScaler: 1
    - _OpacityMaskVSEmilationTEST: -0.103
    - _Progress: -0.35
    - _QueueControl: 1
    - _QueueOffset: 0
    - _RampOffsetExp: 0.5
    - _RampOffsetMultiply: 1
    - _RampSmoothstepMax: 0.5
    - _RampSmoothstepMin: 0.25
    - _SS1: 0.25
    - _SS2: 0.5
    - _SURFACENOISEENABLED: 1
    - _SecondMaskEdgeGlow: 1
    - _SecondMaskExp: 1
    - _SecondMaskProfileEnabled: 1
    - _SecondMaskScaleU: 1
    - _SecondMaskScaleV: 1
    - _SecondMaskVSEmilationTEST: 1
    - _SlopeControl: 0.25
    - _SurfaceNoiseAdd: 1
    - _SurfaceNoiseExp: 1
    - _SurfaceNoiseScaleU: 1
    - _SurfaceNoiseScaleV: 1
    - _Test: 1
    - _Tiling: 2
    - _VALLEYSEMISSIONBOOSTENABLED: 1
    - _VSLavaAppearProgress: 0.31
    - _VSvsGLOBALControlSwitch: 0
    - _ValleysEmissionBoostAmount: 100
    - _ValleysEmissionBoostBloom: 1
    - __dirty: 0
    - _dgdg: 4
    m_Colors:
    - _AlbedoColor: {r: 0.8207547, g: 0.73042005, b: 0.6852527, a: 1}
    - _AlbedoColor2: {r: 0, g: 0, b: 0, a: 1}
    - _Color0: {r: 1, g: 0, b: 0.08737848, a: 0}
    - _RampColorTint: {r: 1, g: 0.38039201, b: 0.38039201, a: 1}
  m_BuildTextureStacks: []
--- !u!114 &8215100669152530500
MonoBehaviour:
  m_ObjectHideFlags: 11
  m_CorrespondingSourceObject: {fileID: 0}
  m_PrefabInstance: {fileID: 0}
  m_PrefabAsset: {fileID: 0}
  m_GameObject: {fileID: 0}
  m_Enabled: 1
  m_EditorHideFlags: 0
  m_Script: {fileID: 11500000, guid: d0353a89b1f911e48b9e16bdc9f2e058, type: 3}
  m_Name: 
  m_EditorClassIdentifier: 
  version: 5
