%YAML 1.1
%TAG !u! tag:unity3d.com,2011:
--- !u!114 &11400000
MonoBehaviour:
  m_ObjectHideFlags: 0
  m_CorrespondingSourceObject: {fileID: 0}
  m_PrefabInstance: {fileID: 0}
  m_PrefabAsset: {fileID: 0}
  m_GameObject: {fileID: 0}
  m_Enabled: 1
  m_EditorHideFlags: 0
  m_Script: {fileID: 11500000, guid: 8799e2e784b401c48847ec36ca81080f, type: 3}
  m_Name: SignWitch_GeminiA_UnitData
  m_EditorClassIdentifier: 
  monsterDataScriptObj: {fileID: 11400000, guid: d5d87b35589fec04c82c1726c6f8154c,
    type: 2}
  m_Model: {fileID: 5058141407494032955, guid: 6491975d815e5d44e9c2e1cb674cef9c, type: 3}
  m_UnitClass: GridUnit
  m_IdleAnimation: {fileID: 3456691531679900565, guid: 131c30c5e38772847b589ccf2ddcc106,
    type: 3}
  m_MovementAnimation: {fileID: 3153675706247836664, guid: 131c30c5e38772847b589ccf2ddcc106,
    type: 3}
  m_DamagedAnimation: {fileID: 4811175759784435789, guid: 131c30c5e38772847b589ccf2ddcc106,
    type: 3}
  m_HealAnimation: {fileID: 3456691531679900565, guid: 131c30c5e38772847b589ccf2ddcc106,
    type: 3}
  m_DeadAnimation: {fileID: -1470821402327197895, guid: 131c30c5e38772847b589ccf2ddcc106,
    type: 3}
  executeBlowAwayDelay: 0.5
  m_BlowAwayAnimation: {fileID: 4643246486259338947, guid: 131c30c5e38772847b589ccf2ddcc106,
    type: 3}
  m_TravelSound: {fileID: 8300000, guid: 3d797c78ff6150d40b72cc2fe2708fdb, type: 3}
  m_DamagedSound: {fileID: 8300000, guid: bb0b4a8226597d94d817c97141bffa19, type: 3}
  m_HealSound: {fileID: 8300000, guid: cb3c61d10d8afb446ac224c24b4dfe8a, type: 3}
  m_DeathSound: {fileID: 8300000, guid: 260f48b8a96e77f468c6fffdfc46b124, type: 3}
  m_bLookAtTargets: 1
  m_bIsFlying: 0
  m_HeightOffset: 0
  m_MovementShape: {fileID: 11400000, guid: 49430a039d5e81849ba23426634f8f3a, type: 2}
  m_Abilities:
  - unitAbility: {fileID: 11400000, guid: caa0ee01aa5df404e9d9fbbc4dae6282, type: 2}
    AssociatedAnimation: {fileID: -5085319969010280728, guid: 131c30c5e38772847b589ccf2ddcc106,
      type: 3}
    ExecuteAfterTime: 1.2
    AudioOnStart: {fileID: 0}
    AudioOnExecute: {fileID: 0}
  - unitAbility: {fileID: 11400000, guid: 330096da0e8f3b04e85df95df62a52aa, type: 2}
    AssociatedAnimation: {fileID: -9043183837149281513, guid: 131c30c5e38772847b589ccf2ddcc106,
      type: 3}
    ExecuteAfterTime: 2
    AudioOnStart: {fileID: 0}
    AudioOnExecute: {fileID: 0}
  - unitAbility: {fileID: 11400000, guid: 185a040605d9d9e449493ef2ac427441, type: 2}
    AssociatedAnimation: {fileID: 1065035426994139689, guid: 131c30c5e38772847b589ccf2ddcc106,
      type: 3}
    ExecuteAfterTime: 1.5
    AudioOnStart: {fileID: 0}
    AudioOnExecute: {fileID: 0}
  - unitAbility: {fileID: 11400000, guid: bf06164f483c56c4e8e09fd7198a2b85, type: 2}
    AssociatedAnimation: {fileID: 2043552574234176157, guid: 131c30c5e38772847b589ccf2ddcc106,
      type: 3}
    ExecuteAfterTime: 3
    AudioOnStart: {fileID: 0}
    AudioOnExecute: {fileID: 0}
  - unitAbility: {fileID: 11400000, guid: b86667782fac72f4a823fbee29ccfd31, type: 2}
    AssociatedAnimation: {fileID: 2043552574234176157, guid: 131c30c5e38772847b589ccf2ddcc106,
      type: 3}
    ExecuteAfterTime: 2
    AudioOnStart: {fileID: 0}
    AudioOnExecute: {fileID: 0}
  - unitAbility: {fileID: 11400000, guid: c626e30b117a73c44b0972b3090e3200, type: 2}
    AssociatedAnimation: {fileID: 1065035426994139689, guid: 131c30c5e38772847b589ccf2ddcc106,
      type: 3}
    ExecuteAfterTime: 2.5
    AudioOnStart: {fileID: 0}
    AudioOnExecute: {fileID: 0}
  m_SpecAbilities:
  - unitAbility: {fileID: 11400000, guid: 0a390583ac88dc94b801bbd505be0964, type: 2}
    AssociatedAnimation: {fileID: 4643246486259338947, guid: 131c30c5e38772847b589ccf2ddcc106,
      type: 3}
    ExecuteAfterTime: 0.5
    AudioOnStart: {fileID: 0}
    AudioOnExecute: {fileID: 0}
  m_SpawnOnHeal:
  - {fileID: 114245873700466434, guid: aa325c3ee54ace348b5512599a896715, type: 3}
