%YAML 1.1
%TAG !u! tag:unity3d.com,2011:
--- !u!114 &11400000
MonoBehaviour:
  m_ObjectHideFlags: 0
  m_CorrespondingSourceObject: {fileID: 0}
  m_PrefabInstance: {fileID: 0}
  m_PrefabAsset: {fileID: 0}
  m_GameObject: {fileID: 0}
  m_Enabled: 1
  m_EditorHideFlags: 0
  m_Script: {fileID: 11500000, guid: 2c2a2298ca1610343845f1d1273f7539, type: 3}
  m_Name: Mountain
  m_EditorClassIdentifier: 
  enviromentIcon: {fileID: 21300000, guid: 053b1dd05f7159e4c9ba951d95e97213, type: 3}
  enviromentColor: {r: 0.62, g: 0.3306667, b: 0, a: 1}
  enviroment: 6
