%YAML 1.1
%TAG !u! tag:unity3d.com,2011:
--- !u!114 &11400000
MonoBehaviour:
  m_ObjectHideFlags: 0
  m_CorrespondingSourceObject: {fileID: 0}
  m_PrefabInstance: {fileID: 0}
  m_PrefabAsset: {fileID: 0}
  m_GameObject: {fileID: 0}
  m_Enabled: 1
  m_EditorHideFlags: 0
  m_Script: {fileID: 11500000, guid: 92129e6bc9018ce468039aae7d4df5b3, type: 3}
  m_Name: Golem_Original_Skill_6_Unit_Ablility
  m_EditorClassIdentifier: 
  m_AbilityName: Slap
  m_SpriteIcon: {fileID: 21300000, guid: 0e1d22a6342313442bfe5a157205db94, type: 3}
  m_Radius: 1
  m_ActionPointCost: 0
  m_moveToTarget: 0
  m_bAllowBlocked: 0
  m_EffectedTeam: 2
  m_EffectedType: 0
  m_ExcuteSeftInSelect: 0
  m_BuffSeft: 1
  m_DeBuffSeft: 0
  m_AbilityShape: {fileID: 11400000, guid: e5878233c2bc97d43a5cfe8964ccd263, type: 2}
  m_EffectShape: {fileID: 0}
  m_EffectRadius: 0
  m_SpawnOnCaster: []
  m_SpawnOnTarget:
  - {fileID: -4418811880377632905, guid: 8d6d44e8d5c158944b8ed2fff04dd0af, type: 3}
  m_Params:
  - {fileID: 11400000, guid: 677560ffbfe5fed448b755f92b93ef92, type: 2}
  m_Ailments: []
  skillID: Golem_Original_Skill_6
