%YAML 1.1
%TAG !u! tag:unity3d.com,2011:
--- !u!21 &2100000
Material:
  serializedVersion: 8
  m_ObjectHideFlags: 0
  m_CorrespondingSourceObject: {fileID: 0}
  m_PrefabInstance: {fileID: 0}
  m_PrefabAsset: {fileID: 0}
  m_Name: Background_Cards
  m_Shader: {fileID: 4800000, guid: 7633a2fd8a3bed44791c9e952ff86e5d, type: 3}
  m_ValidKeywords:
  - _MK_ARTISTIC_PROJECTION_SCREEN_SPACE
  - _MK_DETAIL_BLEND_MIX
  - _MK_ENVIRONMENT_REFLECTIONS_AMBIENT
  - _MK_FRESNEL_HIGHLIGHTS
  - _MK_LIGHT_CEL
  - _MK_OUTLINE_HULL_CLIP
  - _MK_RECEIVE_SHADOWS
  - _MK_WRAPPED_DIFFUSE
  m_InvalidKeywords:
  - _FRESNELHIGHLIGHTS_ON
  - _RECEIVESHADOWS_ON
  - _WRAPPEDLIGHTING_ON
  m_LightmapFlags: 6
  m_EnableInstancingVariants: 0
  m_DoubleSidedGI: 0
  m_CustomRenderQueue: 2000
  stringTagMap:
    IGNOREPROJECTOR: False
    RenderType: Opaque
  disabledShaderPasses: []
  m_SavedProperties:
    serializedVersion: 3
    m_TexEnvs:
    - Albedo:
        m_Texture: {fileID: 0}
        m_Scale: {x: 1, y: 1}
        m_Offset: {x: 0, y: 0}
    - BurntTileNormals:
        m_Texture: {fileID: 0}
        m_Scale: {x: 1, y: 1}
        m_Offset: {x: 0, y: 0}
    - Masks:
        m_Texture: {fileID: 0}
        m_Scale: {x: 1, y: 1}
        m_Offset: {x: 0, y: 0}
    - Normals:
        m_Texture: {fileID: 0}
        m_Scale: {x: 1, y: 1}
        m_Offset: {x: 0, y: 0}
    - _Albedo:
        m_Texture: {fileID: 0}
        m_Scale: {x: 1, y: 1}
        m_Offset: {x: 0, y: 0}
    - _AlbedoMap:
        m_Texture: {fileID: 0}
        m_Scale: {x: 1, y: 1}
        m_Offset: {x: 0, y: 0}
    - _BumpMap:
        m_Texture: {fileID: 0}
        m_Scale: {x: 1, y: 1}
        m_Offset: {x: 0, y: 0}
    - _Checkers:
        m_Texture: {fileID: 0}
        m_Scale: {x: 1, y: 1}
        m_Offset: {x: 0, y: 0}
    - _Depth:
        m_Texture: {fileID: 0}
        m_Scale: {x: 1, y: 1}
        m_Offset: {x: 0, y: 0}
    - _DetailAlbedoMap:
        m_Texture: {fileID: 0}
        m_Scale: {x: 1, y: 1}
        m_Offset: {x: 0, y: 0}
    - _DetailMap:
        m_Texture: {fileID: 0}
        m_Scale: {x: 1, y: 1}
        m_Offset: {x: 0, y: 0}
    - _DetailMask:
        m_Texture: {fileID: 0}
        m_Scale: {x: 1, y: 1}
        m_Offset: {x: 0, y: 0}
    - _DetailNormalMap:
        m_Texture: {fileID: 0}
        m_Scale: {x: 1, y: 1}
        m_Offset: {x: 0, y: 0}
    - _Diffuse:
        m_Texture: {fileID: 2800000, guid: e9c4642eaa083a54ab91406d8449e6ac, type: 3}
        m_Scale: {x: 1, y: 1}
        m_Offset: {x: 0, y: 0}
    - _DiffuseRamp:
        m_Texture: {fileID: 0}
        m_Scale: {x: 1, y: 1}
        m_Offset: {x: 0, y: 0}
    - _DissolveBorderRamp:
        m_Texture: {fileID: 0}
        m_Scale: {x: 1, y: 1}
        m_Offset: {x: 0, y: 0}
    - _DissolveMap:
        m_Texture: {fileID: 0}
        m_Scale: {x: 1, y: 1}
        m_Offset: {x: 0, y: 0}
    - _DrawnMap:
        m_Texture: {fileID: 0}
        m_Scale: {x: 1, y: 1}
        m_Offset: {x: 0, y: 0}
    - _EmissionMap:
        m_Texture: {fileID: 0}
        m_Scale: {x: 1, y: 1}
        m_Offset: {x: 0, y: 0}
    - _GoochBrightMap:
        m_Texture: {fileID: 0}
        m_Scale: {x: 1, y: 1}
        m_Offset: {x: 0, y: 0}
    - _GoochDarkMap:
        m_Texture: {fileID: 0}
        m_Scale: {x: 1, y: 1}
        m_Offset: {x: 0, y: 0}
    - _GoochRamp:
        m_Texture: {fileID: 0}
        m_Scale: {x: 1, y: 1}
        m_Offset: {x: 0, y: 0}
    - _HatchingBrightMap:
        m_Texture: {fileID: 0}
        m_Scale: {x: 1, y: 1}
        m_Offset: {x: 0, y: 0}
    - _HatchingDarkMap:
        m_Texture: {fileID: 0}
        m_Scale: {x: 1, y: 1}
        m_Offset: {x: 0, y: 0}
    - _HazeMask:
        m_Texture: {fileID: 0}
        m_Scale: {x: 1, y: 1}
        m_Offset: {x: 0, y: 0}
    - _HeightMap:
        m_Texture: {fileID: 0}
        m_Scale: {x: 1, y: 1}
        m_Offset: {x: 0, y: 0}
    - _IridescenceRamp:
        m_Texture: {fileID: 0}
        m_Scale: {x: 1, y: 1}
        m_Offset: {x: 0, y: 0}
    - _LightTransmissionRamp:
        m_Texture: {fileID: 0}
        m_Scale: {x: 1, y: 1}
        m_Offset: {x: 0, y: 0}
    - _MainSample:
        m_Texture: {fileID: 0}
        m_Scale: {x: 1, y: 1}
        m_Offset: {x: 0, y: 0}
    - _MainTex:
        m_Texture: {fileID: 0}
        m_Scale: {x: 1, y: 1}
        m_Offset: {x: 0, y: 0}
    - _Metallic:
        m_Texture: {fileID: 0}
        m_Scale: {x: 1, y: 1}
        m_Offset: {x: 0, y: 0}
    - _MetallicGlossMap:
        m_Texture: {fileID: 0}
        m_Scale: {x: 1, y: 1}
        m_Offset: {x: 0, y: 0}
    - _MetallicMap:
        m_Texture: {fileID: 0}
        m_Scale: {x: 1, y: 1}
        m_Offset: {x: 0, y: 0}
    - _Normal:
        m_Texture: {fileID: 0}
        m_Scale: {x: 1, y: 1}
        m_Offset: {x: 0, y: 0}
    - _NormalMap:
        m_Texture: {fileID: 2800000, guid: d3a780a450cf8584793c374ad13bcaa4, type: 3}
        m_Scale: {x: 1, y: 1}
        m_Offset: {x: 0, y: 0}
    - _Normals:
        m_Texture: {fileID: 0}
        m_Scale: {x: 1, y: 1}
        m_Offset: {x: 0, y: 0}
    - _Occlusion:
        m_Texture: {fileID: 0}
        m_Scale: {x: 1, y: 1}
        m_Offset: {x: 0, y: 0}
    - _OcclusionMap:
        m_Texture: {fileID: 0}
        m_Scale: {x: 1, y: 1}
        m_Offset: {x: 0, y: 0}
    - _OutlineMap:
        m_Texture: {fileID: 0}
        m_Scale: {x: 1, y: 1}
        m_Offset: {x: 0, y: 0}
    - _ParallaxMap:
        m_Texture: {fileID: 0}
        m_Scale: {x: 1, y: 1}
        m_Offset: {x: 0, y: 0}
    - _R_AO_G_Edges:
        m_Texture: {fileID: 2800000, guid: b3d940e75e1f5d24684cd93a2758e1bf, type: 3}
        m_Scale: {x: 1, y: 1}
        m_Offset: {x: 0, y: 0}
    - _RimRamp:
        m_Texture: {fileID: 0}
        m_Scale: {x: 1, y: 1}
        m_Offset: {x: 0, y: 0}
    - _RoughnessMap:
        m_Texture: {fileID: 0}
        m_Scale: {x: 1, y: 1}
        m_Offset: {x: 0, y: 0}
    - _SketchMap:
        m_Texture: {fileID: 0}
        m_Scale: {x: 1, y: 1}
        m_Offset: {x: 0, y: 0}
    - _SpecularMap:
        m_Texture: {fileID: 0}
        m_Scale: {x: 1, y: 1}
        m_Offset: {x: 0, y: 0}
    - _SpecularRamp:
        m_Texture: {fileID: 0}
        m_Scale: {x: 1, y: 1}
        m_Offset: {x: 0, y: 0}
    - _Texture:
        m_Texture: {fileID: 2800000, guid: 5c4675b8d1dac0a4d88f6171f38efeeb, type: 3}
        m_Scale: {x: 1, y: 1}
        m_Offset: {x: 0, y: 0}
    - _TextureSample0:
        m_Texture: {fileID: 0}
        m_Scale: {x: 1, y: 1}
        m_Offset: {x: 0, y: 0}
    - _ThicknessMap:
        m_Texture: {fileID: 0}
        m_Scale: {x: 1, y: 1}
        m_Offset: {x: 0, y: 0}
    - _ThresholdMap:
        m_Texture: {fileID: 0}
        m_Scale: {x: 1, y: 1}
        m_Offset: {x: 0, y: 0}
    - _ToonRamp:
        m_Texture: {fileID: 2800000, guid: 52e66a9243cdfed44b5e906f5910d35b, type: 3}
        m_Scale: {x: 1, y: 1}
        m_Offset: {x: 0, y: 0}
    - _TopAlbedo:
        m_Texture: {fileID: 0}
        m_Scale: {x: 1, y: 1}
        m_Offset: {x: 0, y: 0}
    - _TopNormal:
        m_Texture: {fileID: 0}
        m_Scale: {x: 1, y: 1}
        m_Offset: {x: 0, y: 0}
    - _TopTexture0:
        m_Texture: {fileID: 2800000, guid: 5c4675b8d1dac0a4d88f6171f38efeeb, type: 3}
        m_Scale: {x: 1, y: 1}
        m_Offset: {x: 0, y: 0}
    - _TriplanarAlbedo:
        m_Texture: {fileID: 2800000, guid: 5c4675b8d1dac0a4d88f6171f38efeeb, type: 3}
        m_Scale: {x: 1, y: 1}
        m_Offset: {x: 0, y: 0}
    - _VertexAnimationMap:
        m_Texture: {fileID: 0}
        m_Scale: {x: 1, y: 1}
        m_Offset: {x: 0, y: 0}
    - _texcoord:
        m_Texture: {fileID: 0}
        m_Scale: {x: 1, y: 1}
        m_Offset: {x: 0, y: 0}
    - unity_Lightmaps:
        m_Texture: {fileID: 0}
        m_Scale: {x: 1, y: 1}
        m_Offset: {x: 0, y: 0}
    - unity_LightmapsInd:
        m_Texture: {fileID: 0}
        m_Scale: {x: 1, y: 1}
        m_Offset: {x: 0, y: 0}
    - unity_ShadowMasks:
        m_Texture: {fileID: 0}
        m_Scale: {x: 1, y: 1}
        m_Offset: {x: 0, y: 0}
    m_Ints: []
    m_Floats:
    - BaseEmber: 0
    - GlowBaseFrequency: 1.1
    - GlowColorIntensity: 0
    - GlowEmissionMultiplier: 1
    - GlowOverride: 1
    - _AO_Power: 1.301
    - _ASEOutlineWidth: 0.02
    - _AdvancedTab: 0
    - _AlbedoMix: 0.5
    - _AlphaClipping: 0
    - _AlphaCutoff: 0.5
    - _Anisotropy: 0
    - _Artistic: 0
    - _ArtisticFrequency: 1
    - _ArtisticProjection: 1
    - _Blend: 0
    - _BlendDst: 0
    - _BlendSrc: 1
    - _BlurSize: 0
    - _Brightness: 1
    - _BumpScale: 1
    - _BurnOffset: 1
    - _BurnTilling: 1
    - _CharcoalMix: 1
    - _CharcoalNormalTile: 5
    - _ColorGrading: 0
    - _Contrast: 1
    - _CoverageAmount: -0.373
    - _CoverageFalloff: 0.01
    - _Cutoff: 0.5
    - _DetailBlend: 0
    - _DetailMix: 0.5
    - _DetailNormalMapIntensity: 1
    - _DetailNormalMapScale: 1
    - _Diffuse: 0
    - _DiffuseSmoothness: 0
    - _DiffuseThresholdOffset: 0.25
    - _Dissolve: 0
    - _DissolveAmount: 0.5
    - _DissolveBorderSize: 0.25
    - _DissolveMapScale: 1
    - _Distance: 5.53
    - _DrawnClampMax: 1
    - _DrawnClampMin: 0
    - _DrawnMapScale: 1
    - _DstBlend: 0
    - _EdgeMultiplier: 1.395
    - _EnvironmentReflections: 1
    - _Falloff: 0.634
    - _Float1: 0
    - _FogAmount: 1
    - _FogDistance: 63.31
    - _FogFalloff: 0.271
    - _FogOffset: 0.26
    - _FogTransitionDistance: 0.535
    - _FogTransitionFalloff: 1
    - _Fog_Amount: 0.413
    - _FresnelHighlights: 1
    - _GlossMapScale: 1
    - _Glossiness: 0.5
    - _GlossyReflections: 1
    - _GoochRampIntensity: 0.5
    - _GradientHeight: 1.28
    - _HatchingMapScale: 1
    - _HazeHAmp: 0
    - _HazeHFreq: 0
    - _HazeNormalIntensity: 0.1
    - _HazeVSpeed: 0
    - _Initialized: 1
    - _InputTab: 1
    - _InvFade: 1
    - _Iridescence: 0
    - _IridescenceSize: 1
    - _IridescenceSmoothness: 0.5
    - _IridescenceThresholdOffset: 0
    - _Light: 1
    - _LightBands: 4
    - _LightBandsScale: 0.5
    - _LightThreshold: 0.5
    - _LightTransmission: 0
    - _LightTransmissionDistortion: 0.25
    - _LightTransmissionIntensity: 1
    - _LightTransmissionSmoothness: 0.5
    - _LightTransmissionThresholdOffset: 0.25
    - _Metallic: 0
    - _Mode: 0
    - _NormalMapIntensity: 1
    - _OcclusionMapIntensity: 1
    - _OcclusionStrength: 1
    - _Offset: 26.51
    - _OptionsTab: 1
    - _Outline: 3
    - _OutlineData: 0
    - _OutlineFadeMax: 2
    - _OutlineFadeMin: 0.25
    - _OutlineNoise: 0
    - _OutlineSize: 5
    - _OutlineTab: 0
    - _Parallax: 0.02
    - _ReceiveShadows: 1
    - _RenderFace: 2
    - _RenderPriority: 0
    - _Rim: 0
    - _RimOffset: 0.24
    - _RimPower: 0
    - _RimSize: 1
    - _RimSmoothness: 0.5
    - _RimThresholdOffset: 0.25
    - _Roughness: 0.5
    - _Saturation: 1
    - _ScaleFactor: 184.37
    - _SketchMapScale: 1
    - _Smoothness: 0
    - _SmoothnessTextureChannel: 0
    - _Specular: 0.17
    - _SpecularHighlights: 1
    - _SpecularIntensity: 1
    - _SpecularSmoothness: 0.489
    - _SpecularThresholdOffset: 0.25
    - _SrcBlend: 1
    - _Stencil: 1
    - _StencilComp: 8
    - _StencilFail: 0
    - _StencilPass: 0
    - _StencilReadMask: 255
    - _StencilRef: 0
    - _StencilWriteMask: 255
    - _StencilZFail: 0
    - _StylizeTab: 0
    - _Surface: 0
    - _Thickness: 0.5
    - _ThresholdMapScale: 1
    - _ToggleBlur: 0
    - _TransAmbient: 0.2
    - _TransDirect: 1
    - _TransNormalDistortion: 0.1
    - _TransScattering: 2
    - _TransShadow: 0.9
    - _TransitionDistance: 4.28
    - _TransitionFalloff: 0.73
    - _Translucency: 1
    - _UVSec: 0
    - _VertexAnimation: 0
    - _VertexAnimationIntensity: 0.05
    - _VertexAnimationStutter: 0
    - _Workflow: 0
    - _WorldtoObjectSwitch: 0
    - _WrappedLighting: 1
    - _ZTest: 4
    - _ZWrite: 1
    - __dirty: 0
    m_Colors:
    - EmberColorTint: {r: 0.9926471, g: 0.6777384, b: 0, a: 1}
    - _ASEOutlineColor: {r: 0, g: 0, b: 0, a: 0}
    - _AlbedoColor: {r: 1, g: 1, b: 1, a: 1}
    - _Bot_XZ: {r: 0.7058823, g: 0.2024221, b: 0.2024221, a: 0}
    - _Bot_Y: {r: 0.3877363, g: 0.5955882, b: 0.188311, a: 0}
    - _Bottom: {r: 0, g: 0, b: 0, a: 0}
    - _Color: {r: 1, g: 1, b: 1, a: 1}
    - _Color0: {r: 1, g: 0, b: 0, a: 0}
    - _Color1: {r: 0, g: 1, b: 0.7517242, a: 0}
    - _ColorBack: {r: 0.86274517, g: 0.3137255, b: 0.30980393, a: 0}
    - _ColorBottom: {r: 0.8161765, g: 0.060012985, b: 0.060012985, a: 0}
    - _ColorFront: {r: 0.25, g: 0.09558824, b: 0.20101424, a: 0}
    - _ColorTop: {r: 0, g: 1, b: 0.7517242, a: 0}
    - _DetailColor: {r: 1, g: 1, b: 1, a: 1}
    - _DissolveBorderColor: {r: 1, g: 1, b: 1, a: 1}
    - _EdgeColor: {r: 0.9411765, g: 0.9197947, b: 0.7474049, a: 0}
    - _EmissionColor: {r: 0, g: 0, b: 0, a: 1}
    - _FogColor: {r: 0.89019614, g: 0.48627454, b: 0.34117648, a: 0}
    - _Fog_Color: {r: 0, g: 1, b: 0.7517242, a: 0}
    - _GoochBrightColor: {r: 1, g: 1, b: 1, a: 1}
    - _GoochDarkColor: {r: 0, g: 0, b: 0, a: 1}
    - _IridescenceColor: {r: 1, g: 1, b: 1, a: 0.5}
    - _LightTransmissionColor: {r: 1, g: 0.65, b: 0, a: 1}
    - _OutlineColor: {r: 0, g: 0, b: 0, a: 1}
    - _RimBrightColor: {r: 1, g: 1, b: 1, a: 1}
    - _RimColor: {r: 0, g: 0, b: 0, a: 0}
    - _RimDarkColor: {r: 0, g: 0, b: 0, a: 1}
    - _SpecularColor: {r: 0.20312497, g: 0.20312497, b: 0.20312497, a: 1}
    - _Tint: {r: 0, g: 0, b: 0, a: 0}
    - _TintColor: {r: 0.5, g: 0.5, b: 0.5, a: 0.5}
    - _Top: {r: 1, g: 0, b: 0, a: 0}
    - _Top_XZ: {r: 0.2569204, g: 0.5525266, b: 0.7279412, a: 0}
    - _Top_Y: {r: 0.7259277, g: 0.7647059, b: 0.06185123, a: 0}
    - _VertexAnimationFrequency: {r: 2.5, g: 2.5, b: 2.5, a: 1}
  m_BuildTextureStacks: []
