%YAML 1.1
%TAG !u! tag:unity3d.com,2011:
--- !u!21 &2100000
Material:
  serializedVersion: 8
  m_ObjectHideFlags: 0
  m_CorrespondingSourceObject: {fileID: 0}
  m_PrefabInstance: {fileID: 0}
  m_PrefabAsset: {fileID: 0}
  m_Name: HexagonCrystalShard_Example_02
  m_Shader: {fileID: -6465566751694194690, guid: 0b0d41d48b08dfa49bb41a2ef696095e,
    type: 3}
  m_ValidKeywords:
  - _INNERRIMENABLED_ON
  - _PARALLAXNOISEENABLED_ON
  - _RAMPENABLED_ON
  - _VERTICALGRADIENTENABLED_ON
  m_InvalidKeywords:
  - _PARALLAXENABLED_ON
  m_LightmapFlags: 0
  m_EnableInstancingVariants: 0
  m_DoubleSidedGI: 0
  m_CustomRenderQueue: -1
  stringTagMap: {}
  disabledShaderPasses: []
  m_SavedProperties:
    serializedVersion: 3
    m_TexEnvs:
    - _AlbedoDecalMask:
        m_Texture: {fileID: 2800000, guid: e1b37be991ac56949bdf5441547af212, type: 3}
        m_Scale: {x: 1, y: 1}
        m_Offset: {x: 0, y: 0}
    - _AlbedoTransparency:
        m_Texture: {fileID: 2800000, guid: e1b37be991ac56949bdf5441547af212, type: 3}
        m_Scale: {x: 1, y: 1}
        m_Offset: {x: 0, y: 0}
    - _InnerRimMask:
        m_Texture: {fileID: 2800000, guid: 670a9bcc644181e4b88f6d805330b163, type: 3}
        m_Scale: {x: 1, y: 1}
        m_Offset: {x: 0, y: 0}
    - _InnerRimProfile:
        m_Texture: {fileID: 2800000, guid: 292d8d6caaae4617a95264dbe2139886, type: 3}
        m_Scale: {x: 1, y: 1}
        m_Offset: {x: 0, y: 0}
    - _Mask:
        m_Texture: {fileID: 2800000, guid: 319c2ba05b6ae794b8bcd852b4dd9c14, type: 3}
        m_Scale: {x: 1, y: 1}
        m_Offset: {x: 0, y: 0}
    - _MetallicSmoothness:
        m_Texture: {fileID: 2800000, guid: 18945ae81231e3944afe53ccc7e636e4, type: 3}
        m_Scale: {x: 1, y: 1}
        m_Offset: {x: 0, y: 0}
    - _Normal:
        m_Texture: {fileID: 2800000, guid: 440a7c8e225b1e940835c363326fec58, type: 3}
        m_Scale: {x: 1, y: 1}
        m_Offset: {x: 0, y: 0}
    - _Parallax:
        m_Texture: {fileID: 2800000, guid: 7a9be9e0e7c4fcd4696d2486d10fea1a, type: 3}
        m_Scale: {x: 1, y: 1}
        m_Offset: {x: 0, y: 0}
    - _ParallaxNoise:
        m_Texture: {fileID: 2800000, guid: 9c3b5c5df0654a7296c18c4c30cc9777, type: 3}
        m_Scale: {x: 1, y: 1}
        m_Offset: {x: 0, y: 0}
    - _Ramp:
        m_Texture: {fileID: 2800000, guid: 6844a24f1b1b407e8deb3b0e4d3f41e5, type: 3}
        m_Scale: {x: 1, y: 1}
        m_Offset: {x: 0, y: 0}
    - _Test:
        m_Texture: {fileID: 2800000, guid: 7a9be9e0e7c4fcd4696d2486d10fea1a, type: 3}
        m_Scale: {x: 1, y: 1}
        m_Offset: {x: 0, y: 0}
    - _Texture0:
        m_Texture: {fileID: 0}
        m_Scale: {x: 1, y: 1}
        m_Offset: {x: 0, y: 0}
    - _TextureSample0:
        m_Texture: {fileID: 2800000, guid: b5a57847926df5d40a17fe0708045a6b, type: 3}
        m_Scale: {x: 1, y: 1}
        m_Offset: {x: 0, y: 0}
    - _tex4coord:
        m_Texture: {fileID: 0}
        m_Scale: {x: 1, y: 1}
        m_Offset: {x: 0, y: 0}
    - _texcoord:
        m_Texture: {fileID: 0}
        m_Scale: {x: 1, y: 1}
        m_Offset: {x: 0, y: 0}
    - unity_Lightmaps:
        m_Texture: {fileID: 0}
        m_Scale: {x: 1, y: 1}
        m_Offset: {x: 0, y: 0}
    - unity_LightmapsInd:
        m_Texture: {fileID: 0}
        m_Scale: {x: 1, y: 1}
        m_Offset: {x: 0, y: 0}
    - unity_ShadowMasks:
        m_Texture: {fileID: 0}
        m_Scale: {x: 1, y: 1}
        m_Offset: {x: 0, y: 0}
    m_Ints: []
    m_Floats:
    - _APPEARGRADIENTENABLED: 0
    - _AppearGradientAbsSwitch: 1
    - _AppearGradientExp: 4
    - _AppearGradientFlipSwitch: 1
    - _AppearGradientOffset: 1.25
    - _AppearGradientPower: 1
    - _AppearGradientRemapMax: 4
    - _AppearVertexYOffset: 0
    - _EmissionVSSwitch: 0
    - _FinalPower: 30
    - _Float0: 0.175
    - _Float1: 4
    - _Float2: 0.49
    - _Float3: 1
    - _INNERRIMENABLED: 1
    - _INNERRIMMASKFLIP: 0
    - _INNERRIMPROFILEENABLED: 0
    - _InnedRimExp: 4
    - _InnedRimHackedExp: 4
    - _InnerRimExp: 6
    - _InnerRimHackNormals: 1
    - _InnerRimMaskExp: 1
    - _InnerRimMaskNegate: 0.15
    - _InnerRimPower: 24
    - _MaskExp: 4
    - _MaskNegate: 0.75
    - _Metallic: 1
    - _PARALLAXNOISEENABLED: 1
    - _ParallaxEnabled: 1
    - _ParallaxNegate: 0
    - _ParallaxNoiseDepth: 0.175
    - _ParallaxNoiseNegate: 0.05
    - _ParallaxNoisePower: 0.175
    - _ParallaxNoiseScaleU: 1
    - _ParallaxNoiseScaleV: 1
    - _ParallaxPower: 0.175
    - _QueueControl: 0
    - _QueueOffset: 0
    - _RAMPENABLED: 1
    - _RampOffsetExp: 1
    - _RampRemapMax: 0.2
    - _RimEmissionNormal: 1
    - _Smoothness: 1
    - _VERTICALGRADIENTENABLED: 1
    - _VERTICALGRADIENTWORLDPOSITION: 0
    - _VerticalGradientExp: 4
    - _VerticalGradientFlipSwitch: 0
    - _VerticalGradientOffset: 0.1515
    - _VerticalGradientRemapMax: 4.5
    - __dirty: 0
    m_Colors:
    - _AlbedoColorTint: {r: 1, g: 1, b: 1, a: 1}
    - _FinalColor: {r: 1, g: 1, b: 1, a: 1}
    - _InnerRimColor: {r: 1, g: 0, b: 0, a: 1}
    - _RampColorTint: {r: 1, g: 1, b: 1, a: 1}
    - _Vector0: {r: 1, g: 1, b: 1, a: 0}
  m_BuildTextureStacks: []
--- !u!114 &739571404879703521
MonoBehaviour:
  m_ObjectHideFlags: 11
  m_CorrespondingSourceObject: {fileID: 0}
  m_PrefabInstance: {fileID: 0}
  m_PrefabAsset: {fileID: 0}
  m_GameObject: {fileID: 0}
  m_Enabled: 1
  m_EditorHideFlags: 0
  m_Script: {fileID: 11500000, guid: d0353a89b1f911e48b9e16bdc9f2e058, type: 3}
  m_Name: 
  m_EditorClassIdentifier: 
  version: 5
