%YAML 1.1
%TAG !u! tag:unity3d.com,2011:
--- !u!21 &2100000
Material:
  serializedVersion: 8
  m_ObjectHideFlags: 0
  m_CorrespondingSourceObject: {fileID: 0}
  m_PrefabInstance: {fileID: 0}
  m_PrefabAsset: {fileID: 0}
  m_Name: LongCrystal_Example_02
  m_Shader: {fileID: -6465566751694194690, guid: 0b0d41d48b08dfa49bb41a2ef696095e,
    type: 3}
  m_ValidKeywords:
  - _PARALLAXNOISEENABLED_ON
  - _RAMPENABLED_ON
  - _VERTICALGRADIENTENABLED_ON
  m_InvalidKeywords: []
  m_LightmapFlags: 0
  m_EnableInstancingVariants: 0
  m_DoubleSidedGI: 0
  m_CustomRenderQueue: -1
  stringTagMap: {}
  disabledShaderPasses: []
  m_SavedProperties:
    serializedVersion: 3
    m_TexEnvs:
    - _AlbedoDecalMask:
        m_Texture: {fileID: 2800000, guid: 5cff083afa57db24cbcfeb90d9f18f6b, type: 3}
        m_Scale: {x: 1, y: 1}
        m_Offset: {x: 0, y: 0}
    - _AlbedoTransparency:
        m_Texture: {fileID: 2800000, guid: 5cff083afa57db24cbcfeb90d9f18f6b, type: 3}
        m_Scale: {x: 1, y: 1}
        m_Offset: {x: 0, y: 0}
    - _InnerRimMask:
        m_Texture: {fileID: 2800000, guid: 9d5aa39aa3c9c084db66461435508ba8, type: 3}
        m_Scale: {x: 1, y: 1}
        m_Offset: {x: 0, y: 0}
    - _InnerRimProfile:
        m_Texture: {fileID: 2800000, guid: 292d8d6caaae4617a95264dbe2139886, type: 3}
        m_Scale: {x: 1, y: 1}
        m_Offset: {x: 0, y: 0}
    - _MetallicSmoothness:
        m_Texture: {fileID: 2800000, guid: f81fa6a00364ded469b106851f73904b, type: 3}
        m_Scale: {x: 1, y: 1}
        m_Offset: {x: 0, y: 0}
    - _Normal:
        m_Texture: {fileID: 2800000, guid: 844ed54eddd30d0468f8b5034682bcf4, type: 3}
        m_Scale: {x: 1, y: 1}
        m_Offset: {x: 0, y: 0}
    - _ParallaxNoise:
        m_Texture: {fileID: 2800000, guid: 9c3b5c5df0654a7296c18c4c30cc9777, type: 3}
        m_Scale: {x: 1, y: 1}
        m_Offset: {x: 0, y: 0}
    - _Ramp:
        m_Texture: {fileID: 2800000, guid: 305b0879b1924fa8a4599d9ce4e73155, type: 3}
        m_Scale: {x: 1, y: 1}
        m_Offset: {x: 0, y: 0}
    - _tex4coord:
        m_Texture: {fileID: 0}
        m_Scale: {x: 1, y: 1}
        m_Offset: {x: 0, y: 0}
    - _texcoord:
        m_Texture: {fileID: 0}
        m_Scale: {x: 1, y: 1}
        m_Offset: {x: 0, y: 0}
    - unity_Lightmaps:
        m_Texture: {fileID: 0}
        m_Scale: {x: 1, y: 1}
        m_Offset: {x: 0, y: 0}
    - unity_LightmapsInd:
        m_Texture: {fileID: 0}
        m_Scale: {x: 1, y: 1}
        m_Offset: {x: 0, y: 0}
    - unity_ShadowMasks:
        m_Texture: {fileID: 0}
        m_Scale: {x: 1, y: 1}
        m_Offset: {x: 0, y: 0}
    m_Ints: []
    m_Floats:
    - _APPEARGRADIENTENABLED: 0
    - _AppearGradientAbsSwitch: 1
    - _AppearGradientExp: 4
    - _AppearGradientFlipSwitch: 1
    - _AppearGradientOffset: 1.25
    - _AppearGradientPower: 1
    - _AppearGradientRemapMax: 4
    - _AppearVertexYOffset: 0
    - _EmissionVSSwitch: 0
    - _FinalPower: 90
    - _Float0: 1
    - _INNERRIMENABLED: 0
    - _INNERRIMMASKFLIP: 0
    - _INNERRIMPROFILEENABLED: 0
    - _InnerRimExp: 8
    - _InnerRimHackNormals: 0.9
    - _InnerRimMaskExp: 1
    - _InnerRimMaskNegate: 0.207
    - _Metallic: 1
    - _PARALLAXNOISEENABLED: 1
    - _ParallaxNoiseDepth: 0.175
    - _ParallaxNoiseNegate: 0.05
    - _ParallaxNoiseScaleU: 2
    - _ParallaxNoiseScaleV: 2
    - _QueueControl: 0
    - _QueueOffset: 0
    - _RAMPENABLED: 1
    - _RampOffsetExp: 1
    - _RampRemapMax: 0.02
    - _RimEmissionNormal: 1
    - _Smoothness: 1
    - _VERTICALGRADIENTENABLED: 1
    - _VERTICALGRADIENTWORLDPOSITION: 0
    - _VerticalGradientExp: 4
    - _VerticalGradientFlipSwitch: 0
    - _VerticalGradientOffset: 1.85
    - _VerticalGradientRemapMax: 4.63
    - __dirty: 0
    m_Colors:
    - _AlbedoColorTint: {r: 1, g: 1, b: 1, a: 1}
    - _FinalColor: {r: 1, g: 0, b: 0, a: 1}
    - _RampColorTint: {r: 1, g: 0.53676474, b: 0.53676474, a: 1}
  m_BuildTextureStacks: []
--- !u!114 &1346037218140132489
MonoBehaviour:
  m_ObjectHideFlags: 11
  m_CorrespondingSourceObject: {fileID: 0}
  m_PrefabInstance: {fileID: 0}
  m_PrefabAsset: {fileID: 0}
  m_GameObject: {fileID: 0}
  m_Enabled: 1
  m_EditorHideFlags: 0
  m_Script: {fileID: 11500000, guid: d0353a89b1f911e48b9e16bdc9f2e058, type: 3}
  m_Name: 
  m_EditorClassIdentifier: 
  version: 5
