%YAML 1.1
%TAG !u! tag:unity3d.com,2011:
--- !u!21 &2100000
Material:
  serializedVersion: 8
  m_ObjectHideFlags: 0
  m_CorrespondingSourceObject: {fileID: 0}
  m_PrefabInstance: {fileID: 0}
  m_PrefabAsset: {fileID: 0}
  m_Name: PillarCrystal_Example_01
  m_Shader: {fileID: -6465566751694194690, guid: 0b0d41d48b08dfa49bb41a2ef696095e,
    type: 3}
  m_ValidKeywords:
  - _INNERRIMENABLED_ON
  - _PARALLAXNOISEENABLED_ON
  - _RAMPENABLED_ON
  m_InvalidKeywords:
  - _INNERRIMMASKFLIP_ON
  - _PARALLAXENABLED_ON
  m_LightmapFlags: 0
  m_EnableInstancingVariants: 0
  m_DoubleSidedGI: 0
  m_CustomRenderQueue: -1
  stringTagMap: {}
  disabledShaderPasses: []
  m_SavedProperties:
    serializedVersion: 3
    m_TexEnvs:
    - _AlbedoDecalMask:
        m_Texture: {fileID: 2800000, guid: 2b979c87ed8cae549a54cbbbc671c425, type: 3}
        m_Scale: {x: 1, y: 1}
        m_Offset: {x: 0, y: 0}
    - _AlbedoTransparency:
        m_Texture: {fileID: 2800000, guid: 2b979c87ed8cae549a54cbbbc671c425, type: 3}
        m_Scale: {x: 1, y: 1}
        m_Offset: {x: 0, y: 0}
    - _InnerRimMask:
        m_Texture: {fileID: 2800000, guid: a48a381c21572614eb105f4cabc85a59, type: 3}
        m_Scale: {x: 1, y: 1}
        m_Offset: {x: 0, y: 0}
    - _InnerRimProfile:
        m_Texture: {fileID: 2800000, guid: 292d8d6caaae4617a95264dbe2139886, type: 3}
        m_Scale: {x: 1, y: 1}
        m_Offset: {x: 0, y: 0}
    - _Mask:
        m_Texture: {fileID: 2800000, guid: 319c2ba05b6ae794b8bcd852b4dd9c14, type: 3}
        m_Scale: {x: 1, y: 1}
        m_Offset: {x: 0, y: 0}
    - _MetallicSmoothness:
        m_Texture: {fileID: 2800000, guid: ce8df99d45333db4694177295420d1be, type: 3}
        m_Scale: {x: 1, y: 1}
        m_Offset: {x: 0, y: 0}
    - _Normal:
        m_Texture: {fileID: 2800000, guid: f7f6323dbdbf5e94e976a65509805436, type: 3}
        m_Scale: {x: 1, y: 1}
        m_Offset: {x: 0, y: 0}
    - _Parallax:
        m_Texture: {fileID: 2800000, guid: 7a9be9e0e7c4fcd4696d2486d10fea1a, type: 3}
        m_Scale: {x: 1, y: 1}
        m_Offset: {x: 0, y: 0}
    - _ParallaxNoise:
        m_Texture: {fileID: 2800000, guid: 9c3b5c5df0654a7296c18c4c30cc9777, type: 3}
        m_Scale: {x: 1, y: 1}
        m_Offset: {x: 0, y: 0}
    - _Ramp:
        m_Texture: {fileID: 2800000, guid: 4a9087034a5e459fa18c593c45a728a8, type: 3}
        m_Scale: {x: 1, y: 1}
        m_Offset: {x: 0, y: 0}
    - _Test:
        m_Texture: {fileID: 2800000, guid: 7a9be9e0e7c4fcd4696d2486d10fea1a, type: 3}
        m_Scale: {x: 1, y: 1}
        m_Offset: {x: 0, y: 0}
    - _Texture0:
        m_Texture: {fileID: 0}
        m_Scale: {x: 1, y: 1}
        m_Offset: {x: 0, y: 0}
    - _TextureSample0:
        m_Texture: {fileID: 2800000, guid: b5a57847926df5d40a17fe0708045a6b, type: 3}
        m_Scale: {x: 1, y: 1}
        m_Offset: {x: 0, y: 0}
    - _tex4coord:
        m_Texture: {fileID: 0}
        m_Scale: {x: 1, y: 1}
        m_Offset: {x: 0, y: 0}
    - _texcoord:
        m_Texture: {fileID: 0}
        m_Scale: {x: 1, y: 1}
        m_Offset: {x: 0, y: 0}
    - unity_Lightmaps:
        m_Texture: {fileID: 0}
        m_Scale: {x: 1, y: 1}
        m_Offset: {x: 0, y: 0}
    - unity_LightmapsInd:
        m_Texture: {fileID: 0}
        m_Scale: {x: 1, y: 1}
        m_Offset: {x: 0, y: 0}
    - unity_ShadowMasks:
        m_Texture: {fileID: 0}
        m_Scale: {x: 1, y: 1}
        m_Offset: {x: 0, y: 0}
    m_Ints: []
    m_Floats:
    - _APPEARGRADIENTENABLED: 0
    - _AppearGradientAbsSwitch: 1
    - _AppearGradientExp: 6
    - _AppearGradientFlipSwitch: 1
    - _AppearGradientOffset: 0.5
    - _AppearGradientPower: 1
    - _AppearGradientRemapMax: 3
    - _AppearVertexYOffset: 0
    - _EmissionVSSwitch: 0
    - _FinalPower: 20
    - _Float0: 0.175
    - _Float1: 0
    - _Float2: 0.49
    - _INNERRIMENABLED: 1
    - _INNERRIMMASKFLIP: 1
    - _INNERRIMPROFILEENABLED: 0
    - _InnedRimExp: 4
    - _InnedRimHackedExp: 4
    - _InnerRimExp: 6
    - _InnerRimHackNormals: 0.9
    - _InnerRimMaskExp: 0.25
    - _InnerRimMaskNegate: 0.25
    - _InnerRimPower: 24
    - _MaskExp: 4
    - _MaskNegate: 0.75
    - _Metallic: 1
    - _PARALLAXNOISEENABLED: 1
    - _ParallaxEnabled: 1
    - _ParallaxNegate: 0
    - _ParallaxNoiseDepth: 0.175
    - _ParallaxNoiseNegate: 0.05
    - _ParallaxNoisePower: 0.175
    - _ParallaxNoiseScaleU: 2
    - _ParallaxNoiseScaleV: 2
    - _ParallaxPower: 0.175
    - _QueueControl: 0
    - _QueueOffset: 0
    - _RAMPENABLED: 1
    - _RampOffsetExp: 1
    - _RampRemapMax: 0.08
    - _RimEmissionNormal: 1
    - _Smoothness: 1
    - _VERTICALGRADIENTENABLED: 0
    - _VERTICALGRADIENTWORLDPOSITION: 0
    - _VersicalGradientFlipSwitch: 0
    - _VerticalGradientExp: 4
    - _VerticalGradientFlipSwitch: 0
    - _VerticalGradientOffset: 1.85
    - _VerticalGradientRemapMax: 4.63
    - __dirty: 0
    m_Colors:
    - _AlbedoColorTint: {r: 1, g: 1, b: 1, a: 1}
    - _FinalColor: {r: 1, g: 0, b: 0, a: 1}
    - _InnerRimColor: {r: 1, g: 0, b: 0, a: 1}
    - _RampColorTint: {r: 1, g: 0.5, b: 0.5, a: 1}
    - _Vector0: {r: 1, g: 1, b: 1, a: 0}
  m_BuildTextureStacks: []
--- !u!114 &8852059549561394418
MonoBehaviour:
  m_ObjectHideFlags: 11
  m_CorrespondingSourceObject: {fileID: 0}
  m_PrefabInstance: {fileID: 0}
  m_PrefabAsset: {fileID: 0}
  m_GameObject: {fileID: 0}
  m_Enabled: 1
  m_EditorHideFlags: 0
  m_Script: {fileID: 11500000, guid: d0353a89b1f911e48b9e16bdc9f2e058, type: 3}
  m_Name: 
  m_EditorClassIdentifier: 
  version: 5
