%YAML 1.1
%TAG !u! tag:unity3d.com,2011:
--- !u!114 &11400000
MonoBehaviour:
  m_ObjectHideFlags: 0
  m_CorrespondingSourceObject: {fileID: 0}
  m_PrefabInstance: {fileID: 0}
  m_PrefabAsset: {fileID: 0}
  m_GameObject: {fileID: 0}
  m_Enabled: 1
  m_EditorHideFlags: 0
  m_Script: {fileID: 11500000, guid: 92129e6bc9018ce468039aae7d4df5b3, type: 3}
  m_Name: SignWitch_Leo_Skill_3_Unit_Ablility
  m_EditorClassIdentifier: 
  m_AbilityName: Slap
  m_SpriteIcon: {fileID: 21300000, guid: c4f2bf7cbf750a14eac759abb74a3c00, type: 3}
  m_Radius: 1
  m_ActionPointCost: 0
  m_moveToTarget: 0
  m_bAllowBlocked: 0
  m_EffectedTeam: 2
  m_EffectedType: 0
  m_ExcuteSeftInSelect: 0
  m_BuffSeft: 0
  m_DeBuffSeft: 0
  m_AbilityShape: {fileID: 11400000, guid: 4ce59269b06fcaf45b8b91d68c8f4da9, type: 2}
  m_EffectShape: {fileID: 0}
  m_EffectRadius: 0
  m_SpawnOnCaster:
  - {fileID: 6141600212177985748, guid: 034655cb5bb76c54282cd82d915d9dcc, type: 3}
  m_SpawnOnTarget: []
  m_Params:
  - {fileID: 11400000, guid: 677560ffbfe5fed448b755f92b93ef92, type: 2}
  m_Ailments: []
  skillID: SignWitch_Leo_Skill_3
