%YAML 1.1
%TAG !u! tag:unity3d.com,2011:
--- !u!114 &11400000
MonoBehaviour:
  m_ObjectHideFlags: 0
  m_CorrespondingSourceObject: {fileID: 0}
  m_PrefabInstance: {fileID: 0}
  m_PrefabAsset: {fileID: 0}
  m_GameObject: {fileID: 0}
  m_Enabled: 1
  m_EditorHideFlags: 0
  m_Script: {fileID: 11500000, guid: 92129e6bc9018ce468039aae7d4df5b3, type: 3}
  m_Name: SignWitch_Tarus_Skill_6_Unit_Ablility
  m_EditorClassIdentifier: 
  m_AbilityName: Slap
  m_SpriteIcon: {fileID: 21300000, guid: 9561fd0c3dd2f67489547d6ec8105c48, type: 3}
  m_Radius: 3
  m_ActionPointCost: 0
  m_moveToTarget: 0
  m_bAllowBlocked: 0
  m_EffectedTeam: 2
  m_EffectedType: 0
  m_ExcuteSeftInSelect: 0
  m_BuffSeft: 0
  m_DeBuffSeft: 0
  m_AbilityShape: {fileID: 11400000, guid: 49430a039d5e81849ba23426634f8f3a, type: 2}
  m_EffectShape: {fileID: 11400000, guid: 49430a039d5e81849ba23426634f8f3a, type: 2}
  m_EffectRadius: 1
  m_SpawnOnCaster: []
  m_SpawnOnTarget:
  - {fileID: 2280744554192579879, guid: c3b6c9bbe750278499bb3e8a42437ef9, type: 3}
  m_Params:
  - {fileID: 11400000, guid: 677560ffbfe5fed448b755f92b93ef92, type: 2}
  m_Ailments: []
  skillID: SignWitch_Tarus_Skill_6
