%YAML 1.1
%TAG !u! tag:unity3d.com,2011:
--- !u!114 &11400000
MonoBehaviour:
  m_ObjectHideFlags: 0
  m_CorrespondingSourceObject: {fileID: 0}
  m_PrefabInstance: {fileID: 0}
  m_PrefabAsset: {fileID: 0}
  m_GameObject: {fileID: 0}
  m_Enabled: 1
  m_EditorHideFlags: 0
  m_Script: {fileID: 11500000, guid: a4ee020d214536b45be6984b880908ad, type: 3}
  m_Name: SignWitch_Taurus_DataScriptObj
  m_EditorClassIdentifier: 
  monster:
    monsterID: SignWitch_Tarus
    monsterName: Taurus
    monsterRace:
      mainRace: 1
      subRace: 1
    growthType: 2
    growthScore: -32.08
    level: 0
    basicParameters:
      health: 100
      strenght: 130
      intelligent: 210
      dexterity: 160
      agility: 190
      vitality: 80
    HP_GA_Rank: 1
    STR_GA_Rank: 2
    INT_GA_Rank: 6
    DEX_GA_Rank: 4
    AGI_GA_Rank: 5
    VIT_GA_Rank: 0
    mainSuitTerrain: 6
    subSuitTerrain: 6
    mainNoSuitTerrain: 7
    subNoSuitTerrain: 7
    battleParameters:
      StaminaRecovery: 24
      Speed: 67
      Move: 2
    Hit: -15
    Cut: -15
    Thrust: -15
    Water: 0
    Flame: 20
    Wind: 20
    Soil: 0
    Poison: -5
    Weakness: -10
    Blindness: -15
    Slowdown: 20
    Paralysis: 20
    Sleep: -10
    Anger: 0
    Enchantment: 0
    Chaos: 0
    Fear: 0
    monsterAvatar: {fileID: 21300000, guid: 6096ba563f687d74aaa1cd254d236160, type: 3}
    monsterBurstupAvatar: {fileID: 0}
    growthParameters:
      lifeSpan: 3500
      bodyTypeValue: 50
      trainingPolicyValue: 50
      affection: 0
      fatigue: 0
      stress: 0
      injuryType: 0
      diseasesType: 0
      energy: 80
      body: 80
      condition: 80
    loveFoods: 02000000
    hateFoods: 01000000
    monsterSkillInfos:
    - skillID: SignWitch_Skill_1
      skillLevel: 1
    - skillID: SignWitch_Skill_2
      skillLevel: 1
    - skillID: SignWitch_Tarus_Skill_3
      skillLevel: 1
    - skillID: SignWitch_Tarus_Skill_4
      skillLevel: 1
    - skillID: SignWitch_Tarus_Skill_5
      skillLevel: 1
    - skillID: SignWitch_Tarus_Skill_6
      skillLevel: 1
  unitData: {fileID: 11400000, guid: a64e91c5995b9a845b8c68106f6238db, type: 2}
