%YAML 1.1
%TAG !u! tag:unity3d.com,2011:
--- !u!114 &11400000
MonoBehaviour:
  m_ObjectHideFlags: 0
  m_CorrespondingSourceObject: {fileID: 0}
  m_PrefabInstance: {fileID: 0}
  m_PrefabAsset: {fileID: 0}
  m_GameObject: {fileID: 0}
  m_Enabled: 1
  m_EditorHideFlags: 0
  m_Script: {fileID: 11500000, guid: aa8ae2f4063326e49a8ff1d6153c6695, type: 3}
  m_Name: FarmDataScriptObj_Moutain
  m_EditorClassIdentifier: 
  farm:
    rankType: 0
    farmType: 2
    TerrainType: 6
    farmName: Mountain
    farmGoldPrice: 1000
    farmOASPrice: 0
    farmBackgroundSprite: {fileID: 21300000, guid: 78f6881785fbd1a41a418311c18b7c6c,
      type: 3}
    enhancedParameters:
      health: 60
      strenght: 60
      intelligent: 60
      dexterity: 60
      agility: 60
      vitality: 60
    correctionParameters:
      health: 18
      strenght: 18
      intelligent: 18
      dexterity: 18
      agility: 18
      vitality: 18
    fatigueEnhancValue: 50
    stressEnhancValue: 50
    restEnhanceValue: 50
    mainParameter: 4
    subParameter: 2
    deParameter: 3
    img_Potrait: {fileID: 0}
    img_Landscape: {fileID: 21300000, guid: 56aa992861440aa4095fc5d8f1953ded, type: 3}
