%YAML 1.1
%TAG !u! tag:unity3d.com,2011:
--- !u!114 &-606897389630210942
MonoBehaviour:
  m_ObjectHideFlags: 11
  m_CorrespondingSourceObject: {fileID: 0}
  m_PrefabInstance: {fileID: 0}
  m_PrefabAsset: {fileID: 0}
  m_GameObject: {fileID: 0}
  m_Enabled: 1
  m_EditorHideFlags: 0
  m_Script: {fileID: 11500000, guid: d0353a89b1f911e48b9e16bdc9f2e058, type: 3}
  m_Name: 
  m_EditorClassIdentifier: 
  version: 5
--- !u!21 &2100000
Material:
  serializedVersion: 8
  m_ObjectHideFlags: 0
  m_CorrespondingSourceObject: {fileID: 0}
  m_PrefabInstance: {fileID: 0}
  m_PrefabAsset: {fileID: 0}
  m_Name: StormBeacon_Beacon_01
  m_Shader: {fileID: -6465566751694194690, guid: 4e11911a9b9313346925170bf2b846c5,
    type: 3}
  m_ValidKeywords: []
  m_InvalidKeywords: []
  m_LightmapFlags: 2
  m_EnableInstancingVariants: 0
  m_DoubleSidedGI: 0
  m_CustomRenderQueue: -1
  stringTagMap: {}
  disabledShaderPasses: []
  m_SavedProperties:
    serializedVersion: 3
    m_TexEnvs:
    - _AlbedoDecalMask:
        m_Texture: {fileID: 2800000, guid: 9ca85725ef1e97c468ffdce0bb89321e, type: 3}
        m_Scale: {x: 1, y: 1}
        m_Offset: {x: 0, y: 0}
    - _DissolveDirectionMask:
        m_Texture: {fileID: 2800000, guid: acda12ee407cbe347bd757dbfe051e3a, type: 3}
        m_Scale: {x: 1, y: 1}
        m_Offset: {x: 0, y: 0}
    - _DissolveNoise:
        m_Texture: {fileID: 2800000, guid: 78f7e1b2207371144b858a829e260431, type: 3}
        m_Scale: {x: 1, y: 1}
        m_Offset: {x: 0, y: 0}
    - _DissolveTexture:
        m_Texture: {fileID: 2800000, guid: 43cd5d9142ddb7448b034705c9bff50d, type: 3}
        m_Scale: {x: 1, y: 1}
        m_Offset: {x: 0, y: 0}
    - _Emission:
        m_Texture: {fileID: 2800000, guid: b467e8a158f70c34ea41e74ebbbea874, type: 3}
        m_Scale: {x: 1, y: 1}
        m_Offset: {x: 0, y: 0}
    - _MetallicSmoothness:
        m_Texture: {fileID: 2800000, guid: c39b9006951267041867365b6d49a373, type: 3}
        m_Scale: {x: 1, y: 1}
        m_Offset: {x: 0, y: 0}
    - _Normal:
        m_Texture: {fileID: 2800000, guid: dafcbea1eba87b844a58385e819a9815, type: 3}
        m_Scale: {x: 1, y: 1}
        m_Offset: {x: 0, y: 0}
    - _tex4coord:
        m_Texture: {fileID: 0}
        m_Scale: {x: 1, y: 1}
        m_Offset: {x: 0, y: 0}
    - _tex4coord2:
        m_Texture: {fileID: 0}
        m_Scale: {x: 1, y: 1}
        m_Offset: {x: 0, y: 0}
    - _texcoord:
        m_Texture: {fileID: 0}
        m_Scale: {x: 1, y: 1}
        m_Offset: {x: 0, y: 0}
    - unity_Lightmaps:
        m_Texture: {fileID: 0}
        m_Scale: {x: 1, y: 1}
        m_Offset: {x: 0, y: 0}
    - unity_LightmapsInd:
        m_Texture: {fileID: 0}
        m_Scale: {x: 1, y: 1}
        m_Offset: {x: 0, y: 0}
    - unity_ShadowMasks:
        m_Texture: {fileID: 0}
        m_Scale: {x: 1, y: 1}
        m_Offset: {x: 0, y: 0}
    m_Ints: []
    m_Floats:
    - _AlbedoDecalNegate: 1
    - _Cutoff: 0.5
    - _DISSOLVEDIRECTIONMASKFLIP: 0
    - _DISSOLVEMANUALCONTROL: 0
    - _DISSOLVETEXTUREFLIP: 0
    - _DissolveDirectionMaskExp: 1
    - _DissolveDirectionScale: 0.25
    - _DissolveEmissionExp: 4
    - _DissolveEmissionOffset: -0.25
    - _DissolveEmissionPower: 6
    - _DissolveEmissionRemapMax: 0.25
    - _DissolveManualProgress: 0
    - _DissolveTextureScaleU: 1
    - _DissolveTextureScaleV: 1
    - _EMISSIONVSCONTROLENABLED: 0
    - _EmissionPower: 10
    - _Float0: 1
    - _Float3: 0.35
    - _Metallic: 0.9
    - _QueueControl: 0
    - _QueueOffset: 0
    - _RIMEMISSIONAFFECTSMASK: 0
    - _RIMEMISSIONENABLED: 0
    - _RimEmissionExp: 2
    - _RimEmissionNormal: 1
    - _RimEmissionPower: 2
    - _Smoothness: 0.9
    - __dirty: 0
    m_Colors:
    - _AlbedoColorTint: {r: 1, g: 1, b: 1, a: 1}
    - _AlbedoDecalColor: {r: 1, g: 0.654902, b: 0.51372516, a: 1}
    - _DissolveEmissionColor: {r: 0, g: 0.53333336, b: 1, a: 1}
    - _EmissionColor: {r: 0, g: 0.5321255, b: 1, a: 1}
    - _RimEmissionColor: {r: 1, g: 0.654902, b: 0.514151, a: 1}
  m_BuildTextureStacks: []
