%YAML 1.1
%TAG !u! tag:unity3d.com,2011:
--- !u!114 &-5527684294145052943
MonoBehaviour:
  m_ObjectHideFlags: 11
  m_CorrespondingSourceObject: {fileID: 0}
  m_PrefabInstance: {fileID: 0}
  m_PrefabAsset: {fileID: 0}
  m_GameObject: {fileID: 0}
  m_Enabled: 1
  m_EditorHideFlags: 0
  m_Script: {fileID: 11500000, guid: d0353a89b1f911e48b9e16bdc9f2e058, type: 3}
  m_Name: 
  m_EditorClassIdentifier: 
  version: 5
--- !u!21 &2100000
Material:
  serializedVersion: 8
  m_ObjectHideFlags: 0
  m_CorrespondingSourceObject: {fileID: 0}
  m_PrefabInstance: {fileID: 0}
  m_PrefabAsset: {fileID: 0}
  m_Name: Flames_04_Example
  m_Shader: {fileID: -6465566751694194690, guid: c444735a99fc1c64cb2c3aca113bbbe4,
    type: 3}
  m_ValidKeywords:
  - _RAMPENABLED_ON
  m_InvalidKeywords:
  - _DISSOLVETEXTUREFLIP_ON
  - _EMISSIONVERTEXSTREAMENABLED_ON
  m_LightmapFlags: 0
  m_EnableInstancingVariants: 0
  m_DoubleSidedGI: 0
  m_CustomRenderQueue: 3000
  stringTagMap: {}
  disabledShaderPasses: []
  m_SavedProperties:
    serializedVersion: 3
    m_TexEnvs:
    - _CustomColorMask:
        m_Texture: {fileID: 2800000, guid: 89055bbbc6b943fd8065bad66c15c97d, type: 3}
        m_Scale: {x: 1, y: 1}
        m_Offset: {x: 0, y: 0}
    - _DissolveMask:
        m_Texture: {fileID: 0}
        m_Scale: {x: 1, y: 1}
        m_Offset: {x: 0, y: 0}
    - _DissolveTexture:
        m_Texture: {fileID: 2800000, guid: 7946756a0d414f759c470943148ed64a, type: 3}
        m_Scale: {x: 1, y: 1}
        m_Offset: {x: 0, y: 0}
    - _Distortion:
        m_Texture: {fileID: 2800000, guid: 7946756a0d414f759c470943148ed64a, type: 3}
        m_Scale: {x: 1, y: 1}
        m_Offset: {x: 0, y: 0}
    - _DistortionFixMask:
        m_Texture: {fileID: 0}
        m_Scale: {x: 1, y: 1}
        m_Offset: {x: 0, y: 0}
    - _DistortionMask:
        m_Texture: {fileID: 0}
        m_Scale: {x: 1, y: 1}
        m_Offset: {x: 0, y: 0}
    - _EmissionMask:
        m_Texture: {fileID: 2800000, guid: c2f37fa156985f54286d9f3423ca4229, type: 3}
        m_Scale: {x: 1, y: 1}
        m_Offset: {x: 0, y: 0}
    - _EmissionMaskDissolveNoise:
        m_Texture: {fileID: 2800000, guid: 35bc48dad7fe46a4f82965e223b86f2e, type: 3}
        m_Scale: {x: 1, y: 1}
        m_Offset: {x: 0, y: 0}
    - _MVMainMask:
        m_Texture: {fileID: 2800000, guid: d64bbb973b794a18b63152501758e5f9, type: 3}
        m_Scale: {x: 1, y: 1}
        m_Offset: {x: 0, y: 0}
    - _MVMainMaskMotionVectors:
        m_Texture: {fileID: 2800000, guid: e52896024f494a88b4fcf3bc196ebd77, type: 3}
        m_Scale: {x: 1, y: 1}
        m_Offset: {x: 0, y: 0}
    - _MainMask:
        m_Texture: {fileID: 2800000, guid: d9bf558840f64618b84ff10f17cab94f, type: 3}
        m_Scale: {x: 1, y: 1}
        m_Offset: {x: 0, y: 0}
    - _MainTex:
        m_Texture: {fileID: 2800000, guid: 904d8ff05d83c8342a7ec10767019412, type: 3}
        m_Scale: {x: 1, y: 1}
        m_Offset: {x: 0, y: 0}
    - _Noise01:
        m_Texture: {fileID: 0}
        m_Scale: {x: 1, y: 1}
        m_Offset: {x: 0, y: 0}
    - _RadialDistortionNoise:
        m_Texture: {fileID: 2800000, guid: a9fcba2b3c04c484081fd31c7a5b9101, type: 3}
        m_Scale: {x: 1, y: 1}
        m_Offset: {x: 0, y: 0}
    - _Ramp:
        m_Texture: {fileID: 2800000, guid: f6294a1f5d344368bdc302efb8308f93, type: 3}
        m_Scale: {x: 1, y: 1}
        m_Offset: {x: 0, y: 0}
    - _SecondaryMask:
        m_Texture: {fileID: 0}
        m_Scale: {x: 1, y: 1}
        m_Offset: {x: 0, y: 0}
    - _tex4coord:
        m_Texture: {fileID: 0}
        m_Scale: {x: 1, y: 1}
        m_Offset: {x: 0, y: 0}
    - _tex4coord2:
        m_Texture: {fileID: 0}
        m_Scale: {x: 1, y: 1}
        m_Offset: {x: 0, y: 0}
    - _tex4coord3:
        m_Texture: {fileID: 0}
        m_Scale: {x: 1, y: 1}
        m_Offset: {x: 0, y: 0}
    - _texcoord:
        m_Texture: {fileID: 0}
        m_Scale: {x: 1, y: 1}
        m_Offset: {x: 0, y: 0}
    - unity_Lightmaps:
        m_Texture: {fileID: 0}
        m_Scale: {x: 1, y: 1}
        m_Offset: {x: 0, y: 0}
    - unity_LightmapsInd:
        m_Texture: {fileID: 0}
        m_Scale: {x: 1, y: 1}
        m_Offset: {x: 0, y: 0}
    - unity_ShadowMasks:
        m_Texture: {fileID: 0}
        m_Scale: {x: 1, y: 1}
        m_Offset: {x: 0, y: 0}
    m_Ints: []
    m_Floats:
    - _CustomColorMaskAffectedByDynamics: 1
    - _CustomColorMaskEnabled: 0
    - _CustomColorMaskSwitch: 1
    - _DISSOLVETEXTUREFLIP: 1
    - _DISSOLVETEXTURERADIAL: 0
    - _DISSOLVETEXTURERADIALEnabled: 0
    - _DISSOLVETEXTURERADIALScaleU: 0.2
    - _DISSOLVETEXTURERADIALScaleV: 1
    - _DISTORTIONRADIAL: 0
    - _DISTORTIONRADIALScaleU: 1
    - _DISTORTIONRADIALScaleV: 1
    - _DISTORTIONRADIALUseOldMethod: 0
    - _DISTORTIONUVORSPHERICAL: 0
    - _DissolveExp: 1
    - _DissolveExpReversed: 1
    - _DissolveGlowAffectsRamp: 1
    - _DissolveGlowAmount: 0
    - _DissolveGlowOffset: 0.25
    - _DissolveGlowPower: 2
    - _DissolveMaskRemapMin: -1
    - _DissolveMaskScale: 1
    - _DissolveTextureRandomMax: 1
    - _DissolveTextureRandomMin: 1
    - _DissolveTextureScale: 1
    - _DissolveTextureScaleU: 0.5
    - _DissolveTextureScaleV: 0.5
    - _DistortionExp: 1
    - _DistortionMaskNegate: 0
    - _DistortionMaskVSMoveU: 0
    - _DistortionMaskVSMoveV: 0
    - _DistortionPower: 0
    - _DistortionScaleU: 0.125
    - _DistortionScaleV: 1
    - _DistortionScrollSpeedU: 0.1
    - _DistortionScrollSpeedV: 0
    - _DistortionU: 0
    - _DistortionUseOldMethod: 0
    - _DistortionV: 1
    - _EMISSIONVERTEXSTREAMENABLED: 1
    - _FinalOpacityExp: 8
    - _FinalOpacityExp1: 1.125
    - _FinalOpacityPower: 0.6
    - _FinalPower: 6
    - _MDFOU: 1
    - _MDFOV: 1
    - _MVAnimationSpeed: 15
    - _MVColums: 8
    - _MVDistortionFrameOffset: 0.001
    - _MVDistortionPower: 0.001
    - _MVMainMaskExp: 1
    - _MVMainMaskRotation: 0.25
    - _MVPARTICLEFRAMECONTROLENABLED: 0
    - _MVRandomFrame: 1
    - _MVRandomSpeed: 0.5
    - _MVRows: 8
    - _MainMaskExp: 1
    - _MainMaskScrollSpeedU: 0
    - _MainMaskScrollSpeedV: 0
    - _NOISE01RADIAL: 0
    - _NOISE01RADIAL1: 0
    - _NOISE01RADIALScaleU: 1
    - _NOISE01RADIALScaleU1: 1
    - _NOISE01RADIALScaleV: 1
    - _NOISE01RADIALScaleV1: 1
    - _Noise01Exp: 1
    - _Noise01Negate: 0
    - _Noise01RandomMax: 1
    - _Noise01RandomMin: 1
    - _Noise01Scale: 1
    - _Noise01ScaleU: 1
    - _Noise01ScaleV: 1
    - _Noise01ScrollSpeed1: 0
    - _Noise01ScrollSpeedU: 0
    - _Noise01ScrollSpeedV: -0.15
    - _QueueControl: 1
    - _QueueOffset: 0
    - _RAMPAFFECTEDBYVERTEXCOLOR: 0
    - _RAMPENABLED: 1
    - _RadialDistortionNoisePower: 0
    - _RampAffectedByDynamics: 1
    - _RampAffectedByOther: 1
    - _RampNoiseAmount: 1
    - _RampOffsetExp: 6
    - _RampOffsetMultiply: 1
    - _RampOffsetMultiply1: 1
    - _SecondaryMaskEnabled: 0
    - _SecondaryMaskNegate: 1
    - _SecondaryMaskVSMoveU: 0
    - _SecondaryMaskVSMoveV: 0
    - _SecondayMaskVSMoveV: 0
    - __dirty: 0
    m_Colors:
    - _CustomColorMaskChannels: {r: 1, g: 0, b: 0, a: 0}
    - _FinalColor: {r: 1, g: 1, b: 1, a: 1}
    - _MVMainMaskChannels: {r: 1, g: 0, b: 0, a: 0}
    - _MVMainMaskChannelsMultiply: {r: 1, g: 0, b: 0, a: 0}
    - _MainMaskChannelsMultiply: {r: 1, g: 1, b: 1, a: 0}
    - _Noise01ScrollSpeedUV: {r: 1, g: 1, b: 0, a: 0}
    - _RampColorTint: {r: 1, g: 1, b: 1, a: 1}
  m_BuildTextureStacks: []
