%YAML 1.1
%TAG !u! tag:unity3d.com,2011:
--- !u!114 &11400000
MonoBehaviour:
  m_ObjectHideFlags: 0
  m_CorrespondingSourceObject: {fileID: 0}
  m_PrefabInstance: {fileID: 0}
  m_PrefabAsset: {fileID: 0}
  m_GameObject: {fileID: 0}
  m_Enabled: 1
  m_EditorHideFlags: 0
  m_Script: {fileID: 11500000, guid: 51ebdf724367c0f4997a429c40f403f6, type: 3}
  m_Name: None
  m_EditorClassIdentifier: 
  elementIcon: {fileID: 21300000, guid: 540b141eb0ec4494d9b42bd9ea32cd93, type: 3}
  elementColor: {r: 1, g: 1, b: 1, a: 1}
  element: 0
  elementNameJp: "\u306A\u3057"
